tests/ulx3s_gui_test/fpga_gateware/test_sdram_n_fifo_interface_IS42S16160G/simulations_to_keep/test1_simulation_simulate.vcd
$date
	Thu Feb 17 21:23:36 2022
$end
$version
	GTKWave Analyzer v3.3.104 (w)1999-2020 BSI
$end
$timescale
	1ps
$end
$scope module bench $end
$scope module top $end
$scope module m_sdram_controller $end
$scope module fifo_controller $end
$var wire 1 t w_rdy $end
$var wire 1 I r_rdy $end
$var wire 7 D r_level[6:0] $end
$var wire 1 " $signal $end
$var wire 1 u w_rdy$1 $end
$var wire 1 J r_rdy$1 $end
$var wire 7 = r_level$1[6:0] $end
$var wire 1 # $signal$1 $end
$var wire 1 v w_rdy$2 $end
$var wire 1 K r_rdy$2 $end
$var wire 7 > r_level$2[6:0] $end
$var wire 1 $ $signal$2 $end
$var wire 1 w w_rdy$3 $end
$var wire 1 L r_rdy$3 $end
$var wire 7 ? r_level$3[6:0] $end
$var wire 1 % $signal$3 $end
$var wire 1 a sdram_clk $end
$var wire 1 c sdram_rst $end
$var wire 1 / initialised $end
$var wire 1 Z refresh_in_progress $end
$var wire 1 f trigger_refresh $end
$var wire 1 [ request_to_refresh_soon $end
$var string 0 ( fifo_0_router_fsm_state $end
$var wire 1 9 r_en $end
$var wire 16 k w_data[15:0] $end
$var wire 1 l w_en $end
$var wire 1 \ request_to_store_data_in_ram $end
$var wire 20 !! words_stored_in_ram[19:0] $end
$var wire 1 M r_rdy$4 $end
$var wire 1 x w_rdy$4 $end
$var wire 16 8 r_data[15:0] $end
$var string 0 ) fifo_1_router_fsm_state $end
$var wire 1 : r_en$1 $end
$var wire 16 h w_data$1[15:0] $end
$var wire 1 m w_en$1 $end
$var wire 1 ] request_to_store_data_in_ram$1 $end
$var wire 20 | words_stored_in_ram$1[19:0] $end
$var wire 1 N r_rdy$5 $end
$var wire 1 y w_rdy$5 $end
$var wire 16 5 r_data$1[15:0] $end
$var string 0 * fifo_2_router_fsm_state $end
$var wire 1 ; r_en$2 $end
$var wire 16 i w_data$2[15:0] $end
$var wire 1 n w_en$2 $end
$var wire 1 ^ request_to_store_data_in_ram$2 $end
$var wire 20 } words_stored_in_ram$2[19:0] $end
$var wire 1 O r_rdy$6 $end
$var wire 1 z w_rdy$6 $end
$var wire 16 6 r_data$2[15:0] $end
$var string 0 + fifo_3_router_fsm_state $end
$var wire 1 < r_en$3 $end
$var wire 16 j w_data$3[15:0] $end
$var wire 1 o w_en$3 $end
$var wire 1 _ request_to_store_data_in_ram$3 $end
$var wire 20 ~ words_stored_in_ram$3[19:0] $end
$var wire 1 P r_rdy$7 $end
$var wire 1 { w_rdy$7 $end
$var wire 16 7 r_data$3[15:0] $end
$var wire 3 V readback_phase[2:0] $end
$var wire 22 S readback_addr[21:0] $end
$var wire 2 U readback_fifo_id[1:0] $end
$var wire 20 T readback_buf_addr[19:0] $end
$var wire 1 Y readback_sdram_pipeline_active $end
$var wire 22 W readback_sdram_addr[21:0] $end
$var wire 16 X readback_sdram_data[15:0] $end
$var wire 20 H r_next_addr[19:0] $end
$var wire 20 s w_next_addr[19:0] $end
$var wire 20 E r_next_addr$1[19:0] $end
$var wire 20 p w_next_addr$1[19:0] $end
$var wire 20 F r_next_addr$2[19:0] $end
$var wire 20 q w_next_addr$2[19:0] $end
$var wire 20 G r_next_addr$3[19:0] $end
$var wire 20 r w_next_addr$3[19:0] $end
$var wire 2 2 next_srcfifo_index[1:0] $end
$var wire 1 d srcfifo_r_level_enough $end
$var wire 1 Q ram_wont_overfill $end
$var wire 1 g using_ram $end
$var wire 1 3 next_srcfifo_readable_to_sdram $end
$var wire 2 0 next_dstfifo_index[1:0] $end
$var wire 1 R ram_wont_overread $end
$var wire 1 ' dstfifo_w_space_enough $end
$var wire 1 1 next_dstfifo_writeable_from_sdram $end
$var wire 2 - fifo_index[1:0] $end
$var wire 7 @ r_level$4[6:0] $end
$var wire 7 A r_level$5[6:0] $end
$var wire 7 B r_level$6[6:0] $end
$var wire 7 C r_level$7[6:0] $end
$var string 0 e task_request $end
$var string 0 , fifo_controller_fsm_state $end
$var wire 22 ` sdram_addr[21:0] $end
$var wire 16 b sdram_data[15:0] $end
$var wire 3 & burst_index[2:0] $end
$var wire 1 4 numburst_index $end
$var wire 1 . in_progress $end
$upscope $end
$scope module pin_controller $end
$var wire 1 5! o_clk_en $end
$var wire 1 8! o_dqm $end
$var wire 16 7! o_dq[15:0] $end
$var wire 16 "! i_dq[15:0] $end
$var wire 13 2! o_a[12:0] $end
$var wire 2 3! o_ba[1:0] $end
$var wire 1 6! o_cs $end
$var wire 1 :! o_we $end
$var wire 1 9! o_ras $end
$var wire 1 4! o_cas $end
$var wire 1 =! sdram_clk $end
$var wire 1 >! sdram_rst $end
$var string 0 ?! selected_index $end
$var string 0 ;! pin_controller_fsm_state $end
$var wire 1 #! initialised $end
$var wire 1 <! refresh_in_progress $end
$var wire 1 @! trigger_refresh $end
$var wire 13 '! ios__o_a[12:0] $end
$var wire 13 &! ios__o_a$1[12:0] $end
$var wire 2 )! ios__o_ba[1:0] $end
$var wire 2 (! ios__o_ba$1[1:0] $end
$var wire 1 *! ios__o_clk_en $end
$var wire 1 +! ios__o_clk_en$1 $end
$var wire 1 0! ios__o_dqm $end
$var wire 1 1! ios__o_dqm$1 $end
$var wire 16 /! ios__o_dq[15:0] $end
$var wire 16 .! ios__o_dq$1[15:0] $end
$var wire 16 %! ios__i_dq[15:0] $end
$var wire 16 $! ios__i_dq$1[15:0] $end
$var string 0 ,! ios__o_cmd $end
$var string 0 -! ios__o_cmd$1 $end
$upscope $end
$scope module read_write_controller $end
$var wire 1 s! sdram_clk $end
$var wire 1 u! sdram_rst $end
$var wire 13 b! ios__o_a[12:0] $end
$var wire 2 c! ios__o_ba[1:0] $end
$var wire 1 d! ios__o_clk_en $end
$var wire 1 g! ios__o_dqm $end
$var wire 16 f! ios__o_dq[15:0] $end
$var wire 16 a! ios__i_dq[15:0] $end
$var string 0 e! ios__o_cmd $end
$var wire 1 m! readback_sdram_pipeline_active $end
$var wire 22 k! readback_sdram_addr[21:0] $end
$var wire 16 l! readback_sdram_data[15:0] $end
$var string 0 $" task_request $end
$var wire 22 r! sdram_addr[21:0] $end
$var wire 16 t! sdram_data[15:0] $end
$var wire 3 _! burst_index[2:0] $end
$var wire 1 `! in_progress $end
$var wire 25 v! shared_timer[24:0] $end
$var wire 25 w! shared_timer_1[24:0] $end
$var wire 25 x! shared_timer_2[24:0] $end
$var wire 25 y! shared_timer_3[24:0] $end
$var wire 1 z! shared_timer_done $end
$var wire 1 {! shared_timer_done_1 $end
$var wire 1 |! shared_timer_done_2 $end
$var wire 1 }! shared_timer_done_3 $end
$var wire 1 ~! shared_timer_inactive $end
$var wire 1 !" shared_timer_inactive_1 $end
$var wire 1 "" shared_timer_inactive_2 $end
$var wire 1 #" shared_timer_inactive_3 $end
$var wire 22 ^! addr_temp[21:0] $end
$var wire 2 h! o_bank[1:0] $end
$var wire 9 i! o_col[8:0] $end
$var wire 11 j! o_row[10:0] $end
$var wire 16 %" w_data[15:0] $end
$var wire 1 R! IN_PROGRESS $end
$var wire 1 S! IN_PROGRESS$1 $end
$var wire 1 T! IN_PROGRESS$2 $end
$var wire 1 U! IN_PROGRESS$3 $end
$var wire 16 ]! W_DATA[15:0] $end
$var string 0 n! rw_bank_0_fsm_state $end
$var wire 16 Y! R_DATA[15:0] $end
$var string 0 N! $sample$s$task_request$sdram$2 $end
$var wire 2 C! $sample$s$o_bank$sdram$3[1:0] $end
$var wire 9 F! $sample$s$o_col$sdram$3[8:0] $end
$var wire 16 Q! $sample$s$w_data$sdram$3[15:0] $end
$var wire 22 L! $sample$s$sdram_addr$sdram$6[21:0] $end
$var wire 16 Z! W_DATA$1[15:0] $end
$var string 0 o! rw_bank_1_fsm_state $end
$var wire 16 V! R_DATA$1[15:0] $end
$var wire 16 [! W_DATA$2[15:0] $end
$var string 0 p! rw_bank_2_fsm_state $end
$var wire 16 W! R_DATA$2[15:0] $end
$var wire 16 \! W_DATA$3[15:0] $end
$var string 0 q! rw_bank_3_fsm_state $end
$var wire 16 X! R_DATA$3[15:0] $end
$var string 0 M! $sample$s$task_request$sdram$1 $end
$var wire 2 A! $sample$s$o_bank$sdram$1[1:0] $end
$var wire 2 B! $sample$s$o_bank$sdram$2[1:0] $end
$var wire 9 D! $sample$s$o_col$sdram$1[8:0] $end
$var wire 9 E! $sample$s$o_col$sdram$2[8:0] $end
$var wire 16 O! $sample$s$w_data$sdram$1[15:0] $end
$var wire 16 P! $sample$s$w_data$sdram$2[15:0] $end
$var wire 22 G! $sample$s$sdram_addr$sdram$1[21:0] $end
$var wire 22 H! $sample$s$sdram_addr$sdram$2[21:0] $end
$var wire 22 I! $sample$s$sdram_addr$sdram$3[21:0] $end
$var wire 22 J! $sample$s$sdram_addr$sdram$4[21:0] $end
$var wire 22 K! $sample$s$sdram_addr$sdram$5[21:0] $end
$upscope $end
$scope module refresh_controller $end
$var wire 1 1" sdram_clk $end
$var wire 1 2" sdram_rst $end
$var wire 1 (" initialised $end
$var wire 1 -" refresh_in_progress $end
$var wire 1 ?" trigger_refresh $end
$var wire 13 )" ios__o_a[12:0] $end
$var wire 1 *" ios__o_clk_en $end
$var string 0 +" ios__o_cmd $end
$var wire 23 ." refresh_level[22:0] $end
$var wire 25 3" shared_timer[24:0] $end
$var wire 25 4" shared_timer_1[24:0] $end
$var wire 25 5" shared_timer_2[24:0] $end
$var wire 25 6" shared_timer_3[24:0] $end
$var wire 1 7" shared_timer_done $end
$var wire 1 8" shared_timer_done_1 $end
$var wire 1 9" shared_timer_done_2 $end
$var wire 1 :" shared_timer_done_3 $end
$var wire 1 ;" shared_timer_inactive $end
$var wire 1 <" shared_timer_inactive_1 $end
$var wire 1 =" shared_timer_inactive_2 $end
$var wire 1 >" shared_timer_inactive_3 $end
$var string 0 '" initialise_and_load_mode_register_fsm_state $end
$var wire 1 &" complete $end
$var string 0 ," refresh_controller_fsm_state $end
$var wire 3 /" refreshes_to_do[2:0] $end
$var wire 1 0" request_to_refresh_soon $end
$upscope $end
$upscope $end
$upscope $end
$upscope $end
$enddefinitions $end
#0
$dumpvars
0u!
b0 I!
b1 0
b0 _!
b0 f!
b0 W
1"
1t
0I
sBYPASS_SDRAM/0 )
1#
1%
b0 H
b0 X
b0 b!
b0 c!
0:
1d!
1g!
b0 t!
b0 E
sCMDO_DESL/0 e!
b0 a!
b0 s
b0 h
0m!
0a
b0 F
b0 p
b0 k!
b0 l!
0m
sRW_IDLE/0 $"
b0 r!
b0 i!
0{!
b0 G
b0 v!
b0 q
0`!
0]
1v
0c
b1 2
b0 r
b0 w!
b0 x!
b0 |
b0 y!
0z!
b0 h!
1Q
0}!
0|!
0d
0N
1~!
0/
03
0g
1!"
1""
1y
1#"
b0 ^!
15!
sIDLE/0 o!
b0 ]!
0R
1u
b0 j!
b0 %"
b0 5
0K
0Z
01
1'
0R!
0S!
sBYPASS_SDRAM/0 *
0T!
0U!
b0 Z!
b0 @
b0 Y!
sIDLE/0 n!
b0 -
0;
sRW_IDLE/0 N!
0f
b0 B
b0 A
b0 C!
b0 F!
b0 i
b0 Q!
b0 L!
b0 H!
b0 X!
sRW_IDLE/0 e
b0 [!
b0 C
b0 V!
0n
b0 >
0[
b0 `
sWAITING_FOR_INITIALISE/0 ,
sIDLE/0 p!
b0 W!
0^
b0 \!
sIDLE/0 q!
b0 G!
b0 &
b0 A!
sRW_IDLE/0 M!
b0 b
b0 }
b0 B!
sBYPASS_SDRAM/0 (
0.
04
b0 D!
b0 E!
0O
b0 O!
b0 P!
0s!
b0 ~
b0 6"
0-"
08!
0J
b0 J!
b0 D
1z
1$
09
b0 "!
b0 7!
b0 K!
01"
b0 6
02"
0("
b0 5"
b0 3!
b0 )"
0?"
b0 2!
sBYPASS_SDRAM/0 +
1*"
b0 k
0:!
16!
sCMDO_NOP/1 +"
b10001011101001100000000 ."
0<
b0 3"
b0 4"
00"
1="
04!
08"
09!
07"
b0 j
1w
0l
0>!
0=!
09"
0:"
0o
1;"
1<"
0#!
0_
sPOWERUP/0 '"
1>"
sDEMUX_REFRESH_CTRL/0 ?!
0\
0&"
b101 /"
sCMD_FROM_REFRESH_CTRL/0 ;!
sAFTER_RESET/0 ,"
0Y
1+!
b0 '!
b0 =
0<!
0@!
0P
0L
b0 !!
1*!
b0 )!
b0 &!
1{
b0 7
b0 (!
0M
sCMDO_DESL/0 -!
b0 /!
11!
b0 V
00!
b0 S
b0 ?
1x
sCMDO_NOP/1 ,!
b0 %!
b0 .!
b0 U
b0 T
b0 $!
b0 8
$end
#3496
1a
b10001011101001011111111 ."
1s!
11"
b100011101 3"
1=!
0;"
#6992
0=!
0a
01"
0s!
#10488
1s!
11"
1a
b100011100 3"
1=!
b10001011101001011111110 ."
#13984
0=!
0s!
0a
01"
#17480
11"
1a
1s!
b100011011 3"
1=!
b10001011101001011111101 ."
#20976
0=!
01"
0s!
0a
#24472
1a
1s!
11"
b100011010 3"
1=!
b10001011101001011111100 ."
#27968
0=!
0a
01"
0s!
#31464
1s!
11"
1a
b100011001 3"
1=!
b10001011101001011111011 ."
#34960
0=!
0s!
0a
01"
#38456
11"
1a
1s!
b100011000 3"
1=!
b10001011101001011111010 ."
#41952
0=!
01"
0s!
0a
#45448
1a
1s!
11"
b100010111 3"
1=!
b10001011101001011111001 ."
#48944
0=!
0a
01"
0s!
#52440
1s!
11"
1a
b100010110 3"
1=!
b10001011101001011111000 ."
#55936
0=!
0s!
0a
01"
#59432
11"
1a
1s!
b100010101 3"
1=!
b10001011101001011110111 ."
#62928
0=!
01"
0s!
0a
#66424
1a
1s!
11"
b100010100 3"
1=!
b10001011101001011110110 ."
#69920
0=!
0a
01"
0s!
#73416
1s!
11"
1a
b100010011 3"
1=!
b10001011101001011110101 ."
#76912
0=!
0s!
0a
01"
#80408
11"
1a
1s!
b100010010 3"
1=!
b10001011101001011110100 ."
#83904
0=!
01"
0s!
0a
#87400
1a
1s!
11"
b100010001 3"
1=!
b10001011101001011110011 ."
#90896
0=!
0a
01"
0s!
#94392
1s!
11"
1a
b100010000 3"
1=!
b10001011101001011110010 ."
#97888
0=!
0s!
0a
01"
#101384
11"
1a
1s!
b100001111 3"
1=!
b10001011101001011110001 ."
#104880
0=!
01"
0s!
0a
#108376
1a
1s!
11"
b100001110 3"
1=!
b10001011101001011110000 ."
#111872
0=!
0a
01"
0s!
#115368
1s!
11"
1a
b100001101 3"
1=!
b10001011101001011101111 ."
#118864
0=!
0s!
0a
01"
#122360
11"
1a
1s!
b100001100 3"
1=!
b10001011101001011101110 ."
#125856
0=!
01"
0s!
0a
#129352
1a
1s!
11"
b100001011 3"
1=!
b10001011101001011101101 ."
#132848
0=!
0a
01"
0s!
#136344
1s!
11"
1a
b100001010 3"
1=!
b10001011101001011101100 ."
#139840
0=!
0s!
0a
01"
#143336
11"
1a
1s!
b100001001 3"
1=!
b10001011101001011101011 ."
#146832
0=!
01"
0s!
0a
#150328
1a
1s!
11"
b100001000 3"
1=!
b10001011101001011101010 ."
#153824
0=!
0a
01"
0s!
#157320
1s!
11"
1a
b100000111 3"
1=!
b10001011101001011101001 ."
#160816
0=!
0s!
0a
01"
#164312
11"
1a
1s!
b100000110 3"
1=!
b10001011101001011101000 ."
#167808
0=!
01"
0s!
0a
#171304
1a
1s!
11"
b100000101 3"
1=!
b10001011101001011100111 ."
#174800
0=!
0a
01"
0s!
#178296
1s!
11"
1a
b100000100 3"
1=!
b10001011101001011100110 ."
#181792
0=!
0s!
0a
01"
#185288
11"
1a
1s!
b100000011 3"
1=!
b10001011101001011100101 ."
#188784
0=!
01"
0s!
0a
#192280
1a
1s!
11"
b100000010 3"
1=!
b10001011101001011100100 ."
#195776
0=!
0a
01"
0s!
#199272
1s!
11"
1a
b100000001 3"
1=!
b10001011101001011100011 ."
#202768
0=!
0s!
0a
01"
#206264
11"
1a
1s!
b100000000 3"
1=!
b10001011101001011100010 ."
#209760
0=!
01"
0s!
0a
#213256
1a
1s!
11"
b11111111 3"
1=!
b10001011101001011100001 ."
#216752
0=!
0a
01"
0s!
#220248
1s!
11"
1a
b11111110 3"
1=!
b10001011101001011100000 ."
#223744
0=!
0s!
0a
01"
#227240
11"
1a
1s!
b11111101 3"
1=!
b10001011101001011011111 ."
#230736
0=!
01"
0s!
0a
#234232
1a
1s!
11"
b11111100 3"
1=!
b10001011101001011011110 ."
#237728
0=!
0a
01"
0s!
#241224
1s!
11"
1a
b11111011 3"
1=!
b10001011101001011011101 ."
#244720
0=!
0s!
0a
01"
#248216
11"
1a
1s!
b11111010 3"
1=!
b10001011101001011011100 ."
#251712
0=!
01"
0s!
0a
#255208
1a
1s!
11"
b11111001 3"
1=!
b10001011101001011011011 ."
#258704
0=!
0a
01"
0s!
#262200
1s!
11"
1a
b11111000 3"
1=!
b10001011101001011011010 ."
#265696
0=!
0s!
0a
01"
#269192
11"
1a
1s!
b11110111 3"
1=!
b10001011101001011011001 ."
#272688
0=!
01"
0s!
0a
#276184
1a
1s!
11"
b11110110 3"
1=!
b10001011101001011011000 ."
#279680
0=!
0a
01"
0s!
#283176
1s!
11"
1a
b11110101 3"
1=!
b10001011101001011010111 ."
#286672
0=!
0s!
0a
01"
#290168
11"
1a
1s!
b11110100 3"
1=!
b10001011101001011010110 ."
#293664
0=!
01"
0s!
0a
#297160
1a
1s!
11"
b11110011 3"
1=!
b10001011101001011010101 ."
#300656
0=!
0a
01"
0s!
#304152
1s!
11"
1a
b11110010 3"
1=!
b10001011101001011010100 ."
#307648
0=!
0s!
0a
01"
#311144
11"
1a
1s!
b11110001 3"
1=!
b10001011101001011010011 ."
#314640
0=!
01"
0s!
0a
#318136
1a
1s!
11"
b11110000 3"
1=!
b10001011101001011010010 ."
#321632
0=!
0a
01"
0s!
#325128
1s!
11"
1a
b11101111 3"
1=!
b10001011101001011010001 ."
#328624
0=!
0s!
0a
01"
#332120
11"
1a
1s!
b11101110 3"
1=!
b10001011101001011010000 ."
#335616
0=!
01"
0s!
0a
#339112
1a
1s!
11"
b11101101 3"
1=!
b10001011101001011001111 ."
#342608
0=!
0a
01"
0s!
#346104
1s!
11"
1a
b11101100 3"
1=!
b10001011101001011001110 ."
#349600
0=!
0s!
0a
01"
#353096
11"
1a
1s!
b11101011 3"
1=!
b10001011101001011001101 ."
#356592
0=!
01"
0s!
0a
#360088
1a
1s!
11"
b11101010 3"
1=!
b10001011101001011001100 ."
#363584
0=!
0a
01"
0s!
#367080
1s!
11"
1a
b11101001 3"
1=!
b10001011101001011001011 ."
#370576
0=!
0s!
0a
01"
#374072
11"
1a
1s!
b11101000 3"
1=!
b10001011101001011001010 ."
#377568
0=!
01"
0s!
0a
#381064
1a
1s!
11"
b11100111 3"
1=!
b10001011101001011001001 ."
#384560
0=!
0a
01"
0s!
#388056
1s!
11"
1a
b11100110 3"
1=!
b10001011101001011001000 ."
#391552
0=!
0s!
0a
01"
#395048
11"
1a
1s!
b11100101 3"
1=!
b10001011101001011000111 ."
#398544
0=!
01"
0s!
0a
#402040
1a
1s!
11"
b11100100 3"
1=!
b10001011101001011000110 ."
#405536
0=!
0a
01"
0s!
#409032
1s!
11"
1a
b11100011 3"
1=!
b10001011101001011000101 ."
#412528
0=!
0s!
0a
01"
#416024
11"
1a
1s!
b11100010 3"
1=!
b10001011101001011000100 ."
#419520
0=!
01"
0s!
0a
#423016
1a
1s!
11"
b11100001 3"
1=!
b10001011101001011000011 ."
#426512
0=!
0a
01"
0s!
#430008
1s!
11"
1a
b11100000 3"
1=!
b10001011101001011000010 ."
#433504
0=!
0s!
0a
01"
#437000
11"
1a
1s!
b11011111 3"
1=!
b10001011101001011000001 ."
#440496
0=!
01"
0s!
0a
#443992
1a
1s!
11"
b11011110 3"
1=!
b10001011101001011000000 ."
#447488
0=!
0a
01"
0s!
#450984
1s!
11"
1a
b11011101 3"
1=!
b10001011101001010111111 ."
#454480
0=!
0s!
0a
01"
#457976
11"
1a
1s!
b11011100 3"
1=!
b10001011101001010111110 ."
#461472
0=!
01"
0s!
0a
#464968
1a
1s!
11"
b11011011 3"
1=!
b10001011101001010111101 ."
#468464
0=!
0a
01"
0s!
#471960
1s!
11"
1a
b11011010 3"
1=!
b10001011101001010111100 ."
#475456
0=!
0s!
0a
01"
#478952
11"
1a
1s!
b11011001 3"
1=!
b10001011101001010111011 ."
#482448
0=!
01"
0s!
0a
#485944
1a
1s!
11"
b11011000 3"
1=!
b10001011101001010111010 ."
#489440
0=!
0a
01"
0s!
#492936
1s!
11"
1a
b11010111 3"
1=!
b10001011101001010111001 ."
#496432
0=!
0s!
0a
01"
#499928
11"
1a
1s!
b11010110 3"
1=!
b10001011101001010111000 ."
#503424
0=!
01"
0s!
0a
#506920
1a
1s!
11"
b11010101 3"
1=!
b10001011101001010110111 ."
#510416
0=!
0a
01"
0s!
#513912
1s!
11"
1a
b11010100 3"
1=!
b10001011101001010110110 ."
#517408
0=!
0s!
0a
01"
#520904
11"
1a
1s!
b11010011 3"
1=!
b10001011101001010110101 ."
#524400
0=!
01"
0s!
0a
#527896
1a
1s!
11"
b11010010 3"
1=!
b10001011101001010110100 ."
#531392
0=!
0a
01"
0s!
#534888
1s!
11"
1a
b11010001 3"
1=!
b10001011101001010110011 ."
#538384
0=!
0s!
0a
01"
#541880
11"
1a
1s!
b11010000 3"
1=!
b10001011101001010110010 ."
#545376
0=!
01"
0s!
0a
#548872
1a
1s!
11"
b11001111 3"
1=!
b10001011101001010110001 ."
#552368
0=!
0a
01"
0s!
#555864
1s!
11"
1a
b11001110 3"
1=!
b10001011101001010110000 ."
#559360
0=!
0s!
0a
01"
#562856
11"
1a
1s!
b11001101 3"
1=!
b10001011101001010101111 ."
#566352
0=!
01"
0s!
0a
#569848
1a
1s!
11"
b11001100 3"
1=!
b10001011101001010101110 ."
#573344
0=!
0a
01"
0s!
#576840
1s!
11"
1a
b11001011 3"
1=!
b10001011101001010101101 ."
#580336
0=!
0s!
0a
01"
#583832
11"
1a
1s!
b11001010 3"
1=!
b10001011101001010101100 ."
#587328
0=!
01"
0s!
0a
#590824
1a
1s!
11"
b11001001 3"
1=!
b10001011101001010101011 ."
#594320
0=!
0a
01"
0s!
#597816
1s!
11"
1a
b11001000 3"
1=!
b10001011101001010101010 ."
#601312
0=!
0s!
0a
01"
#604808
11"
1a
1s!
b11000111 3"
1=!
b10001011101001010101001 ."
#608304
0=!
01"
0s!
0a
#611800
1a
1s!
11"
b11000110 3"
1=!
b10001011101001010101000 ."
#615296
0=!
0a
01"
0s!
#618792
1s!
11"
1a
b11000101 3"
1=!
b10001011101001010100111 ."
#622288
0=!
0s!
0a
01"
#625784
11"
1a
1s!
b11000100 3"
1=!
b10001011101001010100110 ."
#629280
0=!
01"
0s!
0a
#632776
1a
1s!
11"
b11000011 3"
1=!
b10001011101001010100101 ."
#636272
0=!
0a
01"
0s!
#639768
1s!
11"
1a
b11000010 3"
1=!
b10001011101001010100100 ."
#643264
0=!
0s!
0a
01"
#646760
11"
1a
1s!
b11000001 3"
1=!
b10001011101001010100011 ."
#650256
0=!
01"
0s!
0a
#653752
1a
1s!
11"
b11000000 3"
1=!
b10001011101001010100010 ."
#657248
0=!
0a
01"
0s!
#660744
1s!
11"
1a
b10111111 3"
1=!
b10001011101001010100001 ."
#664240
0=!
0s!
0a
01"
#667736
11"
1a
1s!
b10111110 3"
1=!
b10001011101001010100000 ."
#671232
0=!
01"
0s!
0a
#674728
1a
1s!
11"
b10111101 3"
1=!
b10001011101001010011111 ."
#678224
0=!
0a
01"
0s!
#681720
1s!
11"
1a
b10111100 3"
1=!
b10001011101001010011110 ."
#685216
0=!
0s!
0a
01"
#688712
11"
1a
1s!
b10111011 3"
1=!
b10001011101001010011101 ."
#692208
0=!
01"
0s!
0a
#695704
1a
1s!
11"
b10111010 3"
1=!
b10001011101001010011100 ."
#699200
0=!
0a
01"
0s!
#702696
1s!
11"
1a
b10111001 3"
1=!
b10001011101001010011011 ."
#706192
0=!
0s!
0a
01"
#709688
11"
1a
1s!
b10111000 3"
1=!
b10001011101001010011010 ."
#713184
0=!
01"
0s!
0a
#716680
1a
1s!
11"
b10110111 3"
1=!
b10001011101001010011001 ."
#720176
0=!
0a
01"
0s!
#723672
1s!
11"
1a
b10110110 3"
1=!
b10001011101001010011000 ."
#727168
0=!
0s!
0a
01"
#730664
11"
1a
1s!
b10110101 3"
1=!
b10001011101001010010111 ."
#734160
0=!
01"
0s!
0a
#737656
1a
1s!
11"
b10110100 3"
1=!
b10001011101001010010110 ."
#741152
0=!
0a
01"
0s!
#744648
1s!
11"
1a
b10110011 3"
1=!
b10001011101001010010101 ."
#748144
0=!
0s!
0a
01"
#751640
11"
1a
1s!
b10110010 3"
1=!
b10001011101001010010100 ."
#755136
0=!
01"
0s!
0a
#758632
1a
1s!
11"
b10110001 3"
1=!
b10001011101001010010011 ."
#762128
0=!
0a
01"
0s!
#765624
1s!
11"
1a
b10110000 3"
1=!
b10001011101001010010010 ."
#769120
0=!
0s!
0a
01"
#772616
11"
1a
1s!
b10101111 3"
1=!
b10001011101001010010001 ."
#776112
0=!
01"
0s!
0a
#779608
1a
1s!
11"
b10101110 3"
1=!
b10001011101001010010000 ."
#783104
0=!
0a
01"
0s!
#786600
1s!
11"
1a
b10101101 3"
1=!
b10001011101001010001111 ."
#790096
0=!
0s!
0a
01"
#793592
11"
1a
1s!
b10101100 3"
1=!
b10001011101001010001110 ."
#797088
0=!
01"
0s!
0a
#800584
1a
1s!
11"
b10101011 3"
1=!
b10001011101001010001101 ."
#804080
0=!
0a
01"
0s!
#807576
1s!
11"
1a
b10101010 3"
1=!
b10001011101001010001100 ."
#811072
0=!
0s!
0a
01"
#814568
11"
1a
1s!
b10101001 3"
1=!
b10001011101001010001011 ."
#818064
0=!
01"
0s!
0a
#821560
1a
1s!
11"
b10101000 3"
1=!
b10001011101001010001010 ."
#825056
0=!
0a
01"
0s!
#828552
1s!
11"
1a
b10100111 3"
1=!
b10001011101001010001001 ."
#832048
0=!
0s!
0a
01"
#835544
11"
1a
1s!
b10100110 3"
1=!
b10001011101001010001000 ."
#839040
0=!
01"
0s!
0a
#842536
1a
1s!
11"
b10100101 3"
1=!
b10001011101001010000111 ."
#846032
0=!
0a
01"
0s!
#849528
1s!
11"
1a
b10100100 3"
1=!
b10001011101001010000110 ."
#853024
0=!
0s!
0a
01"
#856520
11"
1a
1s!
b10100011 3"
1=!
b10001011101001010000101 ."
#860016
0=!
01"
0s!
0a
#863512
1a
1s!
11"
b10100010 3"
1=!
b10001011101001010000100 ."
#867008
0=!
0a
01"
0s!
#870504
1s!
11"
1a
b10100001 3"
1=!
b10001011101001010000011 ."
#874000
0=!
0s!
0a
01"
#877496
11"
1a
1s!
b10100000 3"
1=!
b10001011101001010000010 ."
#880992
0=!
01"
0s!
0a
#884488
1a
1s!
11"
b10011111 3"
1=!
b10001011101001010000001 ."
#887984
0=!
0a
01"
0s!
#891480
1s!
11"
1a
b10011110 3"
1=!
b10001011101001010000000 ."
#894976
0=!
0s!
0a
01"
#898472
11"
1a
1s!
b10011101 3"
1=!
b10001011101001001111111 ."
#901968
0=!
01"
0s!
0a
#905464
1a
1s!
11"
b10011100 3"
1=!
b10001011101001001111110 ."
#908960
0=!
0a
01"
0s!
#912456
1s!
11"
1a
b10011011 3"
1=!
b10001011101001001111101 ."
#915952
0=!
0s!
0a
01"
#919448
11"
1a
1s!
b10011010 3"
1=!
b10001011101001001111100 ."
#922944
0=!
01"
0s!
0a
#926440
1a
1s!
11"
b10011001 3"
1=!
b10001011101001001111011 ."
#929936
0=!
0a
01"
0s!
#933432
1s!
11"
1a
b10011000 3"
1=!
b10001011101001001111010 ."
#936928
0=!
0s!
0a
01"
#940424
11"
1a
1s!
b10010111 3"
1=!
b10001011101001001111001 ."
#943920
0=!
01"
0s!
0a
#947416
1a
1s!
11"
b10010110 3"
1=!
b10001011101001001111000 ."
#950912
0=!
0a
01"
0s!
#954408
1s!
11"
1a
b10010101 3"
1=!
b10001011101001001110111 ."
#957904
0=!
0s!
0a
01"
#961400
11"
1a
1s!
b10010100 3"
1=!
b10001011101001001110110 ."
#964896
0=!
01"
0s!
0a
#968392
1a
1s!
11"
b10010011 3"
1=!
b10001011101001001110101 ."
#971888
0=!
0a
01"
0s!
#975384
1s!
11"
1a
b10010010 3"
1=!
b10001011101001001110100 ."
#978880
0=!
0s!
0a
01"
#982376
11"
1a
1s!
b10010001 3"
1=!
b10001011101001001110011 ."
#985872
0=!
01"
0s!
0a
#989368
1a
1s!
11"
b10010000 3"
1=!
b10001011101001001110010 ."
#992864
0=!
0a
01"
0s!
#996360
1s!
11"
1a
b10001111 3"
1=!
b10001011101001001110001 ."
#999856
0=!
0s!
0a
01"
#1003352
11"
1a
1s!
b10001110 3"
1=!
b10001011101001001110000 ."
#1006848
0=!
01"
0s!
0a
#1010344
1a
1s!
11"
b10001101 3"
1=!
b10001011101001001101111 ."
#1013840
0=!
0a
01"
0s!
#1017336
1s!
11"
1a
b10001100 3"
1=!
b10001011101001001101110 ."
#1020832
0=!
0s!
0a
01"
#1024328
11"
1a
1s!
b10001011 3"
1=!
b10001011101001001101101 ."
#1027824
0=!
01"
0s!
0a
#1031320
1a
1s!
11"
b10001010 3"
1=!
b10001011101001001101100 ."
#1034816
0=!
0a
01"
0s!
#1038312
1s!
11"
1a
b10001001 3"
1=!
b10001011101001001101011 ."
#1041808
0=!
0s!
0a
01"
#1045304
11"
1a
1s!
b10001000 3"
1=!
b10001011101001001101010 ."
#1048800
0=!
01"
0s!
0a
#1052296
1a
1s!
11"
b10000111 3"
1=!
b10001011101001001101001 ."
#1055792
0=!
0a
01"
0s!
