amaram/sdram_n_fifo_interface/simulations_to_keep/controller_readwrite_readwriteCtrl_sim_thatWritingThenReadingBack_readsCorrectValues.vcd
$comment Generated by Amaranth $end
$date 2022-03-21 11:34:05.186096 $end
$timescale 1 ps $end
$scope module bench $end
$scope module top $end
$var wire 1 ! clk $end
$var wire 1 " rst $end
$var string 1 # _pin_ui__cmd $end
$var wire 1 $ _pin_ui__clk_en $end
$var wire 1 % _pin_ui__dqm $end
$var wire 13 & _pin_ui__rw_copi__a $end
$var wire 2 ' _pin_ui__rw_copi__ba $end
$var wire 1 ( _pin_ui__rw_copi__read_active $end
$var string 1 ) _ui__rw_copi__task $end
$var string 1 * ui__rw_copi__task $end
$var wire 22 + _ui__rw_copi__addr $end
$var wire 22 , ui__rw_copi__addr $end
$var wire 16 - _ui__rw_copi__w_data $end
$var wire 16 . ui__rw_copi__w_data $end
$var wire 1 / ui__r_cipo__read_active $end
$var wire 1 0 _ui__r_cipo__read_active $end
$var wire 22 1 ui__r_cipo__addr $end
$var wire 22 2 _ui__r_cipo__addr $end
$var wire 16 3 ui__r_cipo__r_data $end
$var wire 16 4 _ui__r_cipo__r_data $end
$var string 1 5 pin_ui__cmd $end
$var wire 1 6 pin_ui__clk_en $end
$var wire 1 7 pin_ui__dqm $end
$var wire 16 8 pin_ui__rw_copi__dq $end
$var wire 16 9 _pin_ui__rw_copi__dq $end
$var wire 1 : pin_ui__rw_copi__read_active $end
$var wire 13 ; pin_ui__rw_copi__a $end
$var wire 2 < pin_ui__rw_copi__ba $end
$var wire 22 = pin_ui__rw_copi__addr $end
$var wire 22 > _pin_ui__rw_copi__addr $end
$var wire 16 ? _pin_ui__rw_cipo__dq $end
$var wire 16 @ pin_ui__rw_cipo__dq $end
$var wire 22 A _pin_ui__rw_cipo__addr $end
$var wire 22 B $sample$s$pin_ui__rw_copi__addr$sync$3 $end
$var wire 1 C _pin_ui__rw_cipo__read_active $end
$var wire 9 D col $end
$var wire 2 E bank $end
$var wire 11 F row $end
$var wire 16 G data $end
$var wire 3 H burst_index $end
$var wire 1 I adding_to_readback_bus $end
$var wire 1 J readback_bus $end
$var wire 1 K readback_bus$1 $end
$var wire 1 L readback_bus$2 $end
$var wire 1 M readback_bus$3 $end
$var wire 1 N cmd_and_addr_bus $end
$var wire 1 O data_bus $end
$var string 1 P rw_bank_0_fsm_state $end
$var string 1 Q $sample$s$_ui__rw_copi__task$sync$1 $end
$var wire 1 R $sample$c$0$sync$1 $end
$var wire 11 S $sample$s$row$sync$1 $end
$var string 1 T $sample$s$_ui__rw_copi__task$sync$3 $end
$var wire 9 U $sample$s$col$sync$3 $end
$var wire 16 V $sample$s$data$sync$3 $end
$var wire 22 W $sample$s$_ui__rw_copi__addr$sync$4 $end
$var wire 1 X cmd_and_addr_bus$1 $end
$var wire 1 Y data_bus$1 $end
$var string 1 Z rw_bank_1_fsm_state $end
$var wire 1 [ $sample$c$1$sync$1 $end
$var wire 1 \ cmd_and_addr_bus$2 $end
$var wire 1 ] data_bus$2 $end
$var string 1 ^ rw_bank_2_fsm_state $end
$var wire 2 _ $sample$c$2$sync$1 $end
$var wire 1 ` cmd_and_addr_bus$3 $end
$var wire 1 a data_bus$3 $end
$var string 1 b rw_bank_3_fsm_state $end
$var wire 2 c $sample$c$3$sync$1 $end
$var wire 22 d $sample$s$pin_ui__rw_copi__addr$sync$1 $end
$var wire 22 e $sample$s$pin_ui__rw_copi__addr$sync$2 $end
$var string 1 f $sample$s$_ui__rw_copi__task$sync$2 $end
$var wire 9 g $sample$s$col$sync$1 $end
$var wire 9 h $sample$s$col$sync$2 $end
$var wire 16 i $sample$s$data$sync$1 $end
$var wire 16 j $sample$s$data$sync$2 $end
$var wire 22 k $sample$s$_ui__rw_copi__addr$sync$1 $end
$var wire 22 l $sample$s$_ui__rw_copi__addr$sync$2 $end
$var wire 22 m $sample$s$_ui__rw_copi__addr$sync$3 $end
$upscope $end
$upscope $end
$enddefinitions $end
#0
$dumpvars
0!
0"
sCMD_DESL/0 #
0$
0%
b0 &
b0 '
0(
sRW_IDLE/0 )
sRW_IDLE/0 *
b0 +
b0 ,
b0 -
b0 .
0/
00
b0 1
b0 2
b0 3
b0 4
sCMD_DESL/0 5
06
07
b0 8
b0 9
0:
b0 ;
b0 <
b0 =
b0 >
b0 ?
b0 @
b0 A
b0 B
0C
b0 D
b0 E
b0 F
b0 G
b0 H
0I
0J
0K
0L
0M
0N
0O
sIDLE/0 P
sRW_IDLE/0 Q
0R
b0 S
sRW_IDLE/0 T
b0 U
b0 V
b0 W
0X
0Y
sIDLE/0 Z
1[
0\
0]
sIDLE/0 ^
b10 _
0`
0a
sIDLE/0 b
b11 c
b0 d
b0 e
sRW_IDLE/0 f
b0 g
b0 h
b0 i
b0 j
b0 k
b0 l
b0 m
$end
#3496
1%
1!
1$
sRW_WRITE/2 *
sCMD_NOP/1 #
#6992
0!
#10488
sRW_WRITE/2 )
b1 ,
1!
sCMD_NOP/1 5
b1 .
17
16
#13984
0!
#17480
b10 ,
sRW_WRITE/2 Q
b1 +
1!
b10 .
b1 -
#20976
0!
#24472
b11 ,
b10 +
1N
b11 .
b1 G
b1 D
b10 -
b1 H
1!
sWAS_ACTIVE_NOP1/1 P
sRW_WRITE/2 f
b1 k
sCMD_ACT/7 #
#27968
0!
#31464
b100 ,
0N
b100 .
sRW_WRITE/2 T
b1 i
b10 D
1!
sCMD_ACT/7 5
sNOP3/2 P
sCMD_NOP/1 #
b10 k
b11 +
b10 G
b11 -
b10 H
b1 g
b1 l
#34960
0!
#38456
b101 ,
b101 .
b10 i
b11 D
b1 h
b1 j
1!
sCMD_NOP/1 5
sWRITE_0/3 P
b11 k
b100 +
b11 G
b100 -
b11 H
b10 g
b1 m
b10 l
#41952
0!
#45448
b1 U
b110 ,
1N
b110 .
b11 i
b100 D
b1 V
1O
b10 h
b10 j
1!
b1 W
sWRITE_1/6 P
sCMD_WRITE_AP/6 #
b101 +
b100 G
b101 -
b11 l
0%
b100 H
b11 g
b10 m
b100 k
#48944
0!
#52440
b10 U
b111 ,
0N
b111 .
b100 i
b101 D
b10 V
b11 h
b11 j
1!
sCMD_WRITE_AP/6 5
b10 W
sWRITE_2/7 P
sCMD_NOP/1 #
b110 +
b1 9
b101 G
07
b110 -
b100 l
b101 H
b100 g
b11 m
b101 k
#55936
0!
#59432
b11 U
b1000 ,
b1000 .
b101 i
b110 D
b11 V
b100 h
b100 j
1!
sCMD_NOP/1 5
b11 W
sWRITE_3/8 P
b111 +
b10 9
b110 G
b111 -
b101 l
b110 H
b1 8
b101 g
b100 m
b110 k
#62928
0!
#66424
b100 U
b1001 ,
b1001 .
b110 i
b111 D
b100 V
b101 h
b101 j
1!
b100 W
sWRITE_4/9 P
b1000 +
b11 9
b111 G
b1000 -
b110 l
b111 H
b10 8
b110 g
b101 m
b111 k
#69920
0!
#73416
b101 U
b1010 ,
b1010 .
b111 i
b0 D
b101 V
b110 h
b110 j
1!
b1 E
b101 W
sWRITE_5/10 P
b1001 +
b100 9
b1000 G
b1001 -
b111 l
b0 H
b11 8
b111 g
b110 m
b1000 k
#76912
0!
#80408
b110 U
1X
b1011 ,
b1 '
b1011 .
b1000 i
b1 D
b110 V
b111 h
b111 j
1!
sWAS_ACTIVE_NOP1/1 Z
b110 W
sWRITE_6/11 P
sCMD_ACT/7 #
b1010 +
b101 9
b1001 G
b1010 -
b1000 l
b1 H
b100 8
b0 g
b111 m
b1001 k
#83904
0!
#87400
b111 U
0X
b1100 ,
b0 '
b1100 .
b1001 i
b10 D
b111 V
b0 h
b1 <
b1000 j
1!
sCMD_ACT/7 5
sNOP3/2 Z
b111 W
sWRITE_7/12 P
sCMD_NOP/1 #
b1011 +
b110 9
b1010 G
b1011 -
b1001 l
b10 H
b101 8
b1 g
b1000 m
b1010 k
#90896
0!
#94392
b0 U
b1101 ,
b1101 .
b1010 i
b11 D
b1000 V
b1 h
b0 <
b1001 j
1!
sCMD_NOP/1 5
sWRITE_0/3 Z
b1000 W
sIDLE/0 P
b1100 +
b111 9
b1011 G
b1100 -
b1010 l
b11 H
b110 8
b10 g
b1001 m
b1011 k
#97888
0!
#101384
b1 U
1X
b1110 ,
b1 '
b1110 .
b1011 i
b100 D
b1001 V
1Y
0O
b10 h
b1010 j
1!
sWRITE_1/6 Z
b1001 W
sCMD_WRITE_AP/6 #
b1101 +
b1000 9
b1100 G
b1101 -
b1011 l
b100 H
b111 8
b11 g
b1010 m
b1100 k
#104880
0!
#108376
b10 U
0X
b1111 ,
b0 '
b1111 .
b1100 i
b101 D
b1010 V
b11 h
b1 <
b1011 j
1!
sCMD_WRITE_AP/6 5
sWRITE_2/7 Z
b1010 W
sCMD_NOP/1 #
b1110 +
b1001 9
b1101 G
b1110 -
b1100 l
b101 H
b1000 8
b100 g
b1011 m
b1101 k
#111872
0!
#115368
b11 U
b10000 ,
b10000 .
b1101 i
b110 D
b1011 V
b100 h
b0 <
b1100 j
1!
sCMD_NOP/1 5
sWRITE_3/8 Z
b1011 W
b1111 +
b1010 9
b1110 G
b1111 -
b1101 l
b110 H
b1001 8
b101 g
b1100 m
b1110 k
#118864
0!
#122360
b100 U
b10001 ,
b10001 .
b1110 i
b111 D
b1100 V
b101 h
b1101 j
1!
sWRITE_4/9 Z
b1100 W
b10000 +
b1011 9
b1111 G
b10000 -
b1110 l
b111 H
b1010 8
b110 g
b1101 m
b1111 k
#125856
0!
#129352
b101 U
b10010 ,
b10010 .
b1111 i
b0 D
b1101 V
b110 h
b1110 j
1!
b10 E
sWRITE_5/10 Z
b1101 W
b10001 +
b1100 9
b10000 G
b10001 -
b1111 l
b0 H
b1011 8
b111 g
b1110 m
b10000 k
#132848
0!
#136344
b110 U
b10011 ,
b10 '
b10011 .
b10000 i
b1 D
b1110 V
b111 h
b1111 j
1!
sWRITE_6/11 Z
b1110 W
sCMD_ACT/7 #
b10010 +
b1101 9
b10001 G
1\
b10010 -
b10000 l
b1 H
b1100 8
b0 g
b1111 m
b10001 k
sWAS_ACTIVE_NOP1/1 ^
#139840
0!
#143336
b111 U
b10100 ,
b0 '
b10100 .
b10001 i
b10 D
b1111 V
b0 h
b10 <
b10000 j
1!
sCMD_ACT/7 5
sWRITE_7/12 Z
b1111 W
sCMD_NOP/1 #
b10011 +
b1110 9
b10010 G
0\
b10011 -
b10001 l
b10 H
b1101 8
b1 g
b10000 m
b10010 k
sNOP3/2 ^
#146832
0!
#150328
b0 U
b10101 ,
b10101 .
b10010 i
b11 D
b10000 V
b1 h
b0 <
b10001 j
1!
sCMD_NOP/1 5
sIDLE/0 Z
b10000 W
b10100 +
b1111 9
b10011 G
b10100 -
b10010 l
b11 H
b1110 8
b10 g
b10001 m
b10011 k
sWRITE_0/3 ^
#153824
0!
#157320
b1 U
b10110 ,
b10 '
b10110 .
b10011 i
b100 D
b10001 V
0Y
b10 h
b10010 j
1!
b10001 W
sCMD_WRITE_AP/6 #
b10101 +
b10000 9
b10100 G
1\
b10101 -
b10011 l
b100 H
b1111 8
1]
b11 g
b10010 m
b10100 k
sWRITE_1/6 ^
#160816
0!
#164312
b10 U
b10111 ,
b0 '
b10111 .
b10100 i
b101 D
b10010 V
b11 h
b10 <
b10011 j
1!
sCMD_WRITE_AP/6 5
b10010 W
sCMD_NOP/1 #
b10110 +
b10001 9
b10101 G
0\
b10110 -
b10100 l
b101 H
b10000 8
b100 g
b10011 m
b10101 k
sWRITE_2/7 ^
#167808
0!
#171304
b11 U
b11000 ,
b11000 .
b10101 i
b110 D
b10011 V
b100 h
b0 <
b10100 j
1!
sCMD_NOP/1 5
b10011 W
b10111 +
b10010 9
b10110 G
b10111 -
b10101 l
b110 H
b10001 8
b101 g
b10100 m
b10110 k
sWRITE_3/8 ^
#174800
0!
#178296
b100 U
b11001 ,
b11001 .
b10110 i
b111 D
b10100 V
b101 h
b10101 j
1!
b10100 W
b11000 +
b10011 9
b10111 G
b11000 -
b10110 l
b111 H
b10010 8
b110 g
b10101 m
b10111 k
sWRITE_4/9 ^
#181792
0!
#185288
b101 U
b11010 ,
b11010 .
b10111 i
b0 D
b10101 V
b110 h
b10110 j
1!
b11 E
b10101 W
b11001 +
b10100 9
b11000 G
b11001 -
b10111 l
b0 H
b10011 8
b111 g
b10110 m
b11000 k
sWRITE_5/10 ^
#188784
0!
#192280
b110 U
b11011 ,
b11 '
b11011 .
b11000 i
b1 D
b10110 V
b111 h
1`
b10111 j
1!
b10110 W
sCMD_ACT/7 #
b11010 +
b10101 9
sWAS_ACTIVE_NOP1/1 b
b11001 G
b11010 -
b11000 l
b1 H
b10100 8
b0 g
b10111 m
b11001 k
sWRITE_6/11 ^
#195776
0!
#199272
b111 U
b11100 ,
b0 '
b11100 .
b11001 i
b10 D
b10111 V
b0 h
b11 <
0`
b11000 j
1!
sCMD_ACT/7 5
b10111 W
sCMD_NOP/1 #
b11011 +
b10110 9
sNOP3/2 b
b11010 G
b11011 -
b11001 l
b10 H
b10101 8
b1 g
b11000 m
b11010 k
sWRITE_7/12 ^
#202768
0!
#206264
b0 U
b11101 ,
b11101 .
b11010 i
b11 D
b11000 V
b1 h
b0 <
b11001 j
1!
sCMD_NOP/1 5
b11000 W
b11100 +
b10111 9
sWRITE_0/3 b
b11011 G
b11100 -
b11010 l
b11 H
b10110 8
b10 g
b11001 m
b11011 k
sIDLE/0 ^
#209760
0!
#213256
b1 U
b11110 ,
b11 '
b11110 .
b11011 i
b100 D
b11001 V
b10 h
1`
b11010 j
1!
b11001 W
1a
sCMD_WRITE_AP/6 #
b11101 +
b11000 9
sWRITE_1/6 b
b11100 G
b11101 -
b11011 l
b100 H
b10111 8
0]
b11 g
b11010 m
b11100 k
#216752
0!
#220248
b10 U
b11111 ,
b0 '
b11111 .
b11100 i
b101 D
b11010 V
b11 h
b11 <
0`
b11011 j
1!
sCMD_WRITE_AP/6 5
b11010 W
sCMD_NOP/1 #
b11110 +
b11001 9
sWRITE_2/7 b
b11101 G
b11110 -
b11100 l
b101 H
b11000 8
b100 g
b11011 m
b11101 k
#223744
0!
#227240
b11 U
b100000 ,
b100000 .
b11101 i
b110 D
b11011 V
b100 h
b0 <
b11100 j
1!
sCMD_NOP/1 5
b11011 W
b11111 +
b11010 9
sWRITE_3/8 b
b11110 G
b11111 -
b11101 l
b110 H
b11001 8
b101 g
b11100 m
b11110 k
#230736
0!
#234232
b100 U
b100001 ,
b100001 .
b11110 i
b111 D
b11100 V
b101 h
b11101 j
1!
b11100 W
b100000 +
b11011 9
sWRITE_4/9 b
b11111 G
b100000 -
b11110 l
b111 H
b11010 8
b110 g
b11101 m
b11111 k
#237728
0!
#241224
b101 U
b100010 ,
b100010 .
b11111 i
b1000 D
b11101 V
b110 h
b11110 j
1!
b0 E
b11101 W
b100001 +
b11100 9
sWRITE_5/10 b
b100000 G
b100001 -
b11111 l
b0 H
b11011 8
b111 g
b11110 m
b100000 k
#244720
0!
#248216
b110 U
b100011 ,
1N
b100011 .
b100000 i
b1001 D
b11110 V
b111 h
b11111 j
1!
b11110 W
sWAS_ACTIVE_NOP1/1 P
sCMD_ACT/7 #
b100010 +
b11101 9
sWRITE_6/11 b
b100001 G
b100010 -
b100000 l
b1 H
b11100 8
b1000 g
b11111 m
b100001 k
#251712
0!
#255208
b111 U
b100100 ,
0N
b100100 .
b100001 i
b1010 D
b11111 V
b1000 h
b100000 j
1!
sCMD_ACT/7 5
b11111 W
sNOP3/2 P
sCMD_NOP/1 #
b100011 +
b11110 9
sWRITE_7/12 b
b100010 G
b100011 -
b100001 l
b10 H
b11101 8
b1001 g
b100000 m
b100010 k
#258704
0!
#262200
b1000 U
b100101 ,
b100101 .
b100010 i
b1011 D
b100000 V
b1001 h
b100001 j
1!
sCMD_NOP/1 5
b100000 W
sWRITE_0/3 P
b100100 +
b11111 9
sIDLE/0 b
b100011 G
b100100 -
b100010 l
b11 H
b11110 8
b1010 g
b100001 m
b100011 k
#265696
0!
#269192
b1001 U
b100110 ,
1N
b100110 .
b100011 i
b1100 D
b100001 V
1O
b1010 h
b100010 j
1!
b100001 W
sWRITE_1/6 P
0a
sCMD_WRITE_AP/6 #
b100101 +
b100000 9
b100100 G
b100101 -
b100011 l
b100 H
b11111 8
b1011 g
b100010 m
b1000 &
b100100 k
#272688
0!
#276184
b1010 U
b100111 ,
0N
b100111 .
b1000 ;
b100100 i
b1101 D
b100010 V
b1011 h
b100011 j
1!
sCMD_WRITE_AP/6 5
b100010 W
sWRITE_2/7 P
sCMD_NOP/1 #
b100110 +
b100001 9
b100101 G
b100110 -
b100100 l
b101 H
b100000 8
b1100 g
b100011 m
b0 &
b100101 k
#279680
0!
#283176
b1011 U
b101000 ,
b101000 .
b0 ;
b100101 i
b1110 D
b100011 V
b1100 h
b100100 j
1!
sCMD_NOP/1 5
b100011 W
sWRITE_3/8 P
b100111 +
b100010 9
b100110 G
b100111 -
b100101 l
b110 H
b100001 8
b1101 g
b100100 m
b100110 k
#286672
0!
#290168
b1100 U
b101001 ,
b101001 .
b100110 i
b1111 D
b100100 V
b1101 h
b100101 j
1!
b100100 W
sWRITE_4/9 P
b101000 +
b100011 9
b100111 G
b101000 -
b100110 l
b111 H
b100010 8
b1110 g
b100101 m
b100111 k
#293664
0!
#297160
b1101 U
b101010 ,
b101010 .
b100111 i
b1000 D
b100101 V
b1110 h
b100110 j
1!
b1 E
b100101 W
sWRITE_5/10 P
b101001 +
b100100 9
b101000 G
b101001 -
b100111 l
b0 H
b100011 8
b1111 g
b100110 m
b101000 k
#300656
0!
#304152
b1110 U
1X
b101011 ,
b1 '
b101011 .
b101000 i
b1001 D
b100110 V
b1111 h
b100111 j
1!
sWAS_ACTIVE_NOP1/1 Z
b100110 W
sWRITE_6/11 P
sCMD_ACT/7 #
b101010 +
b100101 9
b101001 G
b101010 -
b101000 l
b1 H
b100100 8
b1000 g
b100111 m
b101001 k
#307648
0!
#311144
b1111 U
0X
b101100 ,
b0 '
b101100 .
b101001 i
b1010 D
b100111 V
b1000 h
b1 <
b101000 j
1!
sCMD_ACT/7 5
sNOP3/2 Z
b100111 W
sWRITE_7/12 P
sCMD_NOP/1 #
b101011 +
b100110 9
b101010 G
b101011 -
b101001 l
b10 H
b100101 8
b1001 g
b101000 m
b101010 k
#314640
0!
#318136
b1000 U
b101101 ,
b101101 .
b101010 i
b1011 D
b101000 V
b1001 h
b0 <
b101001 j
1!
sCMD_NOP/1 5
sWRITE_0/3 Z
b101000 W
sIDLE/0 P
b101100 +
b100111 9
b101011 G
b101100 -
b101010 l
b11 H
b100110 8
b1010 g
b101001 m
b101011 k
#321632
0!
#325128
b1001 U
1X
b101110 ,
b1 '
b101110 .
b101011 i
b1100 D
b101001 V
1Y
0O
b1010 h
b101010 j
1!
sWRITE_1/6 Z
b101001 W
sCMD_WRITE_AP/6 #
b101101 +
b101000 9
b101100 G
b101101 -
b101011 l
b100 H
b100111 8
b1011 g
b101010 m
b1000 &
b101100 k
#328624
0!
#332120
b1010 U
0X
b101111 ,
b0 '
b101111 .
b1000 ;
b101100 i
b1101 D
b101010 V
b1011 h
b1 <
b101011 j
1!
sCMD_WRITE_AP/6 5
sWRITE_2/7 Z
b101010 W
sCMD_NOP/1 #
b101110 +
b101001 9
b101101 G
b101110 -
b101100 l
b101 H
b101000 8
b1100 g
b101011 m
b0 &
b101101 k
#335616
0!
#339112
b1011 U
b110000 ,
b110000 .
b0 ;
b101101 i
b1110 D
b101011 V
b1100 h
b0 <
b101100 j
1!
sCMD_NOP/1 5
sWRITE_3/8 Z
b101011 W
b101111 +
b101010 9
b101110 G
b101111 -
b101101 l
b110 H
b101001 8
b1101 g
b101100 m
b101110 k
#342608
0!
#346104
b1100 U
b110001 ,
b110001 .
b101110 i
b1111 D
b101100 V
b1101 h
b101101 j
1!
sWRITE_4/9 Z
b101100 W
b110000 +
b101011 9
b101111 G
b110000 -
b101110 l
b111 H
b101010 8
b1110 g
b101101 m
b101111 k
#349600
0!
#353096
b1101 U
b110010 ,
b110010 .
b101111 i
b1000 D
b101101 V
b1110 h
b101110 j
1!
b10 E
sWRITE_5/10 Z
b101101 W
b110001 +
b101100 9
b110000 G
b110001 -
b101111 l
b0 H
b101011 8
b1111 g
b101110 m
b110000 k
#356592
0!
#360088
b1110 U
b110011 ,
b10 '
b110011 .
b110000 i
b1001 D
b101110 V
b1111 h
b101111 j
1!
sWRITE_6/11 Z
b101110 W
sCMD_ACT/7 #
b110010 +
b101101 9
b110001 G
1\
b110010 -
b110000 l
b1 H
b101100 8
b1000 g
b101111 m
b110001 k
sWAS_ACTIVE_NOP1/1 ^
#363584
0!
#367080
b1111 U
b110100 ,
b0 '
b110100 .
b110001 i
b1010 D
b101111 V
b1000 h
b10 <
b110000 j
1!
sCMD_ACT/7 5
sWRITE_7/12 Z
b101111 W
sCMD_NOP/1 #
b110011 +
b101110 9
b110010 G
0\
b110011 -
b110001 l
b10 H
b101101 8
b1001 g
b110000 m
b110010 k
sNOP3/2 ^
#370576
0!
#374072
b1000 U
b110101 ,
b110101 .
b110010 i
b1011 D
b110000 V
b1001 h
b0 <
b110001 j
1!
sCMD_NOP/1 5
sIDLE/0 Z
b110000 W
b110100 +
b101111 9
b110011 G
b110100 -
b110010 l
b11 H
b101110 8
b1010 g
b110001 m
b110011 k
sWRITE_0/3 ^
#377568
0!
#381064
b1001 U
b110110 ,
b10 '
b110110 .
b110011 i
b1100 D
b110001 V
0Y
b1010 h
b110010 j
1!
b110001 W
sCMD_WRITE_AP/6 #
b110101 +
b110000 9
b110100 G
1\
b110101 -
b110011 l
b100 H
b101111 8
1]
b1011 g
b110010 m
b1000 &
b110100 k
sWRITE_1/6 ^
#384560
0!
#388056
b1010 U
b110111 ,
b0 '
b110111 .
b1000 ;
b110100 i
b1101 D
b110010 V
b1011 h
b10 <
b110011 j
1!
sCMD_WRITE_AP/6 5
b110010 W
sCMD_NOP/1 #
b110110 +
b110001 9
b110101 G
0\
b110110 -
b110100 l
b101 H
b110000 8
b1100 g
b110011 m
b0 &
b110101 k
sWRITE_2/7 ^
#391552
0!
#395048
b1011 U
b111000 ,
b111000 .
b0 ;
b110101 i
b1110 D
b110011 V
b1100 h
b0 <
b110100 j
1!
sCMD_NOP/1 5
b110011 W
b110111 +
b110010 9
b110110 G
b110111 -
b110101 l
b110 H
b110001 8
b1101 g
b110100 m
b110110 k
sWRITE_3/8 ^
#398544
0!
#402040
b1100 U
b111001 ,
b111001 .
b110110 i
b1111 D
b110100 V
b1101 h
b110101 j
1!
b110100 W
b111000 +
b110011 9
b110111 G
b111000 -
b110110 l
b111 H
b110010 8
b1110 g
b110101 m
b110111 k
sWRITE_4/9 ^
#405536
0!
#409032
b1101 U
b111010 ,
b111010 .
b110111 i
b1000 D
b110101 V
b1110 h
b110110 j
1!
b11 E
b110101 W
b111001 +
b110100 9
b111000 G
b111001 -
b110111 l
b0 H
b110011 8
b1111 g
b110110 m
b111000 k
sWRITE_5/10 ^
#412528
0!
#416024
b1110 U
b111011 ,
b11 '
b111011 .
b111000 i
b1001 D
b110110 V
b1111 h
1`
b110111 j
1!
b110110 W
sCMD_ACT/7 #
b111010 +
b110101 9
sWAS_ACTIVE_NOP1/1 b
b111001 G
b111010 -
b111000 l
b1 H
b110100 8
b1000 g
b110111 m
b111001 k
sWRITE_6/11 ^
#419520
0!
#423016
b1111 U
b111100 ,
b0 '
b111100 .
b111001 i
b1010 D
b110111 V
b1000 h
b11 <
0`
b111000 j
1!
sCMD_ACT/7 5
b110111 W
sCMD_NOP/1 #
b111011 +
b110110 9
sNOP3/2 b
b111010 G
b111011 -
b111001 l
b10 H
b110101 8
b1001 g
b111000 m
b111010 k
sWRITE_7/12 ^
#426512
0!
#430008
b1000 U
b111101 ,
b111101 .
b111010 i
b1011 D
b111000 V
b1001 h
b0 <
b111001 j
1!
sCMD_NOP/1 5
b111000 W
b111100 +
b110111 9
sWRITE_0/3 b
b111011 G
b111100 -
b111010 l
b11 H
b110110 8
b1010 g
b111001 m
b111011 k
sIDLE/0 ^
#433504
0!
#437000
b1001 U
b111110 ,
b11 '
b111110 .
b111011 i
b1100 D
b111001 V
b1010 h
1`
b111010 j
1!
b111001 W
1a
sCMD_WRITE_AP/6 #
b111101 +
b111000 9
sWRITE_1/6 b
b111100 G
b111101 -
b111011 l
b100 H
b110111 8
0]
b1011 g
b111010 m
b1000 &
b111100 k
#440496
0!
#443992
b1010 U
b111111 ,
b0 '
b111111 .
b1000 ;
b111100 i
b1101 D
b111010 V
b1011 h
b11 <
0`
b111011 j
1!
sCMD_WRITE_AP/6 5
b111010 W
sCMD_NOP/1 #
b111110 +
b111001 9
sWRITE_2/7 b
b111101 G
b111110 -
b111100 l
b101 H
b111000 8
b1100 g
b111011 m
b0 &
b111101 k
#447488
0!
#450984
b1011 U
b0 ;
b111101 i
b1110 D
b111011 V
b1100 h
b0 <
b111100 j
1!
sCMD_NOP/1 5
b111011 W
b111111 +
b111010 9
sWRITE_3/8 b
b111110 G
b111111 -
b111101 l
b110 H
b111001 8
b1101 g
b111100 m
b111110 k
#454480
0!
#457976
b1100 U
b111110 i
b1111 D
b111100 V
b1101 h
b111101 j
1!
b111100 W
b111111 k
b111011 9
sWRITE_4/9 b
b111111 G
b111 H
b111010 8
b1110 g
b111101 m
b111110 l
#461472
0!
#464968
b111110 m
b1101 U
b111100 9
sWRITE_5/10 b
b111111 i
b111101 V
b1110 h
b111110 j
1!
b1111 g
b111011 8
b111101 W
b111111 l
#468464
0!
#471960
b1110 U
b111101 9
sWRITE_6/11 b
b111110 V
b1111 h
b111111 j
1!
b111100 8
b111110 W
b111111 m
#475456
0!
#478952
b1111 U
b111110 9
1!
sWRITE_7/12 b
b111101 8
b111111 W
b111111 V
#482448
0!
#485944
sIDLE/0 b
b111111 9
1!
b111110 8
#489440
0!
#492936
1%
b111111 8
1!
0a
#496432
0!
#499928
17
1!
#503424
0!
#506920
1!
#510416
0!
#513912
1!
#517408
0!
#520904
sRW_READ/1 *
b0 ,
1!
#524400
0!
#527896
sRW_READ/1 )
b1 ,
b0 +
1!
#531392
0!
#534888
b10 ,
b1 +
b0 D
sRW_READ/1 Q
b0 H
b0 E
1!
b0 k
#538384
0!
#541880
b1 k
b11 ,
b10 +
1N
b1 D
b1 H
1!
b0 g
sWAS_ACTIVE_NOP1/1 P
sRW_READ/1 f
b0 l
sCMD_ACT/7 #
#545376
0!
#548872
b100 ,
b11 +
0N
sRW_READ/1 T
b10 D
b0 h
b10 H
b1 l
1!
b1 g
sCMD_ACT/7 5
b0 m
sNOP3/2 P
b10 k
sCMD_NOP/1 #
#552368
0!
#555864
b1 m
b0 U
b101 ,
b100 +
b11 D
b1 h
b11 H
b10 l
1!
b10 g
sCMD_NOP/1 5
b0 W
sREAD_-3/4 P
b11 k
#559360
0!
#562856
b1 U
b110 ,
1N
b100 D
b10 h
1!
b1 W
sREAD_-2/13 P
sCMD_READ_AP/4 #
b101 +
b11 l
0%
b100 H
b11 g
b10 m
b100 k
#566352
0!
#569848
b10 U
b111 ,
0N
b101 D
b11 h
1!
sCMD_READ_AP/4 5
b10 W
sREAD_-1/14 P
sCMD_NOP/1 #
b110 +
07
b1 >
b100 l
b101 H
b100 g
b11 m
b101 k
#573344
0!
#576840
b11 U
b1000 ,
b110 D
b100 h
1!
sCMD_NOP/1 5
b11 W
sREAD_0/15 P
b1 =
b111 +
b10 >
b101 l
b110 H
b101 g
b100 m
b110 k
b1011111010101101 @
#580336
0!
#583832
b100 U
b1001 ,
b111 D
1(
b101 h
1!
b100 W
sREAD_1/16 P
b10 =
b111 k
b1 d
b1000 +
b1011111010101101 ?
b11 >
b111 H
b110 g
b101 m
b110 l
#587328
0!
#590824
b101 U
b1010 ,
b0 D
b110 h
b1 E
1!
b101 W
sREAD_2/17 P
b11 =
b1000 k
b10 d
b1001 +
b100 >
b1 e
b0 H
b111 g
b110 m
b111 l
1:
b0 @
#594320
0!
#597816
b110 U
1X
b1011 ,
b1 '
b1 D
b111 h
1!
sWAS_ACTIVE_NOP1/1 Z
b110 W
sREAD_3/18 P
b100 =
sCMD_ACT/7 #
b11 d
b1010 +
b0 ?
b1 B
b101 >
b1000 l
b10 e
b1 H
b0 g
b111 m
1C
b1001 k
b1 @
#601312
0!
#604808
b111 U
0X
b1100 ,
b0 '
b10 D
b0 h
b1 <
1!
sCMD_ACT/7 5
sNOP3/2 Z
b111 W
sREAD_4/19 P
b101 =
sCMD_NOP/1 #
b100 d
b1011 +
b1 ?
b10 B
b110 >
b1 A
b1001 l
b11 e
b10 H
b1 g
b1000 m
b1010 k
b10 @
#608304
0!
#611800
b0 U
b1101 ,
b11 D
b1 h
b0 <
1!
sCMD_NOP/1 5
sREAD_-3/4 Z
b1000 W
sREAD_5/20 P
b110 =
b101 d
b1100 +
b10 ?
b11 B
b111 >
b10 A
b1010 l
b100 e
b11 H
b10 g
b1001 m
b1011 k
b11 @
#615296
0!
#618792
b1 U
1X
b1110 ,
b1 '
b100 D
b10 h
1!
sREAD_-2/13 Z
b1001 W
sREAD_6/21 P
b111 =
sCMD_READ_AP/4 #
b110 d
b1101 +
b11 ?
b100 B
b1000 >
b11 A
b1011 l
b101 e
b100 H
b11 g
b1010 m
b1100 k
b100 @
#622288
0!
#625784
b10 U
0X
b1111 ,
b0 '
b101 D
b11 h
b1 <
1!
sCMD_READ_AP/4 5
sREAD_-1/14 Z
b1010 W
sREAD_7/22 P
b1000 =
sCMD_NOP/1 #
b111 d
b1110 +
b100 ?
b101 B
b1001 >
b100 A
b1100 l
b110 e
b101 H
b100 g
b1011 m
b1101 k
b101 @
#629280
0!
