amaram/sdram_n_fifo_interface/simulations_to_keep/controller_readwrite_readwriteCtrl_sim_thatWritingThenReadingBack_readsCorrectValues copy.vcd
$comment Generated by Amaranth $end
$date 2022-03-22 10:47:47.846072 $end
$timescale 1 ps $end
$scope module bench $end
$scope module top $end
$var wire 1 ! clk $end
$var wire 1 " rst $end
$var string 1 # _pin_ui__cmd $end
$var wire 1 $ _pin_ui__clk_en $end
$var wire 13 % _pin_ui__rw_copi__a $end
$var wire 2 & _pin_ui__rw_copi__ba $end
$var wire 1 ' _pin_ui__rw_copi__read_active $end
$var string 1 ( _ui__rw_copi__task $end
$var string 1 ) ui__rw_copi__task $end
$var wire 22 * _ui__rw_copi__addr $end
$var wire 22 + ui__rw_copi__addr $end
$var wire 16 , _ui__rw_copi__w_data $end
$var wire 16 - ui__rw_copi__w_data $end
$var wire 1 . ui__r_cipo__read_active $end
$var wire 1 / _ui__r_cipo__read_active $end
$var wire 22 0 ui__r_cipo__addr $end
$var wire 22 1 _ui__r_cipo__addr $end
$var wire 16 2 ui__r_cipo__r_data $end
$var wire 16 3 _ui__r_cipo__r_data $end
$var string 1 4 pin_ui__cmd $end
$var wire 1 5 pin_ui__clk_en $end
$var wire 1 6 pin_ui__dqm $end
$var wire 1 7 _pin_ui__dqm $end
$var wire 16 8 pin_ui__rw_copi__dq $end
$var wire 16 9 _pin_ui__rw_copi__dq $end
$var wire 1 : pin_ui__rw_copi__read_active $end
$var wire 13 ; pin_ui__rw_copi__a $end
$var wire 2 < pin_ui__rw_copi__ba $end
$var wire 22 = pin_ui__rw_copi__addr $end
$var wire 22 > _pin_ui__rw_copi__addr $end
$var wire 16 ? _pin_ui__rw_cipo__dq $end
$var wire 16 @ pin_ui__rw_cipo__dq $end
$var wire 22 A _pin_ui__rw_cipo__addr $end
$var wire 22 B $sample$s$pin_ui__rw_cipo__addr$sync$3 $end
$var wire 1 C _pin_ui__rw_cipo__read_active $end
$var wire 1 D pin_ui__rw_cipo__read_active $end
$var wire 9 E col $end
$var wire 2 F bank $end
$var wire 11 G row $end
$var wire 16 H data $end
$var wire 3 I burst_index $end
$var wire 1 J adding_to_readback_bus $end
$var wire 1 K readback_bus $end
$var wire 1 L readback_bus$1 $end
$var wire 1 M readback_bus$2 $end
$var wire 1 N readback_bus$3 $end
$var wire 1 O dqm $end
$var wire 1 P dqm$1 $end
$var wire 1 Q dqm$2 $end
$var wire 1 R dqm$3 $end
$var wire 1 S cmd_and_addr_bus $end
$var wire 1 T data_bus $end
$var string 1 U rw_bank_0_fsm_state $end
$var string 1 V $sample$s$_ui__rw_copi__task$sync$1 $end
$var wire 1 W $sample$c$0$sync$1 $end
$var wire 11 X $sample$s$row$sync$1 $end
$var string 1 Y $sample$s$_ui__rw_copi__task$sync$3 $end
$var wire 9 Z $sample$s$col$sync$3 $end
$var wire 16 [ $sample$s$data$sync$3 $end
$var wire 22 \ $sample$s$_ui__rw_copi__addr$sync$4 $end
$var wire 1 ] cmd_and_addr_bus$1 $end
$var wire 1 ^ data_bus$1 $end
$var string 1 _ rw_bank_1_fsm_state $end
$var wire 1 ` $sample$c$1$sync$1 $end
$var wire 1 a cmd_and_addr_bus$2 $end
$var wire 1 b data_bus$2 $end
$var string 1 c rw_bank_2_fsm_state $end
$var wire 2 d $sample$c$2$sync$1 $end
$var wire 1 e cmd_and_addr_bus$3 $end
$var wire 1 f data_bus$3 $end
$var string 1 g rw_bank_3_fsm_state $end
$var wire 2 h $sample$c$3$sync$1 $end
$var wire 22 i $sample$s$pin_ui__rw_cipo__addr$sync$1 $end
$var wire 22 j pin_ui__rw_cipo__addr $end
$var wire 22 k $sample$s$pin_ui__rw_cipo__addr$sync$2 $end
$var string 1 l $sample$s$_ui__rw_copi__task$sync$2 $end
$var wire 9 m $sample$s$col$sync$1 $end
$var wire 9 n $sample$s$col$sync$2 $end
$var wire 16 o $sample$s$data$sync$1 $end
$var wire 16 p $sample$s$data$sync$2 $end
$var wire 22 q $sample$s$_ui__rw_copi__addr$sync$1 $end
$var wire 22 r $sample$s$_ui__rw_copi__addr$sync$2 $end
$var wire 22 s $sample$s$_ui__rw_copi__addr$sync$3 $end
$upscope $end
$upscope $end
$enddefinitions $end
#0
$dumpvars
0!
0"
sCMD_DESL/0 #
0$
b0 %
b0 &
0'
sRW_IDLE/0 (
sRW_IDLE/0 )
b0 *
b0 +
b0 ,
b0 -
0.
0/
b0 0
b0 1
b0 2
b0 3
sCMD_DESL/0 4
05
06
07
b0 8
b0 9
0:
b0 ;
b0 <
b0 =
b0 >
b0 ?
b0 @
b0 A
b0 B
0C
0D
b0 E
b0 F
b0 G
b0 H
b0 I
0J
0K
0L
0M
0N
0O
0P
0Q
0R
0S
0T
sIDLE/0 U
sRW_IDLE/0 V
0W
b0 X
sRW_IDLE/0 Y
b0 Z
b0 [
b0 \
0]
0^
sIDLE/0 _
1`
0a
0b
sIDLE/0 c
b10 d
0e
0f
sIDLE/0 g
b11 h
b0 i
b0 j
b0 k
sRW_IDLE/0 l
b0 m
b0 n
b0 o
b0 p
b0 q
b0 r
b0 s
$end
#3496
1Q
sRW_WRITE/2 )
1O
sCMD_NOP/1 #
1P
17
1!
1$
1R
#6992
0!
#10488
sRW_IDLE/0 )
15
b1 +
b1 -
16
1!
sCMD_NOP/1 4
sRW_WRITE/2 (
#13984
0!
#17480
1!
b1 ,
b10 +
b1 *
b10 -
sRW_IDLE/0 (
sRW_WRITE/2 V
#20976
0!
#24472
sWAS_ACTIVE_NOP1/1 U
b11 +
b10 *
b1 H
b1 q
b11 -
sCMD_ACT/7 #
b1 E
sRW_IDLE/0 V
1!
b10 ,
1S
b1 I
sRW_WRITE/2 l
#27968
0!
#31464
b1 m
sNOP3/2 U
sRW_WRITE/2 Y
b100 +
b10 H
b10 q
b100 -
b1 r
b10 I
sRW_IDLE/0 l
b1 o
sCMD_ACT/7 4
b11 *
sCMD_NOP/1 #
b10 E
1!
b11 ,
0S
#34960
0!
#38456
b10 m
sWRITE_0/3 U
sRW_IDLE/0 Y
b101 +
b1 s
b11 H
b11 q
b101 -
b10 r
b11 I
b10 o
sCMD_NOP/1 4
b1 n
b1 p
b100 *
b11 E
1!
b100 ,
#41952
0!
#45448
b11 m
sWRITE_1/6 U
b110 +
b10 s
b100 H
b100 q
b110 -
b1 Z
07
b11 r
b100 I
b1 \
b11 o
b1 [
b10 n
b10 p
b101 *
0O
sCMD_WRITE_AP/6 #
b100 E
1!
b101 ,
1S
1T
#48944
0!
#52440
b100 m
sWRITE_2/7 U
b111 +
b11 s
b101 H
b101 q
b111 -
b10 Z
b1 9
b100 r
b101 I
b10 \
b100 o
sCMD_WRITE_AP/6 4
b10 [
b11 n
b11 p
b110 *
sCMD_NOP/1 #
b101 E
06
1!
b110 ,
0S
#55936
0!
#59432
b101 m
sRW_WRITE/2 )
sWRITE_3/8 U
b1000 +
b100 s
b110 H
b110 q
b1000 -
b11 Z
b10 9
b101 r
b110 I
b11 \
b101 o
sCMD_NOP/1 4
b11 [
b100 n
b100 p
b111 *
b110 E
1!
b111 ,
b1 8
#62928
0!
#66424
b110 m
sRW_IDLE/0 )
sWRITE_4/9 U
b1001 +
b101 s
b111 H
b111 q
b1001 -
b100 Z
b11 9
b110 r
b111 I
b100 \
b110 o
b100 [
sRW_WRITE/2 (
b101 n
b101 p
b1000 *
b111 E
1!
b1000 ,
b10 8
#69920
0!
#73416
b111 m
sWRITE_5/10 U
b1010 +
b110 s
b1000 H
b1000 q
b1010 -
sRW_WRITE/2 V
b101 Z
b100 9
b111 r
b0 I
b101 \
b111 o
b101 [
sRW_IDLE/0 (
b110 n
b110 p
b1001 *
b0 E
1!
b1001 ,
b1 F
b11 8
#76912
0!
#80408
b0 m
sWRITE_6/11 U
b1011 +
b111 s
b1 &
b1001 q
b1001 H
b1011 -
1]
sWAS_ACTIVE_NOP1/1 _
b110 Z
b101 9
sRW_IDLE/0 V
b1000 r
b1 I
sRW_WRITE/2 l
b110 \
b1000 o
b110 [
b111 n
b111 p
b1010 *
sCMD_ACT/7 #
b1 E
1!
b1010 ,
b100 8
#83904
0!
#87400
b1 m
sWRITE_7/12 U
sRW_WRITE/2 Y
b1100 +
b1000 s
b0 &
b1010 q
b1010 H
b1100 -
0]
sNOP3/2 _
b111 Z
b110 9
b1001 r
b10 I
sRW_IDLE/0 l
b111 \
b1001 o
b1 <
sCMD_ACT/7 4
b111 [
b0 n
b1000 p
b1011 *
sCMD_NOP/1 #
b10 E
1!
b1011 ,
b101 8
#90896
0!
#94392
b10 m
sIDLE/0 U
sRW_IDLE/0 Y
b1101 +
b1001 s
b1011 H
b1011 q
b1101 -
sWRITE_0/3 _
b0 Z
b111 9
b1010 r
b11 I
b1000 \
b0 <
b1010 o
sCMD_NOP/1 4
b1000 [
b1 n
b1001 p
b1100 *
b11 E
1!
b1100 ,
b110 8
#97888
0!
#101384
b11 m
1^
b1110 +
b1010 s
b1 &
b1100 q
b1100 H
b1110 -
1]
sWRITE_1/6 _
b1 Z
b1000 9
b1011 r
b100 I
b1001 \
b1011 o
b1001 [
b10 n
b1010 p
b1101 *
1O
sCMD_WRITE_AP/6 #
b100 E
0P
1!
b1101 ,
b111 8
0T
#104880
0!
#108376
b100 m
b1111 +
b1011 s
b0 &
b1101 q
b1101 H
b1111 -
0]
sWRITE_2/7 _
b10 Z
b1001 9
b1100 r
b101 I
b1010 \
b1 <
b1100 o
sCMD_WRITE_AP/6 4
b1010 [
b11 n
b1011 p
b1110 *
sCMD_NOP/1 #
b101 E
1!
b1110 ,
b1000 8
#111872
0!
#115368
b101 m
sRW_WRITE/2 )
b10000 +
b1100 s
b1110 H
b1110 q
b10000 -
sWRITE_3/8 _
b11 Z
b1010 9
b1101 r
b110 I
b1011 \
b0 <
b1101 o
sCMD_NOP/1 4
b1011 [
b100 n
b1100 p
b1111 *
b110 E
1!
b1111 ,
b1001 8
#118864
0!
#122360
b110 m
sRW_IDLE/0 )
b10001 +
b1101 s
b1111 H
b1111 q
b10001 -
sWRITE_4/9 _
b100 Z
b1011 9
b1110 r
b111 I
b1100 \
b1110 o
b1100 [
sRW_WRITE/2 (
b101 n
b1101 p
b10000 *
b111 E
1!
b10000 ,
b1010 8
#125856
0!
#129352
b111 m
b10010 +
b1110 s
b10000 H
b10000 q
b10010 -
sWRITE_5/10 _
sRW_WRITE/2 V
b101 Z
b1100 9
b1111 r
b0 I
b1101 \
b1111 o
b1101 [
sRW_IDLE/0 (
b110 n
b1110 p
b10001 *
b0 E
1!
b10001 ,
b10 F
b1011 8
#132848
0!
#136344
b0 m
sWAS_ACTIVE_NOP1/1 c
b10011 +
b1111 s
b10 &
b10001 q
b10001 H
b10011 -
sWRITE_6/11 _
sRW_IDLE/0 V
b110 Z
b1101 9
b10000 r
b1 I
sRW_WRITE/2 l
b1110 \
b10000 o
b1110 [
b111 n
b1111 p
b10010 *
1a
sCMD_ACT/7 #
b1 E
1!
b10010 ,
b1100 8
#139840
0!
#143336
b1 m
sNOP3/2 c
sRW_WRITE/2 Y
b10100 +
b10000 s
b0 &
b10010 q
b10010 H
b10100 -
sWRITE_7/12 _
b111 Z
b1110 9
b10001 r
b10 I
sRW_IDLE/0 l
b1111 \
b10001 o
b10 <
sCMD_ACT/7 4
b1111 [
b0 n
b10000 p
b10011 *
0a
sCMD_NOP/1 #
b10 E
1!
b10011 ,
b1101 8
#146832
0!
#150328
b10 m
sWRITE_0/3 c
sRW_IDLE/0 Y
b10101 +
b10001 s
b10011 H
b10011 q
b10101 -
sIDLE/0 _
b0 Z
b1111 9
b10010 r
b11 I
b10000 \
b0 <
b10010 o
sCMD_NOP/1 4
b10000 [
b1 n
b10001 p
b10100 *
b11 E
1!
b10100 ,
b1110 8
#153824
0!
#157320
b11 m
0^
sWRITE_1/6 c
b10110 +
b10010 s
b10 &
b10100 q
b10100 H
b10110 -
b1 Z
b10000 9
b10011 r
b100 I
b10001 \
b10011 o
b10001 [
b10 n
0Q
b10010 p
b10101 *
1a
sCMD_WRITE_AP/6 #
b100 E
1P
1!
b10101 ,
1b
b1111 8
#160816
0!
#164312
b100 m
sWRITE_2/7 c
b10111 +
b10011 s
b0 &
b10101 q
b10101 H
b10111 -
b10 Z
b10001 9
b10100 r
b101 I
b10010 \
b10 <
b10100 o
sCMD_WRITE_AP/6 4
b10010 [
b11 n
b10011 p
b10110 *
0a
sCMD_NOP/1 #
b101 E
1!
b10110 ,
b10000 8
#167808
0!
#171304
b101 m
sRW_WRITE/2 )
sWRITE_3/8 c
b11000 +
b10100 s
b10110 H
b10110 q
b11000 -
b11 Z
b10010 9
b10101 r
b110 I
b10011 \
b0 <
b10101 o
sCMD_NOP/1 4
b10011 [
b100 n
b10100 p
b10111 *
b110 E
1!
b10111 ,
b10001 8
#174800
0!
#178296
b110 m
sRW_IDLE/0 )
sWRITE_4/9 c
b11001 +
b10101 s
b10111 H
b10111 q
b11001 -
b100 Z
b10011 9
b10110 r
b111 I
b10100 \
b10110 o
b10100 [
sRW_WRITE/2 (
b101 n
b10101 p
b11000 *
b111 E
1!
b11000 ,
b10010 8
#181792
0!
#185288
b111 m
sWRITE_5/10 c
b11010 +
b10110 s
b11000 H
b11000 q
b11010 -
sRW_WRITE/2 V
b101 Z
b10100 9
b10111 r
b0 I
b10101 \
b10111 o
b10101 [
sRW_IDLE/0 (
b110 n
b10110 p
b11001 *
b0 E
1!
b11001 ,
b11 F
b10011 8
#188784
0!
#192280
b0 m
sWRITE_6/11 c
b11011 +
b10111 s
b11 &
b11001 q
b11001 H
b11011 -
sRW_IDLE/0 V
b110 Z
b10101 9
b11000 r
b1 I
sRW_WRITE/2 l
b10110 \
b11000 o
b10110 [
b111 n
b10111 p
1e
b11010 *
sCMD_ACT/7 #
b1 E
1!
b11010 ,
sWAS_ACTIVE_NOP1/1 g
b10100 8
#195776
0!
#199272
b1 m
sWRITE_7/12 c
sRW_WRITE/2 Y
b11100 +
b11000 s
b0 &
b11010 q
b11010 H
b11100 -
b111 Z
b10110 9
b11001 r
b10 I
sRW_IDLE/0 l
b10111 \
b11001 o
b11 <
sCMD_ACT/7 4
b10111 [
b0 n
b11000 p
0e
b11011 *
sCMD_NOP/1 #
b10 E
1!
b11011 ,
sNOP3/2 g
b10101 8
#202768
0!
#206264
b10 m
sIDLE/0 c
sRW_IDLE/0 Y
b11101 +
b11001 s
b11011 H
b11011 q
b11101 -
b0 Z
b10111 9
b11010 r
b11 I
b11000 \
b0 <
b11010 o
sCMD_NOP/1 4
b11000 [
b1 n
b11001 p
b11100 *
b11 E
1!
b11100 ,
sWRITE_0/3 g
b10110 8
#209760
0!
#213256
b11 m
b11110 +
b11010 s
b11 &
b11100 q
b11100 H
b11110 -
b1 Z
b11000 9
b11011 r
b100 I
b11001 \
b11011 o
0R
b11001 [
b10 n
1Q
b11010 p
1e
b11101 *
sCMD_WRITE_AP/6 #
b100 E
1f
1!
b11101 ,
0b
sWRITE_1/6 g
b10111 8
#216752
0!
#220248
b100 m
b11111 +
b11011 s
b0 &
b11101 q
b11101 H
b11111 -
b10 Z
b11001 9
b11100 r
b101 I
b11010 \
b11 <
b11100 o
sCMD_WRITE_AP/6 4
b11010 [
b11 n
b11011 p
0e
b11110 *
sCMD_NOP/1 #
b101 E
1!
b11110 ,
sWRITE_2/7 g
b11000 8
#223744
0!
#227240
b101 m
sRW_WRITE/2 )
b100000 +
b11100 s
b11110 H
b11110 q
b100000 -
b11 Z
b11010 9
b11101 r
b110 I
b11011 \
b0 <
b11101 o
sCMD_NOP/1 4
b11011 [
b100 n
b11100 p
b11111 *
b110 E
1!
b11111 ,
sWRITE_3/8 g
b11001 8
#230736
0!
#234232
b110 m
sRW_IDLE/0 )
b100001 +
b11101 s
b11111 H
b11111 q
b100001 -
b100 Z
b11011 9
b11110 r
b111 I
b11100 \
b11110 o
b11100 [
sRW_WRITE/2 (
b101 n
b11101 p
b100000 *
b111 E
1!
b100000 ,
sWRITE_4/9 g
b11010 8
#237728
0!
#241224
b111 m
b100010 +
b11110 s
b100000 H
b100000 q
b100010 -
sRW_WRITE/2 V
b101 Z
b11100 9
b11111 r
b0 I
b11101 \
b11111 o
b11101 [
sRW_IDLE/0 (
b110 n
b11110 p
b100001 *
b1000 E
1!
b100001 ,
b0 F
sWRITE_5/10 g
b11011 8
#244720
0!
#248216
b1000 m
sWAS_ACTIVE_NOP1/1 U
b100011 +
b11111 s
b100001 H
b100001 q
b100011 -
sRW_IDLE/0 V
b110 Z
b11101 9
b100000 r
b1 I
sRW_WRITE/2 l
b11110 \
b100000 o
b11110 [
b111 n
b11111 p
b100010 *
sCMD_ACT/7 #
b1001 E
1!
b100010 ,
1S
sWRITE_6/11 g
b11100 8
#251712
0!
#255208
b1001 m
sNOP3/2 U
sRW_WRITE/2 Y
b100100 +
b100000 s
b100010 H
b100010 q
b100100 -
b111 Z
b11110 9
b100001 r
b10 I
sRW_IDLE/0 l
b11111 \
b100001 o
sCMD_ACT/7 4
b11111 [
b1000 n
b100000 p
b100011 *
sCMD_NOP/1 #
b1010 E
1!
b100011 ,
0S
sWRITE_7/12 g
b11101 8
#258704
0!
#262200
b1010 m
sWRITE_0/3 U
sRW_IDLE/0 Y
b100101 +
b100001 s
b100011 H
b100011 q
b100101 -
b1000 Z
b11111 9
b100010 r
b11 I
b100000 \
b100010 o
sCMD_NOP/1 4
b100000 [
b1001 n
b100001 p
b100100 *
b1011 E
1!
b100100 ,
sIDLE/0 g
b11110 8
#265696
0!
#269192
b1011 m
b1000 %
sWRITE_1/6 U
b100110 +
b100010 s
b100100 H
b100100 q
b100110 -
b1001 Z
b100000 9
b100011 r
b100 I
b100001 \
b100011 o
1R
b100001 [
b1010 n
b100010 p
b100101 *
0O
sCMD_WRITE_AP/6 #
b1100 E
0f
1!
b100101 ,
1S
b11111 8
1T
#272688
0!
#276184
b1100 m
b0 %
sWRITE_2/7 U
b100111 +
b100011 s
b100101 H
b100101 q
b100111 -
b1000 ;
b1010 Z
b100001 9
b100100 r
b101 I
b100010 \
b100100 o
sCMD_WRITE_AP/6 4
b100010 [
b1011 n
b100011 p
b100110 *
sCMD_NOP/1 #
b1101 E
1!
b100110 ,
0S
b100000 8
#279680
0!
#283176
b1101 m
sRW_WRITE/2 )
sWRITE_3/8 U
b101000 +
b100100 s
b100110 H
b100110 q
b101000 -
b0 ;
b1011 Z
b100010 9
b100101 r
b110 I
b100011 \
b100101 o
sCMD_NOP/1 4
b100011 [
b1100 n
b100100 p
b100111 *
b1110 E
1!
b100111 ,
b100001 8
#286672
0!
#290168
b1110 m
sRW_IDLE/0 )
sWRITE_4/9 U
b101001 +
b100101 s
b100111 H
b100111 q
b101001 -
b1100 Z
b100011 9
b100110 r
b111 I
b100100 \
b100110 o
b100100 [
sRW_WRITE/2 (
b1101 n
b100101 p
b101000 *
b1111 E
1!
b101000 ,
b100010 8
#293664
0!
#297160
b1111 m
sWRITE_5/10 U
b101010 +
b100110 s
b101000 H
b101000 q
b101010 -
sRW_WRITE/2 V
b1101 Z
b100100 9
b100111 r
b0 I
b100101 \
b100111 o
b100101 [
sRW_IDLE/0 (
b1110 n
b100110 p
b101001 *
b1000 E
1!
b101001 ,
b1 F
b100011 8
#300656
0!
#304152
b1000 m
sWRITE_6/11 U
b101011 +
b100111 s
b1 &
b101001 q
b101001 H
b101011 -
1]
sWAS_ACTIVE_NOP1/1 _
b1110 Z
b100101 9
sRW_IDLE/0 V
b101000 r
b1 I
sRW_WRITE/2 l
b100110 \
b101000 o
b100110 [
b1111 n
b100111 p
b101010 *
sCMD_ACT/7 #
b1001 E
1!
b101010 ,
b100100 8
#307648
0!
#311144
b1001 m
sWRITE_7/12 U
sRW_WRITE/2 Y
b101100 +
b101000 s
b0 &
b101010 q
b101010 H
b101100 -
0]
sNOP3/2 _
b1111 Z
b100110 9
b101001 r
b10 I
sRW_IDLE/0 l
b100111 \
b101001 o
b1 <
sCMD_ACT/7 4
b100111 [
b1000 n
b101000 p
b101011 *
sCMD_NOP/1 #
b1010 E
1!
b101011 ,
b100101 8
#314640
0!
#318136
b1010 m
sIDLE/0 U
sRW_IDLE/0 Y
b101101 +
b101001 s
b101011 H
b101011 q
b101101 -
sWRITE_0/3 _
b1000 Z
b100111 9
b101010 r
b11 I
b101000 \
b0 <
b101010 o
sCMD_NOP/1 4
b101000 [
b1001 n
b101001 p
b101100 *
b1011 E
1!
b101100 ,
b100110 8
#321632
0!
#325128
b1011 m
b1000 %
1^
b101110 +
b101010 s
b1 &
b101100 q
b101100 H
b101110 -
1]
sWRITE_1/6 _
b1001 Z
b101000 9
b101011 r
b100 I
b101001 \
b101011 o
b101001 [
b1010 n
b101010 p
b101101 *
1O
sCMD_WRITE_AP/6 #
b1100 E
0P
1!
b101101 ,
b100111 8
0T
#328624
0!
#332120
b1100 m
b0 %
b101111 +
b101011 s
b0 &
b101101 q
b101101 H
b101111 -
0]
b1000 ;
b1010 Z
b101001 9
sWRITE_2/7 _
b101100 r
b101 I
b101010 \
b1 <
b101100 o
sCMD_WRITE_AP/6 4
b101010 [
b1011 n
b101011 p
b101110 *
sCMD_NOP/1 #
b1101 E
1!
b101110 ,
b101000 8
#335616
0!
#339112
b1101 m
sRW_WRITE/2 )
b110000 +
b101100 s
b101110 H
b101110 q
b110000 -
b0 ;
sWRITE_3/8 _
b1011 Z
b101010 9
b101101 r
b110 I
b101011 \
b0 <
b101101 o
sCMD_NOP/1 4
b101011 [
b1100 n
b101100 p
b101111 *
b1110 E
1!
b101111 ,
b101001 8
#342608
0!
#346104
b1110 m
sRW_IDLE/0 )
b110001 +
b101101 s
b101111 H
b101111 q
b110001 -
sWRITE_4/9 _
b1100 Z
b101011 9
b101110 r
b111 I
b101100 \
b101110 o
b101100 [
sRW_WRITE/2 (
b1101 n
b101101 p
b110000 *
b1111 E
1!
b110000 ,
b101010 8
#349600
0!
#353096
b1111 m
b110010 +
b101110 s
b110000 H
b110000 q
b110010 -
sWRITE_5/10 _
sRW_WRITE/2 V
b1101 Z
b101100 9
b101111 r
b0 I
b101101 \
b101111 o
b101101 [
sRW_IDLE/0 (
b1110 n
b101110 p
b110001 *
b1000 E
1!
b110001 ,
b10 F
b101011 8
#356592
0!
#360088
b1000 m
sWAS_ACTIVE_NOP1/1 c
b110011 +
b101111 s
b10 &
b110001 q
b110001 H
b110011 -
sWRITE_6/11 _
sRW_IDLE/0 V
b1110 Z
b101101 9
b110000 r
b1 I
sRW_WRITE/2 l
b101110 \
b110000 o
b101110 [
b1111 n
b101111 p
b110010 *
1a
sCMD_ACT/7 #
b1001 E
1!
b110010 ,
b101100 8
#363584
0!
#367080
b1001 m
sNOP3/2 c
sRW_WRITE/2 Y
b110100 +
b110000 s
b0 &
b110010 q
b110010 H
b110100 -
sWRITE_7/12 _
b1111 Z
b101110 9
b110001 r
b10 I
sRW_IDLE/0 l
b101111 \
b110001 o
b10 <
sCMD_ACT/7 4
b101111 [
b1000 n
b110000 p
b110011 *
0a
sCMD_NOP/1 #
b1010 E
1!
b110011 ,
b101101 8
#370576
0!
#374072
b1010 m
sWRITE_0/3 c
sRW_IDLE/0 Y
b110101 +
b110001 s
b110011 H
b110011 q
b110101 -
sIDLE/0 _
b1000 Z
b101111 9
b110010 r
b11 I
b110000 \
b0 <
b110010 o
sCMD_NOP/1 4
b110000 [
b1001 n
b110001 p
b110100 *
b1011 E
1!
b110100 ,
b101110 8
#377568
0!
#381064
b1011 m
b1000 %
0^
sWRITE_1/6 c
b110110 +
b110010 s
b10 &
b110100 q
b110100 H
b110110 -
b1001 Z
b110000 9
b110011 r
b100 I
b110001 \
b110011 o
b110001 [
b1010 n
0Q
b110010 p
b110101 *
1a
sCMD_WRITE_AP/6 #
b1100 E
1P
1!
b110101 ,
1b
b101111 8
#384560
0!
#388056
b1100 m
b0 %
sWRITE_2/7 c
b110111 +
b110011 s
b0 &
b110101 q
b110101 H
b110111 -
b1000 ;
b1010 Z
b110001 9
b110100 r
b101 I
b110010 \
b10 <
b110100 o
sCMD_WRITE_AP/6 4
b110010 [
b1011 n
b110011 p
b110110 *
0a
sCMD_NOP/1 #
b1101 E
1!
b110110 ,
b110000 8
#391552
0!
#395048
b1101 m
sRW_WRITE/2 )
sWRITE_3/8 c
b111000 +
b110100 s
b110110 H
b110110 q
b111000 -
b0 ;
b1011 Z
b110010 9
b110101 r
b110 I
b110011 \
b0 <
b110101 o
sCMD_NOP/1 4
b110011 [
b1100 n
b110100 p
b110111 *
b1110 E
1!
b110111 ,
b110001 8
#398544
0!
#402040
b1110 m
sRW_IDLE/0 )
sWRITE_4/9 c
b111001 +
b110101 s
b110111 H
b110111 q
b111001 -
b1100 Z
b110011 9
b110110 r
b111 I
b110100 \
b110110 o
b110100 [
sRW_WRITE/2 (
b1101 n
b110101 p
b111000 *
b1111 E
1!
b111000 ,
b110010 8
#405536
0!
#409032
b1111 m
sWRITE_5/10 c
b111010 +
b110110 s
b111000 H
b111000 q
b111010 -
sRW_WRITE/2 V
b1101 Z
b110100 9
b110111 r
b0 I
b110101 \
b110111 o
b110101 [
sRW_IDLE/0 (
b1110 n
b110110 p
b111001 *
b1000 E
1!
b111001 ,
b11 F
b110011 8
#412528
0!
#416024
b1000 m
sWRITE_6/11 c
b111011 +
b110111 s
b11 &
b111001 q
b111001 H
b111011 -
sRW_IDLE/0 V
b1110 Z
b110101 9
b111000 r
b1 I
sRW_WRITE/2 l
b110110 \
b111000 o
b110110 [
b1111 n
b110111 p
1e
b111010 *
sCMD_ACT/7 #
b1001 E
1!
b111010 ,
sWAS_ACTIVE_NOP1/1 g
b110100 8
#419520
0!
#423016
b1001 m
sWRITE_7/12 c
sRW_WRITE/2 Y
b111100 +
b111000 s
b0 &
b111010 q
b111010 H
b111100 -
b1111 Z
b110110 9
b111001 r
b10 I
sRW_IDLE/0 l
b110111 \
b111001 o
b11 <
sCMD_ACT/7 4
b110111 [
b1000 n
b111000 p
0e
b111011 *
sCMD_NOP/1 #
b1010 E
1!
b111011 ,
sNOP3/2 g
b110101 8
#426512
0!
#430008
b1010 m
sIDLE/0 c
sRW_IDLE/0 Y
b111101 +
b111001 s
b111011 H
b111011 q
b111101 -
b1000 Z
b110111 9
b111010 r
b11 I
b111000 \
b0 <
b111010 o
sCMD_NOP/1 4
b111000 [
b1001 n
b111001 p
b111100 *
b1011 E
1!
b111100 ,
sWRITE_0/3 g
b110110 8
#433504
0!
#437000
b1011 m
b1000 %
b111110 +
b111010 s
b11 &
b111100 q
b111100 H
b111110 -
b1001 Z
b111000 9
b111011 r
b100 I
b111001 \
b111011 o
0R
b111001 [
b1010 n
1Q
b111010 p
1e
b111101 *
sCMD_WRITE_AP/6 #
b1100 E
1f
1!
b111101 ,
0b
sWRITE_1/6 g
b110111 8
#440496
0!
#443992
b1100 m
b0 %
b111111 +
b111011 s
b0 &
b111101 q
b111101 H
b111111 -
b1000 ;
b1010 Z
b111001 9
b111100 r
b101 I
b111010 \
b11 <
b111100 o
sCMD_WRITE_AP/6 4
b111010 [
b1011 n
b111011 p
0e
b111110 *
sCMD_NOP/1 #
b1101 E
1!
b111110 ,
sWRITE_2/7 g
b111000 8
#447488
0!
#450984
b1101 m
b111100 s
b111110 H
b111110 q
b0 ;
b1011 Z
b111010 9
b111101 r
b110 I
b111011 \
b0 <
b111101 o
sCMD_NOP/1 4
b111011 [
b1100 n
b111100 p
b111111 *
b1110 E
1!
b111111 ,
sWRITE_3/8 g
b111001 8
#454480
0!
#457976
b1110 m
b111101 s
b111111 H
b111111 q
b1100 Z
b111011 9
b111110 r
b111 I
b111100 \
b111110 o
b111100 [
b1101 n
b111101 p
b1111 E
1!
sWRITE_4/9 g
b111010 8
#461472
0!
#464968
b1111 m
b111110 p
b111110 s
b1101 Z
b111100 9
1!
b111111 r
b111101 \
sWRITE_5/10 g
b111111 o
b111101 [
b111011 8
b1110 n
#468464
0!
#471960
b111111 p
b111111 s
b1110 Z
b111101 9
1!
b111110 \
sWRITE_6/11 g
b111100 8
b111110 [
b1111 n
#475456
0!
#478952
b1111 Z
b111110 9
1!
b111111 \
sWRITE_7/12 g
b111101 8
b111111 [
#482448
0!
#485944
b111110 8
1!
b111111 9
sIDLE/0 g
#489440
0!
#492936
17
1!
b111111 8
1R
0f
#496432
0!
#499928
1!
16
#503424
0!
#506920
1!
#510416
0!
#513912
1!
#517408
0!
#520904
sRW_READ/1 )
1!
b0 +
#524400
0!
#527896
1!
sRW_IDLE/0 )
b1 +
b0 *
sRW_READ/1 (
#531392
0!
#534888
b10 +
b1 *
b0 q
b0 E
sRW_READ/1 V
1!
b0 I
b0 F
sRW_IDLE/0 (
#538384
0!
#541880
b0 m
sWAS_ACTIVE_NOP1/1 U
b11 +
b10 *
b1 q
sCMD_ACT/7 #
b1 E
sRW_IDLE/0 V
1!
1S
b0 r
b1 I
sRW_READ/1 l
#545376
0!
#548872
b1 m
sNOP3/2 U
sRW_READ/1 Y
b100 +
b0 s
b10 q
b1 r
b10 I
sRW_IDLE/0 l
sCMD_ACT/7 4
b0 n
b11 *
sCMD_NOP/1 #
b10 E
1!
0S
#552368
0!
#555864
b10 m
sREAD_-3/4 U
sRW_IDLE/0 Y
b101 +
b1 s
b100 *
b11 q
b11 E
b0 Z
1!
b10 r
b11 I
b0 \
sCMD_NOP/1 4
b1 n
#559360
0!
#562856
b11 m
sREAD_-2/13 U
b110 +
b10 s
b100 q
b1 Z
07
b11 r
b100 I
b1 \
b10 n
b101 *
0O
sCMD_READ_AP/4 #
b100 E
1!
1S
#566352
0!
