amaram/sdram_n_fifo_interface/simulations_to_keep/controller_readwrite_readwriteCtrl_sim_thatGivenAddress_generatesCorrectBankColumnAndRowValues.vcd
$comment Generated by Amaranth $end
$date 2022-03-11 21:27:08.505254 $end
$timescale 1 ps $end
$scope module bench $end
$scope module top $end
$var wire 1 ! clk $end
$var wire 1 " rst $end
$var string 1 # _ui__task_request $end
$var string 1 $ ui__task_request $end
$var wire 22 % _ui__addr $end
$var wire 22 & ui__addr $end
$var wire 16 ' _ui__data $end
$var wire 16 ( ui__data $end
$var wire 9 ) col $end
$var wire 2 * bank $end
$var wire 11 + row $end
$var wire 16 , data $end
$upscope $end
$upscope $end
$enddefinitions $end
#0
$dumpvars
0!
0"
sRW_IDLE/0 #
sRW_IDLE/0 $
b0 %
b0 &
b0 '
b0 (
b0 )
b0 *
b0 +
b0 ,
$end
#3496
1!
#6992
0!
#10488
1!
b1 &
#13984
0!
#17480
1!
b1 %
b10 &
#20976
0!
#24472
1!
b10 %
b11 &
b1 )
#27968
0!
#31464
1!
b11 %
b100 &
b10 )
#34960
0!
#38456
1!
b100 %
b101 &
b11 )
#41952
0!
#45448
1!
b101 %
b110 &
b100 )
#48944
0!
#52440
1!
b110 %
b111 &
b101 )
#55936
0!
#59432
1!
b111 %
b1000 &
b110 )
#62928
0!
#66424
1!
b1000 %
b1001 &
b111 )
#69920
0!
#73416
1!
b1010 &
b1 *
b1001 %
b0 )
#76912
0!
#80408
1!
b1010 %
b1011 &
b1 )
#83904
0!
#87400
1!
b1011 %
b1100 &
b10 )
#90896
0!
#94392
1!
b1100 %
b1101 &
b11 )
#97888
0!
#101384
1!
b1101 %
b1110 &
b100 )
#104880
0!
#108376
1!
b1110 %
b1111 &
b101 )
#111872
0!
#115368
1!
b1111 %
b10000 &
b110 )
#118864
0!
#122360
1!
b10000 %
b10001 &
b111 )
#125856
0!
#129352
1!
b10010 &
b10 *
b10001 %
b0 )
#132848
0!
#136344
1!
b10010 %
b10011 &
b1 )
#139840
0!
#143336
1!
b10011 %
b10100 &
b10 )
#146832
0!
#150328
1!
b10100 %
b10101 &
b11 )
#153824
0!
#157320
1!
b10101 %
b10110 &
b100 )
#160816
0!
#164312
1!
b10110 %
b10111 &
b101 )
#167808
0!
#171304
1!
b10111 %
b11000 &
b110 )
#174800
0!
#178296
1!
b11000 %
b11001 &
b111 )
#181792
0!
#185288
1!
b11010 &
b11 *
b11001 %
b0 )
#188784
0!
#192280
1!
b11010 %
b11011 &
b1 )
#195776
0!
#199272
1!
b11011 %
b11100 &
b10 )
#202768
0!
#206264
1!
b11100 %
b11101 &
b11 )
#209760
0!
#213256
1!
b11101 %
b11110 &
b100 )
#216752
0!
#220248
1!
b11110 %
b11111 &
b101 )
#223744
0!
#227240
1!
b11111 %
b100000 &
b110 )
#230736
0!
#234232
1!
b100000 %
b100001 &
b111 )
#237728
0!
#241224
1!
b100010 &
b0 *
b100001 %
b1000 )
#244720
0!
#248216
1!
b100010 %
b100011 &
b1001 )
#251712
0!
#255208
1!
b100011 %
b100100 &
b1010 )
#258704
0!
#262200
1!
b100100 %
b100101 &
b1011 )
#265696
0!
#269192
1!
b100101 %
b100110 &
b1100 )
#272688
0!
#276184
1!
b100110 %
b100111 &
b1101 )
#279680
0!
#283176
1!
b100111 %
b101000 &
b1110 )
#286672
0!
#290168
1!
b101000 %
b101001 &
b1111 )
#293664
0!
#297160
1!
b101010 &
b1 *
b101001 %
b1000 )
#300656
0!
#304152
1!
b101010 %
b101011 &
b1001 )
#307648
0!
#311144
1!
b101011 %
b101100 &
b1010 )
#314640
0!
#318136
1!
b101100 %
b101101 &
b1011 )
#321632
0!
#325128
1!
b101101 %
b101110 &
b1100 )
#328624
0!
#332120
1!
b101110 %
b101111 &
b1101 )
#335616
0!
#339112
1!
b101111 %
b110000 &
b1110 )
#342608
0!
#346104
1!
b110000 %
b110001 &
b1111 )
#349600
0!
#353096
1!
b110010 &
b10 *
b110001 %
b1000 )
#356592
0!
#360088
1!
b110010 %
b110011 &
b1001 )
#363584
0!
#367080
1!
b110011 %
b110100 &
b1010 )
#370576
0!
#374072
1!
b110100 %
b110101 &
b1011 )
#377568
0!
#381064
1!
b110101 %
b110110 &
b1100 )
#384560
0!
#388056
1!
b110110 %
b110111 &
b1101 )
#391552
0!
#395048
1!
b110111 %
b111000 &
b1110 )
#398544
0!
#402040
1!
b111000 %
b111001 &
b1111 )
#405536
0!
#409032
1!
b111010 &
b11 *
b111001 %
b1000 )
#412528
0!
#416024
1!
b111010 %
b111011 &
b1001 )
#419520
0!
#423016
1!
b111011 %
b111100 &
b1010 )
#426512
0!
#430008
1!
b111100 %
b111101 &
b1011 )
#433504
0!
#437000
1!
b111101 %
b111110 &
b1100 )
#440496
0!
#443992
1!
b111110 %
b111111 &
b1101 )
#447488
0!
#450984
1!
b111111 %
b1000000 &
b1110 )
#454480
0!
#457976
1!
b1000000 %
b1000001 &
b1111 )
#461472
0!
#464968
1!
b1000010 &
b0 *
b1000001 %
b10000 )
#468464
0!
#471960
1!
b1000010 %
b1000011 &
b10001 )
#475456
0!
#478952
1!
b1000011 %
b1000100 &
b10010 )
#482448
0!
#485944
1!
b1000100 %
b1000101 &
b10011 )
#489440
0!
#492936
1!
b1000101 %
b1000110 &
b10100 )
#496432
0!
#499928
1!
b1000110 %
b1000111 &
b10101 )
#503424
0!
#506920
1!
b1000111 %
b1001000 &
b10110 )
#510416
0!
#513912
1!
b1001000 %
b1001001 &
b10111 )
#517408
0!
#520904
1!
b1001010 &
b1 *
b1001001 %
b10000 )
#524400
0!
#527896
1!
b1001010 %
b1001011 &
b10001 )
#531392
0!
#534888
1!
b1001011 %
b1001100 &
b10010 )
#538384
0!
#541880
1!
b1001100 %
b1001101 &
b10011 )
#545376
0!
#548872
1!
b1001101 %
b1001110 &
b10100 )
#552368
0!
#555864
1!
b1001110 %
b1001111 &
b10101 )
#559360
0!
#562856
1!
b1001111 %
b1010000 &
b10110 )
#566352
0!
#569848
1!
b1010000 %
b1010001 &
b10111 )
#573344
0!
#576840
1!
b1010010 &
b10 *
b1010001 %
b10000 )
#580336
0!
#583832
1!
b1010010 %
b1010011 &
b10001 )
#587328
0!
#590824
1!
b1010011 %
b1010100 &
b10010 )
#594320
0!
#597816
1!
b1010100 %
b1010101 &
b10011 )
#601312
0!
#604808
1!
b1010101 %
b1010110 &
b10100 )
#608304
0!
#611800
1!
b1010110 %
b1010111 &
b10101 )
#615296
0!
#618792
1!
b1010111 %
b1011000 &
b10110 )
#622288
0!
#625784
1!
b1011000 %
b1011001 &
b10111 )
#629280
0!
#632776
1!
b1011010 &
b11 *
b1011001 %
b10000 )
#636272
0!
#639768
1!
b1011010 %
b1011011 &
b10001 )
#643264
0!
#646760
1!
b1011011 %
b1011100 &
b10010 )
#650256
0!
#653752
1!
b1011100 %
b1011101 &
b10011 )
#657248
0!
#660744
1!
b1011101 %
b1011110 &
b10100 )
#664240
0!
#667736
1!
b1011110 %
b1011111 &
b10101 )
#671232
0!
#674728
1!
b1011111 %
b1100000 &
b10110 )
#678224
0!
#681720
1!
b1100000 %
b1100001 &
b10111 )
#685216
0!
#688712
1!
b1100010 &
b0 *
b1100001 %
b11000 )
#692208
0!
#695704
1!
b1100010 %
b1100011 &
b11001 )
#699200
0!
#702696
1!
b1100011 %
b0 &
b11010 )
#706192
0!
#709688
1!
b0 %
b111 &
b11011 )
#713184
0!
#716680
1!
b111 %
b11000 &
b0 )
#720176
0!
#723672
1!
b11000 %
b11111100111 &
b111 )
#727168
0!
#730664
1!
b1111111111100000000000 &
b11 *
b11111100111 %
b0 )
#734160
0!
#737656
1!
b1 &
b0 *
b1111111111100000000000 %
b111111111 )
#741152
0!
#744648
1!
b11111111111 +
b10 &
b1 %
b0 )
#748144
0!
#751640
1!
b0 +
b100 &
b10 %
b1 )
#755136
0!
#758632
1!
b100 %
b1000 &
b10 )
#762128
0!
#765624
1!
b1000 %
b10000 &
b100 )
#769120
0!
#772616
1!
b100000 &
b1 *
b10000 %
b0 )
#776112
0!
#779608
b10 *
1!
b100000 %
b1000000 &
#783104
0!
#786600
1!
b10000000 &
b0 *
b1000000 %
b1000 )
#790096
0!
#793592
1!
b10000000 %
b100000000 &
b10000 )
#797088
0!
#800584
1!
b100000000 %
b1000000000 &
b100000 )
#804080
0!
#807576
1!
b1000000000 %
b10000000000 &
b1000000 )
#811072
0!
#814568
1!
b10000000000 %
b100000000000 &
b10000000 )
#818064
0!
#821560
1!
b100000000000 %
b1000000000000 &
b100000000 )
#825056
0!
#828552
1!
b1 +
b10000000000000 &
b1000000000000 %
b0 )
#832048
0!
#835544
1!
b10000000000000 %
b100000000000000 &
b10 +
#839040
0!
#842536
1!
b100000000000000 %
b1000000000000000 &
b100 +
#846032
0!
#849528
1!
b1000000000000000 %
b10000000000000000 &
b1000 +
#853024
0!
#856520
1!
b10000000000000000 %
b100000000000000000 &
b10000 +
#860016
0!
#863512
1!
b100000000000000000 %
b1000000000000000000 &
b100000 +
#867008
0!
#870504
1!
b1000000000000000000 %
b10000000000000000000 &
b1000000 +
#874000
0!
#877496
1!
b10000000000000000000 %
b100000000000000000000 &
b10000000 +
#880992
0!
#884488
1!
b100000000000000000000 %
b1000000000000000000000 &
b100000000 +
#887984
0!
#891480
1!
b1000000000000000000000 %
b1000000000 +
#894976
0!
#898472
1!
b10000000000 +
