amaram/sdram_n_fifo_interface/simulations_to_keep/controller_pin_pinCtrl_sim_thatEachCommandAndSignal_IsDecodedCorrectlyAndInSync.vcd
$comment Generated by Amaranth $end
$date 2022-03-21 07:06:42.770903 $end
$timescale 1 ps $end
$scope module bench $end
$scope module top $end
$var wire 1 ! clk $end
$var wire 1 " rst $end
$var string 1 # _ui__cmd $end
$var string 1 $ ui__cmd $end
$var wire 1 % _ui__clk_en $end
$var wire 1 & ui__clk_en $end
$var wire 1 ' _ui__dqm $end
$var wire 1 ( ui__dqm $end
$var wire 16 ) _ui__rw_copi__dq $end
$var wire 16 * ui__rw_copi__dq $end
$var wire 1 + _ui__rw_copi__read_active $end
$var wire 1 , ui__rw_copi__read_active $end
$var wire 13 - _ui__rw_copi__a $end
$var wire 13 . ui__rw_copi__a $end
$var wire 2 / _ui__rw_copi__ba $end
$var wire 2 0 ui__rw_copi__ba $end
$var wire 16 1 ui__rw_cipo__dq $end
$var wire 16 2 _ui__rw_cipo__dq $end
$var wire 1 3 ui__rw_cipo__read_active $end
$var wire 1 4 _ui__rw_cipo__read_active $end
$var wire 13 5 ui__rw_cipo__a $end
$var wire 13 6 _ui__rw_cipo__a $end
$var wire 2 7 ui__rw_cipo__ba $end
$var wire 2 8 _ui__rw_cipo__ba $end
$var wire 1 9 io__clk_en $end
$var wire 1 : _io__clk_en $end
$var wire 1 ; io__dqm $end
$var wire 1 < _io__dqm $end
$var wire 16 = io__rw_copi__dq $end
$var wire 16 > _io__rw_copi__dq $end
$var wire 1 ? io__rw_copi__read_active $end
$var wire 1 @ _io__rw_copi__read_active $end
$var wire 13 A io__rw_copi__a $end
$var wire 13 B _io__rw_copi__a $end
$var wire 2 C io__rw_copi__ba $end
$var wire 2 D _io__rw_copi__ba $end
$var wire 16 E _io__rw_cipo__dq $end
$var wire 16 F io__rw_cipo__dq $end
$var wire 1 G _io__rw_cipo__read_active $end
$var wire 1 H io__rw_cipo__read_active $end
$var wire 13 I _io__rw_cipo__a $end
$var wire 13 J io__rw_cipo__a $end
$var wire 2 K _io__rw_cipo__ba $end
$var wire 2 L io__rw_cipo__ba $end
$var wire 1 M io__cs $end
$var wire 1 N _io__cs $end
$var wire 1 O io__we $end
$var wire 1 P _io__we $end
$var wire 1 Q io__ras $end
$var wire 1 R _io__ras $end
$var wire 1 S io__cas $end
$var wire 1 T _io__cas $end
$var wire 9 U encoded_cmd $end
$var wire 1 V $sample$s$io__clk_en$sync$1 $end
$var string 1 W decoded_cmd $end
$upscope $end
$upscope $end
$enddefinitions $end
#0
$dumpvars
0!
0"
sCMD_DESL/0 #
sCMD_DESL/0 $
0%
0&
0'
0(
b0 )
b0 *
0+
0,
b0 -
b0 .
b0 /
b0 0
b0 1
b0 2
03
04
b0 5
b0 6
b0 7
b0 8
09
0:
0;
0<
b0 =
b0 >
0?
0@
b0 A
b0 B
b0 C
b0 D
b0 E
b0 F
0G
0H
b0 I
b0 J
b0 K
b0 L
0M
0N
0O
0P
0Q
0R
0S
0T
b1111000 U
0V
sCMD_NOP/1 W
$end
#3496
1&
1!
#6992
0!
#10488
1%
1:
1!
#13984
0!
#17480
19
1!
b11111000 U
#20976
0!
#24472
sCMD_DESL/0 W
1!
1V
b111111000 U
#27968
0!
#31464
1!
#34960
0!
#38456
1!
#41952
0!
#45448
1!
#48944
0!
#52440
1!
#55936
0!
#59432
1!
#62928
0!
#66424
1!
#69920
0!
#73416
1!
b1111111111111 .
1(
b11 0
b1111111111111111 *
#76912
0!
#80408
1!
b0 .
1<
b0 0
1'
b1111111111111111 >
b1111111111111 -
0(
b1111111111111111 )
b11 /
b0 *
b11 D
b1111111111111 B
#83904
0!
#87400
b1111111111111111 =
b1111111111111 .
b111111111 U
b11 0
0'
b1111111111111111 *
b0 )
b1111111111111 A
b11 C
1!
0<
b0 >
b0 -
1(
b0 B
b0 /
1;
b0 D
sCMD_NOP/1 $
#90896
0!
#94392
b1111111111111111 F
b0 =
b0 .
b111111000 U
b0 0
b1111111111111 J
1'
b11 L
1N
b1111111111111111 )
b0 A
b0 C
0;
1!
1<
b1111111111111111 >
b1111111111111 -
0(
b1111111111111 B
sCMD_NOP/1 #
b11 /
b0 *
b11 D
sCMD_DESL/0 $
#97888
0!
#101384
b1111111111111 I
b0 F
b1111111111111111 =
b1111111111111 .
b110111111 U
b11 0
b11 K
b0 J
0'
b1111111111111111 2
b0 L
1M
b0 )
0N
b1111111111111 A
b1111111111111 6
b11 8
b11 C
1!
0<
sCMD_NOP/1 W
b1111111111111111 E
b0 >
b0 -
1(
b0 /
sCMD_DESL/0 #
1;
b1111111111111111 *
b0 D
sCMD_BST/2 $
b0 B
#104880
0!
#108376
b0 I
b1111111111111111 F
b0 =
b0 .
b111111000 U
b1111111111111111 1
b0 0
b0 K
b1111111111111 J
1'
b0 2
b11 L
b0 *
0M
b1111111111111111 )
1N
b0 A
b0 6
1P
b1111111111111 5
b0 8
b0 C
1!
b11 7
1<
sCMD_DESL/0 W
b0 E
b1111111111111111 >
b1111111111111 -
0(
b1111111111111 B
sCMD_BST/2 #
b11 /
0;
b11 D
sCMD_DESL/0 $
#111872
0!
#115368
b1111111111111 I
b0 F
b1111111111111111 =
b1111111111111 .
b110110111 U
b0 1
b11 0
b11 K
b0 J
0'
b1111111111111111 2
b0 L
b1111111111111111 *
1M
b0 )
0N
b1111111111111 A
b1111111111111 6
0P
b0 5
b11 8
1O
b11 C
1!
b0 7
0<
sCMD_BST/2 W
b1111111111111111 E
b0 >
b0 -
1(
b0 B
sCMD_DESL/0 #
b0 /
1;
b0 D
sCMD_READ/3 $
#118864
0!
#122360
b0 I
b1111111111111111 F
b0 =
b0 .
b111111000 U
b1111111111111111 1
b0 0
b0 K
b1111111111111 J
1'
b0 2
b11 L
b0 *
0M
b1111111111111111 )
1N
b0 A
b0 6
b1111111111111 5
b0 8
0O
b0 C
1T
1!
b11 7
1<
sCMD_DESL/0 W
b0 E
b1111111111111111 >
b1111111111111 -
0(
b1101111111111 B
sCMD_READ/3 #
b11 /
0;
b11 D
sCMD_DESL/0 $
#125856
0!
#129352
b1111111111111 I
b0 F
b1111111111111111 =
b1111111111111 .
b110101110 U
b0 1
b11 0
b11 K
b0 J
0'
b1111111111111111 2
b0 L
b1111111111111111 *
1M
b0 )
0N
b1101111111111 A
b1111111111111 6
b0 5
b11 8
b11 C
0T
1!
b0 7
0<
sCMD_READ/3 W
b1111111111111111 E
b0 >
b0 -
1S
1(
b0 B
sCMD_DESL/0 #
b0 /
1;
b0 D
sCMD_READ_AP/4 $
#132848
0!
#136344
b0 I
b1111111111111111 F
b0 =
b0 .
b111111000 U
b1111111111111111 1
b0 0
b0 K
b1101111111111 J
1'
b0 2
b11 L
b0 *
0M
b1111111111111111 )
1N
b0 A
b0 6
b1111111111111 5
b0 8
b0 C
1T
1!
b11 7
1<
sCMD_DESL/0 W
b0 E
b1111111111111111 >
b1111111111111 -
0S
0(
b1111111111111 B
sCMD_READ_AP/4 #
b11 /
0;
b11 D
sCMD_DESL/0 $
#139840
0!
#143336
b1101111111111 I
b0 F
b1111111111111111 =
b1111111111111 .
b110101111 U
b0 1
b11 0
b11 K
b0 J
0'
b1111111111111111 2
b0 L
b1111111111111111 *
1M
b0 )
0N
b1111111111111 A
b1101111111111 6
b0 5
b11 8
b11 C
0T
1!
b0 7
0<
sCMD_READ_AP/4 W
b1111111111111111 E
b0 >
b0 -
1S
1(
b0 B
sCMD_DESL/0 #
b0 /
1;
b0 D
sCMD_WRITE/5 $
#146832
0!
#150328
b0 I
b1111111111111111 F
b1111111111111111 1
b0 K
b1111111111111 J
b11 L
0M
1N
1P
b1101111111111 5
1T
b11 7
sCMD_DESL/0 W
0S
0(
sCMD_WRITE/5 #
b0 *
0;
sCMD_DESL/0 $
b0 =
b0 .
b111111000 U
b0 0
1'
b0 2
b1111111111111111 )
b0 A
b0 6
b0 8
b0 C
1!
1<
b0 E
b1111111111111111 >
b1111111111111 -
b1101111111111 B
b11 /
b11 D
#153824
0!
#157320
b1111111111111 I
b0 F
b0 1
b11 K
b0 J
b0 L
1M
0N
0P
b0 5
1O
0T
b0 7
sCMD_WRITE/5 W
1S
1(
sCMD_DESL/0 #
b1111111111111111 *
1;
sCMD_WRITE_AP/6 $
b1111111111111111 =
b1111111111111 .
b110100110 U
b11 0
0'
b1111111111111111 2
b0 )
b1101111111111 A
b1111111111111 6
b11 8
b11 C
1!
0<
b1111111111111111 E
b0 >
b0 -
b0 B
b0 /
b0 D
#160816
0!
#164312
b0 I
b1111111111111111 F
b1111111111111111 1
b0 K
b1101111111111 J
b11 L
0M
1N
1P
b1111111111111 5
0O
1T
b11 7
sCMD_DESL/0 W
0S
0(
sCMD_WRITE_AP/6 #
b0 *
0;
sCMD_DESL/0 $
b0 =
b0 .
b111111000 U
b0 0
1'
b0 2
b1111111111111111 )
b0 A
b0 6
b0 8
b0 C
1!
1<
b0 E
b1111111111111111 >
b1111111111111 -
b1111111111111 B
b11 /
b11 D
#167808
0!
#171304
b1101111111111 I
b0 F
b0 1
b11 K
b0 J
b0 L
1M
0N
0P
b0 5
1O
0T
b0 7
sCMD_WRITE_AP/6 W
1S
1(
sCMD_DESL/0 #
b1111111111111111 *
1;
sCMD_ACT/7 $
b1111111111111111 =
b1111111111111 .
b110100111 U
b11 0
0'
b1111111111111111 2
b0 )
b1111111111111 A
b1101111111111 6
b11 8
b11 C
1!
0<
b1111111111111111 E
b0 >
b0 -
b0 B
b0 /
b0 D
#174800
0!
#178296
b0 I
b1111111111111111 F
b1111111111111111 1
b0 K
b1111111111111 J
b11 L
0M
1N
b1101111111111 5
0O
1R
b11 7
sCMD_DESL/0 W
0S
0(
sCMD_ACT/7 #
b0 *
0;
sCMD_DESL/0 $
b0 =
b0 .
b111111000 U
b0 0
1'
b0 2
b1111111111111111 )
b0 A
b0 6
b0 8
b0 C
1!
1<
b0 E
b1111111111111111 >
b1111111111111 -
b1111111111111 B
b11 /
b11 D
#181792
0!
#185288
b1111111111111 I
b0 F
b1111111111111111 =
b1111111111111 .
b110011111 U
b0 1
b11 0
b11 K
b0 J
0'
b1111111111111111 2
b0 L
b1111111111111111 *
1M
b0 )
0N
b1111111111111 A
b1111111111111 6
b0 5
b11 8
0R
b11 C
1!
b0 7
0<
1Q
sCMD_ACT/7 W
b1111111111111111 E
b0 >
b0 -
1(
b0 B
sCMD_DESL/0 #
b0 /
1;
b0 D
sCMD_PRE/8 $
#188784
0!
#192280
b0 I
b1111111111111111 F
b1111111111111111 1
b0 K
b1111111111111 J
b11 L
0M
1N
1P
b1111111111111 5
1R
b11 7
0Q
sCMD_DESL/0 W
0(
sCMD_PRE/8 #
b0 *
0;
sCMD_DESL/0 $
b0 =
b0 .
b111111000 U
b0 0
1'
b0 2
b1111111111111111 )
b0 A
b0 6
b0 8
b0 C
1!
1<
b0 E
b1111111111111111 >
b1111111111111 -
b1101111111111 B
b11 /
b11 D
#195776
0!
#199272
b1111111111111 I
b0 F
b0 1
b11 K
b0 J
b0 L
1M
0N
0P
b0 5
1O
0R
b0 7
1Q
sCMD_PRE/8 W
1(
sCMD_DESL/0 #
b1111111111111111 *
1;
sCMD_PALL/9 $
b1111111111111111 =
b1111111111111 .
b110010110 U
b11 0
0'
b1111111111111111 2
b0 )
b1101111111111 A
b1111111111111 6
b11 8
b11 C
1!
0<
b1111111111111111 E
b0 >
b0 -
b0 B
b0 /
b0 D
#202768
0!
#206264
b0 I
b1111111111111111 F
b1111111111111111 1
b0 K
b1101111111111 J
b11 L
0M
1N
1P
b1111111111111 5
0O
1R
b11 7
0Q
sCMD_DESL/0 W
0(
sCMD_PALL/9 #
b0 *
0;
sCMD_DESL/0 $
b0 =
b0 .
b111111000 U
b0 0
1'
b0 2
b1111111111111111 )
b0 A
b0 6
b0 8
b0 C
1!
1<
b0 E
b1111111111111111 >
b1111111111111 -
b1111111111111 B
b11 /
b11 D
#209760
0!
#213256
b1101111111111 I
b0 F
b0 1
b11 K
b0 J
b0 L
1M
0N
0P
b0 5
1O
0R
b0 7
1Q
sCMD_PALL/9 W
1(
sCMD_DESL/0 #
b1111111111111111 *
1;
sCMD_REF/10 $
b1111111111111111 =
b1111111111111 .
b110010111 U
b11 0
0'
b1111111111111111 2
b0 )
b1111111111111 A
b1101111111111 6
b11 8
b11 C
1!
0<
b1111111111111111 E
b0 >
b0 -
b0 B
b0 /
b0 D
#216752
0!
#220248
b0 I
b1111111111111111 F
b1111111111111111 1
b0 K
b1111111111111 J
b11 L
0M
1N
b1101111111111 5
0O
1R
1T
b11 7
0Q
sCMD_DESL/0 W
0(
sCMD_REF/10 #
b0 *
0;
sCMD_DESL/0 $
b0 =
b0 .
b111111000 U
b0 0
1'
b0 2
b1111111111111111 )
b0 A
b0 6
b0 8
b0 C
1!
1<
b0 E
b1111111111111111 >
b1111111111111 -
b1111111111111 B
b11 /
b11 D
#223744
0!
#227240
b1111111111111 I
b0 F
b0 1
b11 K
b0 J
b0 L
1M
0N
b0 5
0R
0T
b0 7
1Q
sCMD_REF/10 W
0&
1S
1(
sCMD_DESL/0 #
b1111111111111111 *
1;
sCMD_SELF/11 $
b1111111111111111 =
b1111111111111 .
b110001111 U
b11 0
0'
b1111111111111111 2
b0 )
b1111111111111 A
b1111111111111 6
b11 8
b11 C
1!
0<
b1111111111111111 E
b0 >
b0 -
b0 B
b0 /
b0 D
#230736
0!
#234232
b0 I
b1111111111111111 F
b1111111111111111 1
b0 K
b1111111111111 J
b11 L
0M
1N
b1111111111111 5
1R
1T
b11 7
0Q
sCMD_DESL/0 W
1&
0S
0(
sCMD_SELF/11 #
b0 *
0;
sCMD_DESL/0 $
0%
b0 =
b0 .
b111111000 U
b0 0
1'
b0 2
b1111111111111111 )
b0 A
b0 6
b0 8
b0 C
0:
1!
1<
b0 E
b1111111111111111 >
b1111111111111 -
b1111111111111 B
b11 /
b11 D
#237728
0!
#241224
b1111111111111 I
b0 F
b0 1
b11 K
b0 J
b0 L
1M
0N
b0 5
0R
0T
b0 7
1Q
sCMD_SELF/11 W
09
1S
1(
sCMD_DESL/0 #
b1111111111111111 *
1;
sCMD_MRS/12 $
1%
b1111111111111111 =
b1111111111111 .
b100001111 U
b11 0
0'
b1111111111111111 2
b0 )
b1111111111111 A
b1111111111111 6
b11 8
b11 C
1:
1!
0<
b1111111111111111 E
b0 >
b0 -
b0 B
b0 /
b0 D
#244720
0!
#248216
b0 I
b1111111111111111 F
b1111111111111111 1
b0 K
b1111111111111 J
b11 L
0M
1N
1P
b1111111111111 5
1R
1T
b11 7
0Q
sCMD_NOP/1 W
0V
19
0S
0(
sCMD_MRS/12 #
b0 *
0;
sCMD_DESL/0 $
b0 =
b0 .
b11111000 U
b0 0
1'
b0 2
b1111111111111111 )
b0 A
b0 6
b0 8
b0 C
1!
1<
b0 E
b1111111111111111 >
b1111111111111 -
b1101111111111 B
b11 /
#251712
0!
#255208
b1111111111111 I
b0 F
b0 1
b11 K
b0 J
b0 L
1M
0N
0P
b0 5
1O
0R
0T
b0 7
1Q
sCMD_MRS/12 W
1V
1S
1(
sCMD_DESL/0 #
b1111111111111111 *
1;
sCMD_ILLEGAL/13 $
b1111111111111111 =
b1111111111111 .
b110000000 U
b11 0
0'
b1111111111111111 2
b0 )
b1101111111111 A
b1111111111111 6
b11 8
1!
0<
b1111111111111111 E
b0 >
b0 -
b0 B
b0 /
#258704
0!
#262200
b0 I
b1111111111111111 F
b0 =
b0 .
b111111000 U
b1111111111111111 1
b0 0
b0 K
b1101111111111 J
1'
b0 2
b0 *
0M
b1111111111111111 )
b0 A
b0 6
b1111111111111 5
b0 8
0O
1!
b11 7
1<
0Q
sCMD_DESL/0 W
b0 E
b1111111111111111 >
b1111111111111 -
0S
0(
b1111111111111 B
sCMD_ILLEGAL/13 #
b11 /
0;
b11 D
sCMD_DESL/0 $
#265696
0!
#269192
b1101111111111 I
b0 F
b1111111111111111 =
b111111111 U
b0 1
b0 J
0'
b1111111111111111 2
b0 )
b1111111111111 A
b1101111111111 6
b0 5
b11 C
1!
b0 7
0<
b1111111111111111 E
b0 >
b0 -
b0 B
sCMD_DESL/0 #
b0 /
1;
b0 D
#272688
0!
#276184
b0 I
b1111111111111111 F
b0 C
1!
b0 =
b111111000 U
b0 6
b1111111111111111 1
b1111111111111 J
b0 E
b0 2
b11 L
b0 A
0;
b1101111111111 5
#279680
0!
#283176
b1111111111111 I
b0 F
1!
b0 1
b11 K
b0 J
b1111111111111111 E
b1111111111111111 2
b0 L
b1111111111111 6
b0 5
b11 8
#286672
0!
#290168
b0 I
1!
b11 7
b1111111111111111 1
b0 K
b0 E
b0 2
b0 6
b1111111111111 5
b0 8
#293664
0!
#297160
b0 1
b0 5
1!
b0 7
