amaram/sdram_n_fifo_interface/simulations_to_keep/controller_readwrite_readwriteCtrl_sim_thatWritingAndRefreshingThenReadingBack_readsCorrectValuesAndStaysRefreshed.vcd
$comment Generated by Amaranth $end
$date 2022-03-13 09:16:22.173099 $end
$timescale 1 ps $end
$scope module bench $end
$scope module top $end
$var wire 1 ! clk $end
$var wire 1 " rst $end
$var string 1 # _ui__task $end
$var string 1 $ ui__task $end
$var wire 22 % _ui__addr $end
$var wire 22 & ui__addr $end
$var wire 16 ' _ui__data $end
$var wire 16 ( ui__data $end
$var wire 1 ) ui__readback_active $end
$var wire 1 * _ui__readback_active $end
$var wire 22 + ui__readback_addr $end
$var wire 22 , _ui__readback_addr $end
$var wire 16 - ui__readback_data $end
$var wire 16 . _ui__readback_data $end
$var string 1 / controller_pin_ui__ios__cmd $end
$var string 1 0 _controller_pin_ui__ios__cmd $end
$var wire 1 1 controller_pin_ui__ios__clk_en $end
$var wire 1 2 _controller_pin_ui__ios__clk_en $end
$var wire 1 3 controller_pin_ui__ios__dqm $end
$var wire 1 4 _controller_pin_ui__ios__dqm $end
$var wire 16 5 controller_pin_ui__ios__copi_dq $end
$var wire 16 6 _controller_pin_ui__ios__copi_dq $end
$var wire 16 7 _controller_pin_ui__ios__cipo_dq $end
$var wire 16 8 controller_pin_ui__ios__cipo_dq $end
$var wire 13 9 controller_pin_ui__ios__a $end
$var wire 13 : _controller_pin_ui__ios__a $end
$var wire 2 ; controller_pin_ui__ios__ba $end
$var wire 2 < _controller_pin_ui__ios__ba $end
$var wire 1 = controller_pin_ui__ios__cs $end
$var wire 1 > _controller_pin_ui__ios__cs $end
$var wire 1 ? controller_pin_ui__ios__we $end
$var wire 1 @ _controller_pin_ui__ios__we $end
$var wire 1 A controller_pin_ui__ios__ras $end
$var wire 1 B _controller_pin_ui__ios__ras $end
$var wire 1 C controller_pin_ui__ios__cas $end
$var wire 1 D _controller_pin_ui__ios__cas $end
$var wire 9 E col $end
$var wire 2 F bank $end
$var wire 11 G row $end
$var wire 16 H data $end
$var wire 3 I burst_index $end
$var wire 1 J cmd_and_addr_bus $end
$var wire 1 K data_bus $end
$var string 1 L rw_bank_0_fsm_state $end
$var string 1 M $sample$s$_ui__task$sync$1 $end
$var wire 1 N $sample$c$0$sync$1 $end
$var wire 11 O $sample$s$row$sync$1 $end
$var string 1 P $sample$s$_ui__task$sync$3 $end
$var wire 9 Q $sample$s$col$sync$3 $end
$var wire 16 R $sample$s$data$sync$3 $end
$var wire 22 S $sample$s$_ui__addr$sync$9 $end
$var wire 1 T cmd_and_addr_bus$1 $end
$var wire 1 U data_bus$1 $end
$var string 1 V rw_bank_1_fsm_state $end
$var wire 1 W $sample$c$1$sync$1 $end
$var wire 1 X cmd_and_addr_bus$2 $end
$var wire 1 Y data_bus$2 $end
$var string 1 Z rw_bank_2_fsm_state $end
$var wire 2 [ $sample$c$2$sync$1 $end
$var wire 1 \ cmd_and_addr_bus$3 $end
$var wire 1 ] data_bus$3 $end
$var string 1 ^ rw_bank_3_fsm_state $end
$var wire 2 _ $sample$c$3$sync$1 $end
$var string 1 ` $sample$s$_ui__task$sync$2 $end
$var wire 9 a $sample$s$col$sync$1 $end
$var wire 9 b $sample$s$col$sync$2 $end
$var wire 16 c $sample$s$data$sync$1 $end
$var wire 16 d $sample$s$data$sync$2 $end
$var wire 22 e $sample$s$_ui__addr$sync$1 $end
$var wire 22 f $sample$s$_ui__addr$sync$2 $end
$var wire 22 g $sample$s$_ui__addr$sync$3 $end
$var wire 22 h $sample$s$_ui__addr$sync$4 $end
$var wire 22 i $sample$s$_ui__addr$sync$5 $end
$var wire 22 j $sample$s$_ui__addr$sync$6 $end
$var wire 22 k $sample$s$_ui__addr$sync$7 $end
$var wire 22 l $sample$s$_ui__addr$sync$8 $end
$upscope $end
$upscope $end
$enddefinitions $end
#0
$dumpvars
0!
0"
sRW_IDLE/0 #
sRW_IDLE/0 $
b0 %
b0 &
b0 '
b0 (
0)
0*
b0 +
b0 ,
b0 -
b0 .
sCMD_DESL/0 /
sCMD_DESL/0 0
01
02
03
04
b0 5
b0 6
b0 7
b0 8
b0 9
b0 :
b0 ;
b0 <
0=
0>
0?
0@
0A
0B
0C
0D
b0 E
b0 F
b0 G
b0 H
b0 I
0J
0K
sIDLE/0 L
sRW_IDLE/0 M
0N
b0 O
sRW_IDLE/0 P
b0 Q
b0 R
b0 S
0T
0U
sIDLE/0 V
1W
0X
0Y
sIDLE/0 Z
b10 [
0\
0]
sIDLE/0 ^
b11 _
sRW_IDLE/0 `
b0 a
b0 b
b0 c
b0 d
b0 e
b0 f
b0 g
b0 h
b0 i
b0 j
b0 k
b0 l
$end
#3496
sRW_WRITE/2 $
14
12
sCMD_NOP/1 0
1!
#6992
0!
#10488
b1 &
sCMD_NOP/1 /
11
b1 (
13
sRW_WRITE/2 #
1!
#13984
0!
#17480
b10 &
b1 %
b10 (
sRW_WRITE/2 M
b1 '
1!
#20976
0!
#24472
b11 &
b10 %
1J
b11 (
b1 E
b1 H
sWAS_ACTIVE_NOP1/1 L
sRW_WRITE/2 `
sCMD_ACT/7 0
b1 e
b1 I
b10 '
1!
#27968
0!
#31464
b100 &
0J
sRW_WRITE/2 P
b100 (
b10 E
sNOP3/2 L
sCMD_NOP/1 0
b10 e
b1 c
b11 '
1!
b10 I
b11 %
b10 H
sCMD_ACT/7 /
b1 a
b1 f
#34960
0!
#38456
b101 &
b101 (
b11 E
b1 d
b1 g
sWRITE_0/3 L
b11 e
b10 c
b100 '
b1 b
1!
b11 I
b100 %
b11 H
sCMD_NOP/1 /
b10 a
b10 f
#41952
0!
#45448
b110 &
1J
b110 (
b100 E
b10 d
sWRITE_1/6 L
b10 g
sCMD_WRITE_AP/6 0
b11 c
b100 e
b101 '
b10 b
b1 h
1!
b100 I
b1 R
b1 Q
b101 %
b100 H
04
b11 a
1K
b11 f
#48944
0!
#52440
b111 &
0J
b111 (
b101 E
b11 d
sWRITE_2/7 L
b11 g
sCMD_NOP/1 0
b100 c
b101 e
b110 '
b11 b
b10 h
1!
b101 I
b10 R
b10 Q
b110 %
b1 6
03
b101 H
sCMD_WRITE_AP/6 /
b100 a
b100 f
b1 i
#55936
0!
#59432
b1000 &
b1000 (
b110 E
b100 d
sWRITE_3/8 L
b100 g
b101 c
b110 e
b111 '
b100 b
b1 5
1!
b110 I
b11 h
b11 Q
b11 R
b111 %
b10 6
b110 H
sCMD_NOP/1 /
b1 j
b101 a
b101 f
b10 i
#62928
0!
#66424
b1001 &
b1001 (
b111 E
b1 k
b101 d
sWRITE_4/9 L
b101 g
b110 c
b111 e
b1000 '
b101 b
b10 5
1!
b111 I
b100 h
b100 Q
b100 R
b1000 %
b11 6
b111 H
b10 j
b110 a
b110 f
b11 i
#69920
0!
#73416
b1010 &
b1010 (
b1 F
b0 E
b10 k
b110 d
sWRITE_5/10 L
b110 g
b111 c
b1000 e
b1001 '
b110 b
b11 5
1!
b1 l
b0 I
b101 Q
b101 h
b101 R
b1001 %
b100 6
b1000 H
b11 j
b111 a
b111 f
b100 i
#76912
0!
#80408
b1011 &
b1011 (
b1 E
b11 k
b111 d
sWRITE_6/11 L
b111 g
sCMD_ACT/7 0
b1000 c
b1001 e
b1 <
b1 S
1T
b1010 '
b111 b
b100 5
1!
b10 l
b1 I
b110 Q
b110 h
b110 R
sWAS_ACTIVE_NOP1/1 V
b1010 %
b101 6
b1001 H
b100 j
b0 a
b1000 f
b101 i
#83904
0!
#87400
b1100 &
b1100 (
b100 k
sWRITE_7/12 L
sCMD_NOP/1 0
b10 S
1!
b11 l
b10 I
b111 Q
b1010 H
sCMD_ACT/7 /
b101 j
b110 i
b1 ;
b10 E
b1000 d
b1000 g
b1001 c
b1010 e
b0 <
0T
b1011 '
b0 b
b101 5
b111 h
b111 R
sNOP3/2 V
b1011 %
b110 6
b1 a
b1001 f
#90896
0!
#94392
b0 ;
b1101 &
b1101 (
b11 E
b101 k
b1001 d
sIDLE/0 L
b1001 g
b1010 c
b1011 e
b11 S
b1100 '
b1 b
b110 5
1!
b100 l
b11 I
b0 Q
b1000 h
b1000 R
sWRITE_0/3 V
b1100 %
b111 6
b1011 H
sCMD_NOP/1 /
b110 j
b10 a
b1010 f
b111 i
#97888
0!
#101384
b1110 &
b1110 (
b100 E
b110 k
b1010 d
b1010 g
sCMD_WRITE_AP/6 0
b1011 c
b1100 e
b1 <
b100 S
1T
b1101 '
b10 b
b111 5
1!
b101 l
b100 I
b1 Q
b1001 h
b1001 R
1U
sWRITE_1/6 V
b1101 %
b1000 6
b1100 H
b111 j
b11 a
0K
b1011 f
b1000 i
#104880
0!
#108376
b1 ;
b1111 &
b1111 (
b101 E
b111 k
b1011 d
b1011 g
sCMD_NOP/1 0
b1100 c
b1101 e
b0 <
b101 S
0T
b1110 '
b11 b
b1000 5
1!
b110 l
b101 I
b10 Q
b1010 h
b1010 R
sWRITE_2/7 V
b1110 %
b1001 6
b1101 H
sCMD_WRITE_AP/6 /
b1000 j
b100 a
b1100 f
b1001 i
#111872
0!
#115368
b0 ;
b10000 &
b10000 (
b110 E
b1000 k
b1100 d
b1100 g
b1101 c
b1110 e
b110 S
b1111 '
b100 b
b1001 5
1!
b111 l
b110 I
b11 Q
b1011 h
b1011 R
sWRITE_3/8 V
b1111 %
b1010 6
b1110 H
sCMD_NOP/1 /
b1001 j
b101 a
b1101 f
b1010 i
#118864
0!
#122360
b10001 &
b10001 (
b111 E
b1001 k
b1101 d
b1101 g
b1110 c
b1111 e
b111 S
b10000 '
b101 b
b1010 5
1!
b1000 l
b111 I
b100 Q
b1100 h
b1100 R
sWRITE_4/9 V
b10000 %
b1011 6
b1111 H
b1010 j
b110 a
b1110 f
b1011 i
#125856
0!
#129352
b10010 &
b10010 (
b10 F
b0 E
b1010 k
b1110 d
b1110 g
b1111 c
b10000 e
b1000 S
b10001 '
b110 b
b1011 5
1!
b1001 l
b0 I
b101 Q
b1101 h
b1101 R
sWRITE_5/10 V
b10001 %
b1100 6
b10000 H
b1011 j
b111 a
b1111 f
b1100 i
#132848
0!
#136344
b10011 &
b10011 (
b1 E
b1011 k
b1111 d
b1111 g
sCMD_ACT/7 0
b10000 c
b10001 e
b10 <
b1001 S
b10010 '
b111 b
b1100 5
1!
b1010 l
b1 I
b110 Q
b1110 h
b1110 R
sWRITE_6/11 V
b10010 %
b1101 6
1X
b10001 H
sWAS_ACTIVE_NOP1/1 Z
b1100 j
b0 a
b10000 f
b1101 i
#139840
0!
#143336
b10100 &
b10100 (
b1100 k
sCMD_NOP/1 0
b1010 S
1!
b1011 l
b10 I
b111 Q
b10010 H
sCMD_ACT/7 /
b1101 j
b1110 i
b10 ;
b10 E
b10000 d
b10000 g
b10001 c
b10010 e
b0 <
b10011 '
b0 b
b1101 5
b1111 h
b1111 R
sWRITE_7/12 V
b10011 %
b1110 6
0X
sNOP3/2 Z
b1 a
b10001 f
#146832
0!
#150328
b0 ;
b10101 &
b10101 (
b11 E
b1101 k
b10001 d
b10001 g
b10010 c
b10011 e
b1011 S
b10100 '
b1 b
b1110 5
1!
b1100 l
b11 I
b0 Q
b10000 h
b10000 R
sIDLE/0 V
b10100 %
b1111 6
b10011 H
sWRITE_0/3 Z
sCMD_NOP/1 /
b1110 j
b10 a
b10010 f
b1111 i
#153824
0!
#157320
b10110 &
b10110 (
b100 E
b1110 k
b10010 d
b10010 g
sCMD_WRITE_AP/6 0
b10011 c
b10100 e
b10 <
b1100 S
b10101 '
b10 b
b1111 5
1!
b1101 l
b100 I
b1 Q
b10001 h
b10001 R
0U
b10101 %
b10000 6
1X
b10100 H
sWRITE_1/6 Z
b1111 j
1Y
b11 a
b10011 f
b10000 i
#160816
0!
#164312
b10 ;
b10111 &
b10111 (
b101 E
b1111 k
b10011 d
b10011 g
sCMD_NOP/1 0
b10100 c
b10101 e
b0 <
b1101 S
b10110 '
b11 b
b10000 5
1!
b1110 l
b101 I
b10 Q
b10010 h
b10010 R
b10110 %
b10001 6
0X
b10101 H
sWRITE_2/7 Z
sCMD_WRITE_AP/6 /
b10000 j
b100 a
b10100 f
b10001 i
#167808
0!
#171304
b0 ;
b11000 &
b11000 (
b110 E
b10000 k
b10100 d
b10100 g
b10101 c
b10110 e
b1110 S
b10111 '
b100 b
b10001 5
1!
b1111 l
b110 I
b11 Q
b10011 h
b10011 R
b10111 %
b10010 6
b10110 H
sWRITE_3/8 Z
sCMD_NOP/1 /
b10001 j
b101 a
b10101 f
b10010 i
#174800
0!
#178296
b11001 &
b11001 (
b111 E
b10001 k
b10101 d
b10101 g
b10110 c
b10111 e
b1111 S
b11000 '
b101 b
b10010 5
1!
b10000 l
b111 I
b100 Q
b10100 h
b10100 R
b11000 %
b10011 6
b10111 H
sWRITE_4/9 Z
b10010 j
b110 a
b10110 f
b10011 i
#181792
0!
#185288
b11010 &
b11010 (
b11 F
b0 E
b10010 k
b10110 d
b10110 g
b10111 c
b11000 e
b10000 S
b11001 '
b110 b
b10011 5
1!
b10001 l
b0 I
b101 Q
b10101 h
b10101 R
b11001 %
b10100 6
b11000 H
sWRITE_5/10 Z
b10011 j
b111 a
b10111 f
b10100 i
#188784
0!
#192280
b11011 &
b11011 (
b1 E
b10011 k
sWAS_ACTIVE_NOP1/1 ^
b10111 d
b10111 g
sCMD_ACT/7 0
b11000 c
b11001 e
b11 <
b10001 S
b11010 '
b111 b
b10100 5
1!
b10010 l
b1 I
b110 Q
b10110 h
b10110 R
b11010 %
b10101 6
b11001 H
sWRITE_6/11 Z
1\
b10100 j
b0 a
b11000 f
b10101 i
#195776
0!
#199272
b11100 &
b11100 (
b10100 k
sNOP3/2 ^
sCMD_NOP/1 0
b10010 S
1!
b10011 l
b10 I
b111 Q
b11010 H
sCMD_ACT/7 /
b10101 j
b10110 i
b11 ;
b10 E
b11000 d
b11000 g
b11001 c
b11010 e
b0 <
b11011 '
b0 b
b10101 5
b10111 h
b10111 R
b11011 %
b10110 6
sWRITE_7/12 Z
0\
b1 a
b11001 f
#202768
0!
#206264
b0 ;
b11101 &
b11101 (
b11 E
b10101 k
sWRITE_0/3 ^
b11001 d
b11001 g
b11010 c
b11011 e
b10011 S
b11100 '
b1 b
b10110 5
1!
b10100 l
b11 I
b0 Q
b11000 h
b11000 R
b11100 %
b10111 6
b11011 H
sIDLE/0 Z
sCMD_NOP/1 /
b10110 j
b10 a
b11010 f
b10111 i
#209760
0!
#213256
b11110 &
b11110 (
b100 E
b10110 k
sWRITE_1/6 ^
b11010 d
b11010 g
sCMD_WRITE_AP/6 0
b11011 c
b11100 e
b11 <
b10100 S
b11101 '
b10 b
b10111 5
1!
b10101 l
b100 I
b1 Q
b11001 h
b11001 R
b11101 %
b11000 6
b11 a
b11100 H
1\
b10111 j
0Y
1]
b11011 f
b11000 i
#216752
0!
#220248
b11 ;
b11111 &
b11111 (
b101 E
b10111 k
sWRITE_2/7 ^
b11011 d
b11011 g
sCMD_NOP/1 0
b11100 c
b11101 e
b0 <
b10101 S
b11110 '
b11 b
b11000 5
1!
b10110 l
b101 I
b10 Q
b11010 h
b11010 R
b11110 %
b11001 6
b11101 H
0\
sCMD_WRITE_AP/6 /
b11000 j
b100 a
b11100 f
b11001 i
#223744
0!
#227240
b0 ;
b100000 &
b100000 (
b110 E
b11000 k
sWRITE_3/8 ^
b11100 d
b11100 g
b11101 c
b11110 e
b10110 S
b11111 '
b100 b
b11001 5
1!
b10111 l
b110 I
b11 Q
b11011 h
b11011 R
b11111 %
b11010 6
b11110 H
sCMD_NOP/1 /
b11001 j
b101 a
b11101 f
b11010 i
#230736
0!
#234232
b100001 &
b100001 (
b111 E
b11001 k
sWRITE_4/9 ^
b11101 d
b11101 g
b11110 c
b11111 e
b10111 S
b100000 '
b101 b
b11010 5
1!
b11000 l
b111 I
b100 Q
b11100 h
b11100 R
b100000 %
b11011 6
b11111 H
b11010 j
b110 a
b11110 f
b11011 i
#237728
0!
#241224
b100010 &
b100010 (
b0 F
b1000 E
b11010 k
sWRITE_5/10 ^
b11110 d
b11110 g
b11111 c
b100000 e
b11000 S
b100001 '
b110 b
b11011 5
1!
b11001 l
b0 I
b101 Q
b11101 h
b11101 R
b100001 %
b11100 6
b100000 H
b11011 j
b111 a
b11111 f
b11100 i
#244720
0!
#248216
b100011 &
1J
b100011 (
b1001 E
b11011 k
sWRITE_6/11 ^
sWAS_ACTIVE_NOP1/1 L
b11111 d
b11111 g
sCMD_ACT/7 0
b100000 c
b100001 e
b11001 S
b100010 '
b111 b
b11100 5
1!
b11010 l
b1 I
b110 Q
b11110 h
b11110 R
b100010 %
b11101 6
b100001 H
b11100 j
b1000 a
b100000 f
b11101 i
#251712
0!
#255208
b100100 &
0J
b100100 (
b1010 E
b11100 k
sWRITE_7/12 ^
sNOP3/2 L
b100000 d
b100000 g
sCMD_NOP/1 0
b100001 c
b100010 e
b11010 S
b100011 '
b1000 b
b11101 5
1!
b11011 l
b10 I
b111 Q
b11111 h
b11111 R
b100011 %
b11110 6
b100010 H
sCMD_ACT/7 /
b11101 j
b1001 a
b100001 f
b11110 i
#258704
0!
#262200
b100101 &
b100101 (
b1011 E
b11101 k
sIDLE/0 ^
sWRITE_0/3 L
b100001 d
b100001 g
b100010 c
b100011 e
b11011 S
b100100 '
b1001 b
b11110 5
1!
b11100 l
b11 I
b1000 Q
b100000 h
b100000 R
b100100 %
b11111 6
b100011 H
sCMD_NOP/1 /
b11110 j
b1010 a
b100010 f
b11111 i
#265696
0!
#269192
b100110 &
1J
b100110 (
b1100 E
b11110 k
b100010 d
sWRITE_1/6 L
b100010 g
sCMD_WRITE_AP/6 0
b100011 c
b100100 e
b11100 S
b100101 '
b1010 b
b1000 :
b11111 5
1!
b11101 l
b100 I
b1001 Q
b100001 h
b100001 R
b100101 %
b100000 6
b1011 a
b100100 H
b11111 j
0]
1K
b100011 f
b100000 i
#272688
0!
#276184
b100111 &
0J
b100111 (
b1101 E
b11111 k
b100011 d
sWRITE_2/7 L
b100011 g
b1000 9
sCMD_NOP/1 0
b100100 c
b100101 e
b11101 S
b100110 '
b1011 b
b0 :
b100000 5
1!
b11110 l
b101 I
b1010 Q
b100010 h
b100010 R
b100110 %
b100001 6
b100101 H
sCMD_WRITE_AP/6 /
b100000 j
b1100 a
b100100 f
b100001 i
#279680
0!
#283176
b101000 &
b101000 (
b1110 E
b100000 k
b100100 d
sWRITE_3/8 L
b100100 g
b0 9
b100101 c
b100110 e
b11110 S
b100111 '
b1100 b
b100001 5
1!
b11111 l
b110 I
b1011 Q
b100011 h
b100011 R
b100111 %
b100010 6
b100110 H
sCMD_NOP/1 /
b100001 j
b1101 a
b100101 f
b100010 i
#286672
0!
#290168
b101001 &
b101001 (
b1111 E
b100001 k
b100101 d
sWRITE_4/9 L
b100101 g
b100110 c
b100111 e
b11111 S
b101000 '
b1101 b
b100010 5
1!
b100000 l
b111 I
b1100 Q
b100100 h
b100100 R
b101000 %
b100011 6
b100111 H
b100010 j
b1110 a
b100110 f
b100011 i
#293664
0!
#297160
b101010 &
b101010 (
b1 F
b1000 E
b100010 k
b100110 d
sWRITE_5/10 L
b100110 g
b100111 c
b101000 e
b100000 S
b101001 '
b1110 b
b100011 5
1!
b100001 l
b0 I
b1101 Q
b100101 h
b100101 R
b101001 %
b100100 6
b101000 H
b100011 j
b1111 a
b100111 f
b100100 i
#300656
0!
#304152
b101011 &
b101011 (
b1001 E
b100011 k
b100111 d
sWRITE_6/11 L
b100111 g
sCMD_ACT/7 0
b101000 c
b101001 e
b1 <
b100001 S
1T
b101010 '
b1111 b
b100100 5
1!
b100010 l
b1 I
b1110 Q
b100110 h
b100110 R
sWAS_ACTIVE_NOP1/1 V
b101010 %
b100101 6
b101001 H
b100100 j
b1000 a
b101000 f
b100101 i
#307648
0!
#311144
b101100 &
b101100 (
b100100 k
sWRITE_7/12 L
sCMD_NOP/1 0
b100010 S
1!
b100011 l
b10 I
b1111 Q
b101010 H
sCMD_ACT/7 /
b100101 j
b100110 i
b1 ;
b1010 E
b101000 d
b101000 g
b101001 c
b101010 e
b0 <
0T
b101011 '
b1000 b
b100101 5
b100111 h
b100111 R
sNOP3/2 V
b101011 %
b100110 6
b1001 a
b101001 f
#314640
0!
#318136
b0 ;
b101101 &
b101101 (
b1011 E
b100101 k
b101001 d
sIDLE/0 L
b101001 g
b101010 c
b101011 e
b100011 S
b101100 '
b1001 b
b100110 5
1!
b100100 l
b11 I
b1000 Q
b101000 h
b101000 R
sWRITE_0/3 V
b101100 %
b100111 6
b101011 H
sCMD_NOP/1 /
b100110 j
b1010 a
b101010 f
b100111 i
#321632
0!
#325128
b101110 &
b101110 (
b100110 k
sCMD_WRITE_AP/6 0
b100100 S
1!
b100101 l
b100 I
b1001 Q
b101100 H
b100111 j
0K
b101000 i
b1100 E
b101010 d
b101010 g
b101011 c
b101100 e
b1 <
1T
b101101 '
b1010 b
b1000 :
b100111 5
b101001 h
b101001 R
1U
sWRITE_1/6 V
b101101 %
b101000 6
b1011 a
b101011 f
#328624
0!
#332120
b101111 &
b101111 (
b100111 k
sCMD_NOP/1 0
b100101 S
1!
b100110 l
b101 I
b1010 Q
b101101 H
sCMD_WRITE_AP/6 /
b101000 j
b101001 i
b1 ;
b1101 E
b101011 d
b101011 g
b1000 9
b101100 c
b101101 e
b0 <
0T
b101110 '
b1011 b
b0 :
b101000 5
b101010 h
b101010 R
sWRITE_2/7 V
b101110 %
b101001 6
b1100 a
b101100 f
#335616
0!
#339112
b0 ;
b110000 &
b110000 (
b1110 E
b101000 k
b101100 d
b101100 g
b0 9
b101101 c
b101110 e
b100110 S
b101111 '
b1100 b
b101001 5
1!
b100111 l
b110 I
b1011 Q
b101011 h
b101011 R
sWRITE_3/8 V
b101111 %
b101010 6
b101110 H
sCMD_NOP/1 /
b101001 j
b1101 a
b101101 f
b101010 i
#342608
0!
#346104
b110001 &
b110001 (
b1111 E
b101001 k
b101101 d
b101101 g
b101110 c
b101111 e
b100111 S
b110000 '
b1101 b
b101010 5
1!
b101000 l
b111 I
b1100 Q
b101100 h
b101100 R
sWRITE_4/9 V
b110000 %
b101011 6
b101111 H
b101010 j
b1110 a
b101110 f
b101011 i
#349600
0!
#353096
b110010 &
b110010 (
b10 F
b1000 E
b101010 k
b101110 d
b101110 g
b101111 c
b110000 e
b101000 S
b110001 '
b1110 b
b101011 5
1!
b101001 l
b0 I
b1101 Q
b101101 h
b101101 R
sWRITE_5/10 V
b110001 %
b101100 6
b110000 H
b101011 j
b1111 a
b101111 f
b101100 i
#356592
0!
#360088
b110011 &
b110011 (
b1001 E
b101011 k
b101111 d
b101111 g
sCMD_ACT/7 0
b110000 c
b110001 e
b10 <
b101001 S
b110010 '
b1111 b
b101100 5
1!
b101010 l
b1 I
b1110 Q
b101110 h
b101110 R
sWRITE_6/11 V
b110010 %
b101101 6
1X
b110001 H
sWAS_ACTIVE_NOP1/1 Z
b101100 j
b1000 a
b110000 f
b101101 i
#363584
0!
#367080
b110100 &
b110100 (
b101100 k
sCMD_NOP/1 0
b101010 S
1!
b101011 l
b10 I
b1111 Q
b110010 H
sCMD_ACT/7 /
b101101 j
b101110 i
b10 ;
b1010 E
b110000 d
b110000 g
b110001 c
b110010 e
b0 <
b110011 '
b1000 b
b101101 5
b101111 h
b101111 R
sWRITE_7/12 V
b110011 %
b101110 6
0X
sNOP3/2 Z
b1001 a
b110001 f
#370576
0!
#374072
b0 ;
b110101 &
b110101 (
b1011 E
b101101 k
b110001 d
b110001 g
b110010 c
b110011 e
b101011 S
b110100 '
b1001 b
b101110 5
1!
b101100 l
b11 I
b1000 Q
b110000 h
b110000 R
sIDLE/0 V
b110100 %
b101111 6
b110011 H
sWRITE_0/3 Z
sCMD_NOP/1 /
b101110 j
b1010 a
b110010 f
b101111 i
#377568
0!
#381064
b110110 &
b110110 (
b101110 k
sCMD_WRITE_AP/6 0
b101100 S
1!
b101101 l
b100 I
b1001 Q
b110100 H
b101111 j
b110000 i
b1100 E
b110010 d
b110010 g
b110011 c
b110100 e
b10 <
b110101 '
b1010 b
b1000 :
b101111 5
b110001 h
b110001 R
0U
b110101 %
b110000 6
1X
sWRITE_1/6 Z
1Y
b1011 a
b110011 f
#384560
0!
#388056
b110111 &
b110111 (
b101111 k
sCMD_NOP/1 0
b101101 S
1!
b101110 l
b101 I
b1010 Q
b110101 H
sCMD_WRITE_AP/6 /
b110000 j
b110001 i
b10 ;
b1101 E
b110011 d
b110011 g
b1000 9
b110100 c
b110101 e
b0 <
b110110 '
b1011 b
b0 :
b110000 5
b110010 h
b110010 R
b110110 %
b110001 6
0X
sWRITE_2/7 Z
b1100 a
b110100 f
#391552
0!
#395048
b0 ;
b111000 &
b111000 (
b1110 E
b110000 k
b110100 d
b110100 g
b0 9
b110101 c
b110110 e
b101110 S
b110111 '
b1100 b
b110001 5
1!
b101111 l
b110 I
b1011 Q
b110011 h
b110011 R
b110111 %
b110010 6
b110110 H
sWRITE_3/8 Z
sCMD_NOP/1 /
b110001 j
b1101 a
b110101 f
b110010 i
#398544
0!
#402040
b111001 &
b111001 (
b1111 E
b110001 k
b110101 d
b110101 g
b110110 c
b110111 e
b101111 S
b111000 '
b1101 b
b110010 5
1!
b110000 l
b111 I
b1100 Q
b110100 h
b110100 R
b111000 %
b110011 6
b110111 H
sWRITE_4/9 Z
b110010 j
b1110 a
b110110 f
b110011 i
#405536
0!
#409032
b111010 &
b111010 (
b11 F
b1000 E
b110010 k
b110110 d
b110110 g
b110111 c
b111000 e
b110000 S
b111001 '
b1110 b
b110011 5
1!
b110001 l
b0 I
b1101 Q
b110101 h
b110101 R
b111001 %
b110100 6
b111000 H
sWRITE_5/10 Z
b110011 j
b1111 a
b110111 f
b110100 i
#412528
0!
#416024
b111011 &
b111011 (
b1001 E
b110011 k
sWAS_ACTIVE_NOP1/1 ^
b110111 d
b110111 g
sCMD_ACT/7 0
b111000 c
b111001 e
b11 <
b110001 S
b111010 '
b1111 b
b110100 5
1!
b110010 l
b1 I
b1110 Q
b110110 h
b110110 R
b111010 %
b110101 6
b111001 H
sWRITE_6/11 Z
1\
b110100 j
b1000 a
b111000 f
b110101 i
#419520
0!
#423016
b111100 &
b111100 (
b110100 k
sNOP3/2 ^
sCMD_NOP/1 0
b110010 S
1!
b110011 l
b10 I
b1111 Q
b111010 H
sCMD_ACT/7 /
b110101 j
b110110 i
b11 ;
b1010 E
b111000 d
b111000 g
b111001 c
b111010 e
b0 <
b111011 '
b1000 b
b110101 5
b110111 h
b110111 R
b111011 %
b110110 6
sWRITE_7/12 Z
0\
b1001 a
b111001 f
#426512
0!
#430008
b0 ;
b111101 &
b111101 (
b1011 E
b110101 k
sWRITE_0/3 ^
b111001 d
b111001 g
b111010 c
b111011 e
b110011 S
b111100 '
b1001 b
b110110 5
1!
b110100 l
b11 I
b1000 Q
b111000 h
b111000 R
b111100 %
b110111 6
b111011 H
sIDLE/0 Z
sCMD_NOP/1 /
b110110 j
b1010 a
b111010 f
b110111 i
#433504
0!
#437000
b111110 &
b111110 (
b110110 k
sWRITE_1/6 ^
sCMD_WRITE_AP/6 0
b110100 S
1!
b110101 l
b100 I
b1001 Q
b111100 H
b110111 j
b111000 i
b1100 E
b111010 d
b111010 g
b111011 c
b111100 e
b11 <
b111101 '
b1010 b
b1000 :
b110111 5
b111001 h
b111001 R
b111101 %
b111000 6
b1011 a
1\
0Y
1]
b111011 f
#440496
0!
#443992
b111111 &
b111111 (
b110111 k
sWRITE_2/7 ^
sCMD_NOP/1 0
b110101 S
1!
b110110 l
b101 I
b1010 Q
b111101 H
sCMD_WRITE_AP/6 /
b111000 j
b111001 i
b11 ;
b1101 E
b111011 d
b111011 g
b1000 9
b111100 c
b111101 e
b0 <
b111110 '
b1011 b
b0 :
b111000 5
b111010 h
b111010 R
b111110 %
b111001 6
0\
b1100 a
b111100 f
#447488
0!
#450984
b0 ;
b1110 E
b111000 k
sWRITE_3/8 ^
b111100 d
b111100 g
b0 9
b111101 c
b111110 e
b110110 S
b111111 '
b1100 b
b111001 5
1!
b110111 l
b110 I
b1011 Q
b111011 h
b111011 R
b111111 %
b111010 6
b111110 H
sCMD_NOP/1 /
b111001 j
b1101 a
b111101 f
b111010 i
#454480
0!
#457976
b1111 E
b111001 k
sWRITE_4/9 ^
b111101 d
b111101 g
b111110 c
b111111 e
b110111 S
b1101 b
b111010 5
1!
b111000 l
b111 I
b1100 Q
b111100 h
b111100 R
b111011 6
b111111 H
b111010 j
b1110 a
b111110 f
b111011 i
#461472
0!
#464968
b111010 k
b111110 d
b111110 g
sWRITE_5/10 ^
b111111 c
b111000 S
b1110 b
b111011 5
1!
b111101 R
b111101 h
b1101 Q
b111001 l
b111100 6
b111011 j
b1111 a
b111111 f
b111100 i
#468464
0!
#471960
b111110 R
b1110 Q
b111101 6
b111011 k
b111111 d
b111111 g
sWRITE_6/11 ^
b111110 h
b111010 l
b111100 j
b111001 S
b1111 b
b111101 i
b111100 5
1!
#475456
0!
#478952
b111111 R
b1111 Q
b111110 6
b111100 k
sWRITE_7/12 ^
b111111 h
b111011 l
b111101 j
b111010 S
b111110 i
b111101 5
1!
#482448
0!
#485944
b111111 6
b111101 k
sIDLE/0 ^
b111100 l
b111110 j
b111011 S
b111111 i
b111110 5
1!
#489440
0!
#492936
b0 6
b111110 k
14
b111101 l
b111111 j
b111100 S
0]
b111111 5
1!
#496432
0!
#499928
b111110 l
b111101 S
13
b111111 k
b0 5
1!
#503424
0!
#506920
b111111 l
b111110 S
1!
#510416
0!
#513912
b111111 S
1!
#517408
0!
#520904
b0 &
sRW_READ/1 $
1!
#524400
0!
#527896
b1 &
b0 %
sRW_READ/1 #
1!
#531392
0!
