amaram/sdram_n_fifo_interface/simulations_to_keep/controller_pin_pinCtrl_sim_thatEachCommandAndSignal_IsDecodedCorrectlyAndInSync.vcd
$comment Generated by Amaranth $end
$date 2022-03-17 00:07:22.557493 $end
$timescale 1 ps $end
$scope module bench $end
$scope module top $end
$var wire 1 ! clk $end
$var wire 1 " rst $end
$var string 1 # _ui__cmd $end
$var string 1 $ ui__cmd $end
$var wire 1 % _ui__clk_en $end
$var wire 1 & ui__clk_en $end
$var wire 1 ' _ui__dqm $end
$var wire 1 ( ui__dqm $end
$var wire 16 ) _ui__copi_dq $end
$var wire 16 * ui__copi_dq $end
$var wire 16 + ui__cipo_dq $end
$var wire 16 , _ui__cipo_dq $end
$var wire 13 - _ui__a $end
$var wire 13 . ui__a $end
$var wire 2 / _ui__ba $end
$var wire 2 0 ui__ba $end
$var wire 1 1 io__clk_en $end
$var wire 1 2 _io__clk_en $end
$var wire 1 3 io__dqm $end
$var wire 1 4 _io__dqm $end
$var wire 16 5 io__copi_dq $end
$var wire 16 6 _io__copi_dq $end
$var wire 16 7 _io__cipo_dq $end
$var wire 16 8 io__cipo_dq $end
$var wire 13 9 io__a $end
$var wire 13 : _io__a $end
$var wire 2 ; io__ba $end
$var wire 2 < _io__ba $end
$var wire 1 = io__cs $end
$var wire 1 > _io__cs $end
$var wire 1 ? io__we $end
$var wire 1 @ _io__we $end
$var wire 1 A io__ras $end
$var wire 1 B _io__ras $end
$var wire 1 C io__cas $end
$var wire 1 D _io__cas $end
$var wire 9 E encoded_cmd $end
$var wire 1 F $sample$s$io__clk_en$sync$1 $end
$var string 1 G decoded_cmd $end
$upscope $end
$upscope $end
$enddefinitions $end
#0
$dumpvars
0!
0"
sCMD_DESL/0 #
sCMD_DESL/0 $
0%
0&
0'
0(
b0 )
b0 *
b0 +
b0 ,
b0 -
b0 .
b0 /
b0 0
01
02
03
04
b0 5
b0 6
b0 7
b0 8
b0 9
b0 :
b0 ;
b0 <
0=
0>
0?
0@
0A
0B
0C
0D
b1111000 E
0F
sCMD_NOP/1 G
$end
#3496
1!
1&
#6992
0!
#10488
1!
1%
12
#13984
0!
#17480
b11111000 E
1!
11
#20976
0!
#24472
b111111000 E
1!
sCMD_DESL/0 G
1F
#27968
0!
#31464
1!
#34960
0!
#38456
1!
#41952
0!
#45448
1!
#48944
0!
#52440
1!
#55936
0!
#59432
1!
#62928
0!
#66424
1!
#69920
0!
#73416
b1111111111111 .
1(
b11 0
b1111111111111111 *
1!
#76912
0!
#80408
b1111111111111 -
b0 .
b11 <
b0 0
1!
b11 /
b1111111111111111 )
14
0(
b1111111111111111 6
b0 *
1'
b1111111111111 :
#83904
0!
#87400
b0 -
b1111111111111 .
b11 0
b11 ;
b0 /
b0 )
04
b0 6
0'
13
b0 :
b0 <
b1111111111111111 5
1!
1(
b1111111111111111 *
sCMD_NOP/1 $
b111111111 E
b1111111111111 9
#90896
0!
#94392
b1111111111111 -
b0 .
b0 0
b0 ;
b11 /
b1111111111111111 )
14
b1111111111111111 6
1'
03
b1111111111111 :
b11 <
b0 5
1>
1!
sCMD_NOP/1 #
0(
b0 *
sCMD_DESL/0 $
b111111000 E
b0 9
#97888
0!
#101384
b0 -
b1111111111111 .
b11 0
b11 ;
b0 /
b0 )
04
1=
b0 6
0'
13
b0 :
b0 <
b1111111111111111 5
0>
1!
sCMD_DESL/0 #
1(
b1111111111111111 *
sCMD_BST/2 $
b110111111 E
b1111111111111 9
sCMD_NOP/1 G
#104880
0!
#108376
b1111111111111 -
b0 .
b0 0
b0 ;
b11 /
b1111111111111111 )
14
0=
b1111111111111111 6
1'
03
b1111111111111 :
b11 <
b0 5
1>
1!
sCMD_BST/2 #
1@
0(
b0 *
sCMD_DESL/0 $
b111111000 E
b0 9
sCMD_DESL/0 G
#111872
0!
#115368
b0 -
b1111111111111 .
b11 0
b11 ;
b0 /
b0 )
04
1=
b0 6
0'
1?
13
b0 :
b0 <
b1111111111111111 5
0>
1!
sCMD_DESL/0 #
0@
1(
b1111111111111111 *
sCMD_READ/3 $
b110110111 E
b1111111111111 9
sCMD_BST/2 G
#118864
0!
#122360
b1111111111111 -
b0 .
b0 0
b0 ;
b11 /
b1111111111111111 )
14
0=
b1111111111111111 6
1'
0?
03
b1101111111111 :
b11 <
b0 5
1>
1!
sCMD_READ/3 #
0(
b0 *
1D
sCMD_DESL/0 $
b111111000 E
b0 9
sCMD_DESL/0 G
#125856
0!
#129352
b0 -
b1111111111111 .
b11 0
b11 ;
b0 /
b0 )
04
1=
b0 6
0'
13
b0 :
b0 <
b1111111111111111 5
0>
1!
sCMD_DESL/0 #
1C
1(
b1111111111111111 *
0D
sCMD_READ_AP/4 $
b110101110 E
b1101111111111 9
sCMD_READ/3 G
#132848
0!
#136344
b1111111111111 -
b0 .
b0 0
b0 ;
b11 /
b1111111111111111 )
14
0=
b1111111111111111 6
1'
03
b1111111111111 :
b11 <
b0 5
1>
1!
sCMD_READ_AP/4 #
0C
0(
b0 *
1D
sCMD_DESL/0 $
b111111000 E
b0 9
sCMD_DESL/0 G
#139840
0!
#143336
b0 -
b1111111111111 .
b11 0
b11 ;
b0 /
b0 )
04
1=
b0 6
0'
13
b0 :
b0 <
b1111111111111111 5
0>
1!
sCMD_DESL/0 #
1C
1(
b1111111111111111 *
0D
sCMD_WRITE/5 $
b110101111 E
b1111111111111 9
sCMD_READ_AP/4 G
#146832
0!
#150328
b1111111111111 -
b0 .
b0 0
b0 ;
b11 /
b1111111111111111 )
14
0=
b1111111111111111 6
1'
03
b1101111111111 :
b11 <
b0 5
1>
1!
sCMD_WRITE/5 #
1@
0C
0(
b0 *
1D
sCMD_DESL/0 $
b111111000 E
b0 9
sCMD_DESL/0 G
#153824
0!
#157320
b0 -
b1111111111111 .
b11 0
b11 ;
b0 /
b0 )
04
1=
b0 6
0'
1?
13
b0 :
b0 <
b1111111111111111 5
0>
1!
sCMD_DESL/0 #
0@
1C
1(
b1111111111111111 *
0D
sCMD_WRITE_AP/6 $
b110100110 E
b1101111111111 9
sCMD_WRITE/5 G
#160816
0!
#164312
b1111111111111 -
b0 .
b0 0
b0 ;
b11 /
b1111111111111111 )
14
0=
b1111111111111111 6
1'
0?
03
b1111111111111 :
b11 <
b0 5
1>
1!
sCMD_WRITE_AP/6 #
1@
0C
0(
b0 *
1D
sCMD_DESL/0 $
b111111000 E
b0 9
sCMD_DESL/0 G
#167808
0!
#171304
b0 -
b1111111111111 .
b11 0
b11 ;
b0 /
b0 )
04
1=
b0 6
0'
1?
13
b0 :
b0 <
b1111111111111111 5
0>
1!
sCMD_DESL/0 #
0@
1C
1(
b1111111111111111 *
0D
sCMD_ACT/7 $
b110100111 E
b1111111111111 9
sCMD_WRITE_AP/6 G
#174800
0!
#178296
b1111111111111 -
b0 .
b0 0
b0 ;
b11 /
b1111111111111111 )
14
0=
b1111111111111111 6
1'
0?
03
b1111111111111 :
b11 <
b0 5
1>
1!
sCMD_ACT/7 #
0C
0(
1B
b0 *
sCMD_DESL/0 $
b111111000 E
b0 9
sCMD_DESL/0 G
#181792
0!
#185288
b0 -
b1111111111111 .
b11 0
b11 ;
b0 /
b0 )
04
1=
b0 6
0'
13
b0 :
b0 <
1A
b1111111111111111 5
0>
1!
sCMD_DESL/0 #
1(
0B
b1111111111111111 *
sCMD_PRE/8 $
b110011111 E
b1111111111111 9
sCMD_ACT/7 G
#188784
0!
#192280
b1111111111111 -
b0 .
b0 0
b0 ;
b11 /
b1111111111111111 )
14
0=
b1111111111111111 6
1'
03
b1101111111111 :
b11 <
0A
b0 5
1>
1!
sCMD_PRE/8 #
1@
0(
1B
b0 *
sCMD_DESL/0 $
b111111000 E
b0 9
sCMD_DESL/0 G
#195776
0!
#199272
b0 -
b1111111111111 .
b11 0
b11 ;
b0 /
b0 )
04
1=
b0 6
0'
1?
13
b0 :
b0 <
1A
b1111111111111111 5
0>
1!
sCMD_DESL/0 #
0@
1(
0B
b1111111111111111 *
sCMD_PALL/9 $
b110010110 E
b1101111111111 9
sCMD_PRE/8 G
#202768
0!
#206264
b1111111111111 -
b0 .
b0 0
b0 ;
b11 /
b1111111111111111 )
14
0=
b1111111111111111 6
1'
0?
03
b1111111111111 :
b11 <
0A
b0 5
1>
1!
sCMD_PALL/9 #
1@
0(
1B
b0 *
sCMD_DESL/0 $
b111111000 E
b0 9
sCMD_DESL/0 G
#209760
0!
#213256
b0 -
b1111111111111 .
b11 0
b11 ;
b0 /
b0 )
04
1=
b0 6
0'
1?
13
b0 :
b0 <
1A
b1111111111111111 5
0>
1!
sCMD_DESL/0 #
0@
1(
0B
b1111111111111111 *
sCMD_REF/10 $
b110010111 E
b1111111111111 9
sCMD_PALL/9 G
#216752
0!
#220248
b1111111111111 -
b0 .
b0 0
b0 ;
b11 /
b1111111111111111 )
14
0=
b1111111111111111 6
1'
0?
03
b1111111111111 :
b11 <
0A
b0 5
1>
1!
sCMD_REF/10 #
0(
1B
b0 *
1D
sCMD_DESL/0 $
b111111000 E
b0 9
sCMD_DESL/0 G
#223744
0!
#227240
b0 -
b1111111111111 .
b11 0
b11 ;
b0 /
b0 )
04
1=
b0 6
0'
13
b0 :
b0 <
1A
b1111111111111111 5
0>
1!
sCMD_DESL/0 #
0&
1C
1(
0B
b1111111111111111 *
0D
sCMD_SELF/11 $
b110001111 E
b1111111111111 9
sCMD_REF/10 G
#230736
0!
#234232
b1111111111111 -
b0 .
b0 0
b0 ;
b11 /
02
b1111111111111111 )
14
0=
b1111111111111111 6
1'
03
b1111111111111 :
0%
b11 <
0A
b0 5
1>
1!
sCMD_SELF/11 #
1&
0C
0(
1B
b0 *
1D
sCMD_DESL/0 $
b111111000 E
b0 9
sCMD_DESL/0 G
#237728
0!
#241224
b0 -
b1111111111111 .
b11 0
b11 ;
b0 /
12
b0 )
04
1=
01
b0 6
0'
13
b0 :
1%
b0 <
1A
b1111111111111111 5
0>
1!
sCMD_DESL/0 #
1C
1(
0B
b1111111111111111 *
0D
sCMD_MRS/12 $
b100001111 E
b1111111111111 9
sCMD_SELF/11 G
#244720
0!
#248216
b1111111111111 -
b0 .
b0 0
b0 ;
b11 /
b1111111111111111 )
14
0=
11
b1111111111111111 6
1'
03
1D
b1101111111111 :
0A
b0 5
1>
1!
sCMD_MRS/12 #
1@
0C
0(
1B
0F
b0 *
sCMD_DESL/0 $
b11111000 E
b0 9
sCMD_NOP/1 G
#251712
0!
#255208
b0 -
b1111111111111 .
b11 0
b0 /
b0 )
04
1=
b0 6
0'
1?
13
0D
b0 :
1A
b1111111111111111 5
0>
1!
sCMD_DESL/0 #
0@
1C
1(
0B
1F
b1111111111111111 *
sCMD_ILLEGAL/13 $
b110000000 E
b1101111111111 9
sCMD_MRS/12 G
#258704
0!
#262200
b1111111111111 -
b0 .
b0 0
b11 /
b1111111111111111 )
14
0=
b1111111111111111 6
1'
0?
03
b1111111111111 :
b11 <
0A
b0 5
1!
sCMD_ILLEGAL/13 #
0C
0(
b0 *
sCMD_DESL/0 $
b111111000 E
b0 9
sCMD_DESL/0 G
#265696
0!
#269192
b0 -
b0 :
b0 <
b11 ;
b1111111111111111 5
1!
b0 /
sCMD_DESL/0 #
b0 )
04
b0 6
0'
b111111111 E
b1111111111111 9
13
#272688
0!
#276184
b0 ;
b0 5
b111111000 E
1!
b0 9
03
