amaram/sdram_n_fifo_interface/controller_readwrite_readwriteCtrl_sim_thatWritingThenReadingBack_readsCorrectValues.vcd
$comment Generated by Amaranth $end
$date 2022-03-18 11:25:52.074450 $end
$timescale 1 ps $end
$scope module bench $end
$scope module top $end
$var wire 1 ! clk $end
$var wire 1 " rst $end
$var string 1 # _ui__task $end
$var string 1 $ ui__task $end
$var wire 22 % _ui__addr $end
$var wire 22 & ui__addr $end
$var wire 16 ' _ui__data $end
$var wire 16 ( ui__data $end
$var wire 1 ) ui__readback_active $end
$var wire 1 * _ui__readback_active $end
$var wire 22 + ui__readback_addr $end
$var wire 22 , _ui__readback_addr $end
$var wire 16 - ui__readback_data $end
$var wire 16 . _ui__readback_data $end
$var string 1 / pin_ui__cmd $end
$var string 1 0 _pin_ui__cmd $end
$var wire 1 1 pin_ui__clk_en $end
$var wire 1 2 _pin_ui__clk_en $end
$var wire 1 3 pin_ui__dqm $end
$var wire 1 4 _pin_ui__dqm $end
$var wire 16 5 pin_ui__copi_dq $end
$var wire 16 6 _pin_ui__copi_dq $end
$var wire 16 7 _pin_ui__cipo_dq $end
$var wire 16 8 pin_ui__cipo_dq $end
$var wire 13 9 pin_ui__a $end
$var wire 13 : _pin_ui__a $end
$var wire 2 ; pin_ui__ba $end
$var wire 2 < _pin_ui__ba $end
$var wire 9 = col $end
$var wire 2 > bank $end
$var wire 11 ? row $end
$var wire 16 @ data $end
$var wire 3 A burst_index $end
$var wire 1 B adding_to_readback_bus $end
$var wire 1 C readback_bus $end
$var wire 1 D readback_bus$1 $end
$var wire 1 E readback_bus$2 $end
$var wire 1 F readback_bus$3 $end
$var wire 1 G cmd_and_addr_bus $end
$var wire 1 H data_bus $end
$var string 1 I rw_bank_0_fsm_state $end
$var string 1 J $sample$s$_ui__task$sync$1 $end
$var wire 1 K $sample$c$0$sync$1 $end
$var wire 11 L $sample$s$row$sync$1 $end
$var string 1 M $sample$s$_ui__task$sync$2 $end
$var wire 9 N $sample$s$col$sync$3 $end
$var wire 16 O $sample$s$data$sync$3 $end
$var wire 1 P $sample$s$adding_to_readback_bus$sync$2 $end
$var wire 22 Q $sample$s$_ui__addr$sync$10 $end
$var wire 1 R cmd_and_addr_bus$1 $end
$var wire 1 S data_bus$1 $end
$var string 1 T rw_bank_1_fsm_state $end
$var wire 1 U $sample$c$1$sync$1 $end
$var wire 1 V cmd_and_addr_bus$2 $end
$var wire 1 W data_bus$2 $end
$var string 1 X rw_bank_2_fsm_state $end
$var wire 2 Y $sample$c$2$sync$1 $end
$var wire 1 Z cmd_and_addr_bus$3 $end
$var wire 1 [ data_bus$3 $end
$var string 1 \ rw_bank_3_fsm_state $end
$var wire 2 ] $sample$c$3$sync$1 $end
$var wire 9 ^ $sample$s$col$sync$1 $end
$var wire 9 _ $sample$s$col$sync$2 $end
$var wire 16 ` $sample$s$data$sync$1 $end
$var wire 16 a $sample$s$data$sync$2 $end
$var wire 1 b $sample$s$adding_to_readback_bus$sync$1 $end
$var wire 22 c $sample$s$_ui__addr$sync$1 $end
$var wire 22 d $sample$s$_ui__addr$sync$2 $end
$var wire 22 e $sample$s$_ui__addr$sync$3 $end
$var wire 22 f $sample$s$_ui__addr$sync$4 $end
$var wire 22 g $sample$s$_ui__addr$sync$5 $end
$var wire 22 h $sample$s$_ui__addr$sync$6 $end
$var wire 22 i $sample$s$_ui__addr$sync$7 $end
$var wire 22 j $sample$s$_ui__addr$sync$8 $end
$var wire 22 k $sample$s$_ui__addr$sync$9 $end
$upscope $end
$upscope $end
$enddefinitions $end
#0
$dumpvars
0!
0"
sRW_IDLE/0 #
sRW_IDLE/0 $
b0 %
b0 &
b0 '
b0 (
0)
0*
b0 +
b0 ,
b0 -
b0 .
sCMD_DESL/0 /
sCMD_DESL/0 0
01
02
03
04
b0 5
b0 6
b0 7
b0 8
b0 9
b0 :
b0 ;
b0 <
b0 =
b0 >
b0 ?
b0 @
b0 A
0B
0C
0D
0E
0F
0G
0H
sIDLE/0 I
sRW_IDLE/0 J
0K
b0 L
sRW_IDLE/0 M
b0 N
b0 O
0P
b0 Q
0R
0S
sIDLE/0 T
1U
0V
0W
sIDLE/0 X
b10 Y
0Z
0[
sIDLE/0 \
b11 ]
b0 ^
b0 _
b0 `
b0 a
0b
b0 c
b0 d
b0 e
b0 f
b0 g
b0 h
b0 i
b0 j
b0 k
$end
#3496
1!
sRW_WRITE/2 $
14
12
sCMD_NOP/1 0
#6992
0!
#10488
1!
11
b1 &
sRW_WRITE/2 #
sCMD_NOP/1 /
b1 (
13
#13984
0!
#17480
1!
b1 %
b10 &
b10 (
b1 '
sRW_WRITE/2 J
#20976
0!
#24472
b10 %
b1 A
b11 &
b11 (
b10 '
sWAS_ACTIVE_NOP1/1 I
b1 c
1!
1G
b1 @
b1 =
sRW_WRITE/2 M
sCMD_ACT/7 0
#27968
0!
#31464
b10 A
b100 &
b100 (
1!
0G
sCMD_ACT/7 /
b10 =
sCMD_NOP/1 0
b11 %
b11 '
sNOP3/2 I
b10 c
b1 ^
b1 `
b10 @
b1 d
#34960
0!
#38456
b11 A
b101 &
b101 (
1!
sCMD_NOP/1 /
b11 =
b100 %
b100 '
sWRITE_0/3 I
b11 c
b1 a
b1 e
b10 ^
b10 `
b11 @
b1 _
b10 d
#41952
0!
#45448
b1 O
b100 A
b110 &
b11 `
b110 (
1!
b1 f
1G
b100 =
sCMD_WRITE_AP/6 0
b101 %
1H
b101 '
sWRITE_1/6 I
b100 c
b10 a
b10 e
b11 ^
04
b1 N
b100 @
b10 _
b11 d
#48944
0!
#52440
b1 6
b10 O
b101 A
b111 &
b100 `
b111 (
1!
b10 f
0G
sCMD_WRITE_AP/6 /
b101 =
b1 g
sCMD_NOP/1 0
b110 %
b110 '
sWRITE_2/7 I
b101 c
03
b11 a
b11 e
b100 ^
b10 N
b101 @
b11 _
b100 d
#55936
0!
#59432
b10 6
b11 O
b110 A
b1000 &
b101 `
b1000 (
1!
b11 f
sCMD_NOP/1 /
b110 =
b10 g
b1 h
b111 %
b111 '
sWRITE_3/8 I
b110 c
b100 a
b100 e
b101 ^
b1 5
b11 N
b110 @
b100 _
b101 d
#62928
0!
#66424
b11 6
b100 O
b111 A
b1001 &
b110 `
b1001 (
1!
b100 f
b111 =
b11 g
b10 h
b1000 %
b1 i
b1000 '
sWRITE_4/9 I
b111 c
b101 a
b101 e
b110 ^
b10 5
b100 N
b111 @
b101 _
b110 d
#69920
0!
#73416
b101 O
b0 A
b1010 &
b101 N
b111 `
b1010 (
1!
b111 d
b101 f
b0 =
b100 g
b11 h
b1001 %
b10 i
b1 >
b1001 '
sWRITE_5/10 I
b1000 c
b110 a
b110 e
b111 ^
b1 j
b11 5
b1000 @
b110 _
b100 6
#76912
0!
#80408
b110 O
b1 A
b1011 &
b110 N
b1000 `
b1011 (
1!
b1 <
b1000 d
b110 f
b111 _
b1 =
b101 g
sCMD_ACT/7 0
b100 h
b1010 %
1R
b11 i
b1010 '
sWRITE_6/11 I
b1001 c
b1 k
b111 a
b111 e
b0 ^
b10 j
b100 5
b1001 @
sWAS_ACTIVE_NOP1/1 T
b101 6
#83904
0!
#87400
b1100 &
b1001 `
b1100 (
1!
b0 <
b111 f
sCMD_ACT/7 /
b10 =
b110 g
b101 h
0R
b100 i
b1010 c
b10 k
b1 Q
b1 ^
b11 j
b101 5
b1010 @
sNOP3/2 T
b111 O
b10 A
b1001 d
b1 ;
sCMD_NOP/1 0
b1011 %
b1011 '
sWRITE_7/12 I
b1000 a
b1000 e
b111 N
b0 _
b110 6
#90896
0!
#94392
b1000 O
b11 A
b1101 &
b0 N
b1010 `
b1101 (
1!
b1010 d
b0 ;
b1000 f
b1 _
sCMD_NOP/1 /
b11 =
b111 g
b110 h
b1100 %
b101 i
b1100 '
sIDLE/0 I
b1011 c
b11 k
b10 Q
b1001 a
b1001 e
b10 ^
b100 j
b110 5
b1011 @
sWRITE_0/3 T
b111 6
#97888
0!
#101384
b1110 &
b1011 `
b1110 (
1!
b1 <
b1001 f
b100 =
b1000 g
b111 h
1R
b110 i
b1100 c
b100 k
b11 Q
1S
b11 ^
b101 j
b111 5
b1100 @
sWRITE_1/6 T
b1001 O
b100 A
b1011 d
sCMD_WRITE_AP/6 0
b1101 %
0H
b1101 '
b1010 a
b1010 e
b1 N
b10 _
b1000 6
#104880
0!
#108376
b1111 &
b1100 `
b1111 (
1!
b0 <
b1010 f
sCMD_WRITE_AP/6 /
b101 =
b1001 g
b1000 h
0R
b111 i
b1101 c
b101 k
b100 Q
b100 ^
b110 j
b1000 5
b1101 @
sWRITE_2/7 T
b1010 O
b101 A
b1100 d
b1 ;
sCMD_NOP/1 0
b1110 %
b1110 '
b1011 a
b1011 e
b10 N
b11 _
b1001 6
#111872
0!
#115368
b1011 O
b110 A
b10000 &
b11 N
b1101 `
b10000 (
1!
b1101 d
b0 ;
b1011 f
b100 _
sCMD_NOP/1 /
b110 =
b1010 g
b1001 h
b1111 %
b1000 i
b1111 '
b1110 c
b110 k
b101 Q
b1100 a
b1100 e
b101 ^
b111 j
b1001 5
b1110 @
sWRITE_3/8 T
b1010 6
#118864
0!
#122360
b1100 O
b111 A
b10001 &
b100 N
b1110 `
b10001 (
1!
b1110 d
b1100 f
b101 _
b111 =
b1011 g
b1010 h
b10000 %
b1001 i
b10000 '
b1111 c
b111 k
b110 Q
b1101 a
b1101 e
b110 ^
b1000 j
b1010 5
b1111 @
sWRITE_4/9 T
b1011 6
#125856
0!
#129352
b1101 O
b0 A
b10010 &
b101 N
b1111 `
b10010 (
1!
b1111 d
b1101 f
b110 _
b0 =
b1100 g
b1011 h
b10001 %
b1010 i
b10 >
b10001 '
b10000 c
b1000 k
b111 Q
b1110 a
b1110 e
b111 ^
b1001 j
b1011 5
b10000 @
sWRITE_5/10 T
b1100 6
#132848
0!
#136344
b1110 O
b1 A
b10011 &
b110 N
b10000 `
b10011 (
1V
1!
b10 <
b10000 d
b1110 f
b111 _
b1 =
b1101 g
sCMD_ACT/7 0
b1100 h
sWAS_ACTIVE_NOP1/1 X
b10010 %
b1011 i
b10010 '
b10001 c
b1001 k
b1000 Q
b1111 a
b1111 e
b0 ^
b1010 j
b1100 5
b10001 @
sWRITE_6/11 T
b1101 6
#139840
0!
#143336
b10100 &
b10001 `
b10100 (
1!
b0 <
b1111 f
sCMD_ACT/7 /
b10 =
b1110 g
b1101 h
b1100 i
b10010 c
b1010 k
b1001 Q
b1 ^
b1011 j
b1101 5
b10010 @
sWRITE_7/12 T
b1111 O
b10 A
0V
b10001 d
b10 ;
sCMD_NOP/1 0
sNOP3/2 X
b10011 %
b10011 '
b10000 a
b10000 e
b111 N
b0 _
b1110 6
#146832
0!
#150328
b10000 O
b11 A
b10101 &
b0 N
b10010 `
b10101 (
1!
b10010 d
b0 ;
b10000 f
b1 _
sCMD_NOP/1 /
b11 =
b1111 g
sWRITE_0/3 X
b1110 h
b10100 %
b1101 i
b10100 '
b10011 c
b1011 k
b1010 Q
b10001 a
b10001 e
b10 ^
b1100 j
b1110 5
b10011 @
sIDLE/0 T
b1111 6
#153824
0!
#157320
b10110 &
b10011 `
b10110 (
1!
b10 <
b10001 f
b100 =
b10000 g
b1111 h
b1110 i
b10100 c
b1100 k
b1011 Q
0S
b11 ^
b1101 j
b1111 5
b10100 @
b10001 O
b100 A
1V
b10011 d
1W
sCMD_WRITE_AP/6 0
sWRITE_1/6 X
b10101 %
b10101 '
b10010 a
b10010 e
b1 N
b10 _
b10000 6
#160816
0!
#164312
b10111 &
b10100 `
b10111 (
1!
b0 <
b10010 f
sCMD_WRITE_AP/6 /
b101 =
b10001 g
b10000 h
b1111 i
b10101 c
b1101 k
b1100 Q
b100 ^
b1110 j
b10000 5
b10101 @
b10010 O
b101 A
0V
b10100 d
b10 ;
sCMD_NOP/1 0
sWRITE_2/7 X
b10110 %
b10110 '
b10011 a
b10011 e
b10 N
b11 _
b10001 6
#167808
0!
#171304
b10011 O
b110 A
b11000 &
b11 N
b10101 `
b11000 (
1!
b10101 d
b0 ;
b10011 f
sCMD_NOP/1 /
b110 =
b10010 g
sWRITE_3/8 X
b10001 h
b10111 %
b10000 i
b10111 '
b10110 c
b1110 k
b1101 Q
b10100 a
b10100 e
b101 ^
b1111 j
b10001 5
b10110 @
b100 _
b10010 6
#174800
0!
#178296
b10100 O
b111 A
b11001 &
b100 N
b10110 `
b11001 (
1!
b10110 d
b10100 f
b111 =
b10011 g
sWRITE_4/9 X
b10010 h
b11000 %
b10001 i
b11000 '
b10111 c
b1111 k
b1110 Q
b10101 a
b10101 e
b110 ^
b10000 j
b10010 5
b10111 @
b101 _
b10011 6
#181792
0!
#185288
b10101 O
b0 A
b11010 &
b101 N
b10111 `
b11010 (
1!
b10111 d
b10101 f
b0 =
b10100 g
sWRITE_5/10 X
b10011 h
b11001 %
b10010 i
b11 >
b11001 '
b11000 c
b10000 k
b1111 Q
b10110 a
b10110 e
b111 ^
b10001 j
b10011 5
b11000 @
b110 _
b10100 6
#188784
0!
#192280
b10110 O
b1 A
b11011 &
sWAS_ACTIVE_NOP1/1 \
b110 N
b11000 `
b11011 (
1!
b11 <
b11000 d
b10110 f
b1 =
b10101 g
sCMD_ACT/7 0
b10100 h
sWRITE_6/11 X
b11010 %
b10011 i
b11010 '
b11001 c
b10001 k
b10000 Q
b10111 a
b10111 e
b0 ^
1Z
b10010 j
b10100 5
b11001 @
b111 _
b10101 6
#195776
0!
#199272
b11100 &
sNOP3/2 \
b11001 `
b11100 (
1!
b0 <
b10111 f
sCMD_ACT/7 /
b10 =
b10110 g
b10101 h
b10100 i
b11010 c
b10010 k
b10001 Q
b1 ^
b10011 j
b10101 5
b11010 @
b10111 O
b10 A
b11001 d
b11 ;
sCMD_NOP/1 0
sWRITE_7/12 X
b11011 %
b11011 '
b11000 a
b11000 e
0Z
b111 N
b0 _
b10110 6
#202768
0!
#206264
b11000 O
b11 A
b11101 &
sWRITE_0/3 \
b0 N
b11010 `
b11101 (
1!
b11010 d
b0 ;
b11000 f
sCMD_NOP/1 /
b11 =
b10111 g
sIDLE/0 X
b10110 h
b11100 %
b10101 i
b11100 '
b11011 c
b10011 k
b10010 Q
b11001 a
b11001 e
b10 ^
b10100 j
b10110 5
b11011 @
b1 _
b10111 6
#209760
0!
#213256
b11110 &
sWRITE_1/6 \
b11011 `
b11110 (
1!
b11 <
b11001 f
b100 =
b11000 g
b10111 h
b10110 i
b11100 c
b10100 k
b10011 Q
b11 ^
b10101 j
b10111 5
b11100 @
b11001 O
b100 A
b11011 d
0W
sCMD_WRITE_AP/6 0
b11101 %
b11101 '
b11010 a
b11010 e
1Z
b1 N
1[
b10 _
b11000 6
#216752
0!
#220248
b11111 &
sWRITE_2/7 \
b11100 `
b11111 (
1!
b0 <
b11010 f
sCMD_WRITE_AP/6 /
b101 =
b11001 g
b11000 h
b10111 i
b11101 c
b10101 k
b10100 Q
b100 ^
b10110 j
b11000 5
b11101 @
b11010 O
b101 A
b11100 d
b11 ;
sCMD_NOP/1 0
b11110 %
b11110 '
b11011 a
b11011 e
0Z
b10 N
b11 _
b11001 6
#223744
0!
#227240
b11011 O
b110 A
b100000 &
sWRITE_3/8 \
b11 N
b11101 `
b100000 (
1!
b11101 d
b0 ;
b11011 f
sCMD_NOP/1 /
b110 =
b11010 g
b11001 h
b11111 %
b11000 i
b11111 '
b11110 c
b10110 k
b10101 Q
b11100 a
b11100 e
b101 ^
b10111 j
b11001 5
b11110 @
b100 _
b11010 6
#230736
0!
#234232
b11100 O
b111 A
b100001 &
sWRITE_4/9 \
b100 N
b11110 `
b100001 (
1!
b11110 d
b11100 f
b111 =
b11011 g
b11010 h
b100000 %
b11001 i
b100000 '
b11111 c
b10111 k
b10110 Q
b11101 a
b11101 e
b110 ^
b11000 j
b11010 5
b11111 @
b101 _
b11011 6
#237728
0!
#241224
b11101 O
b0 A
b100010 &
sWRITE_5/10 \
b101 N
b11111 `
b100010 (
1!
b11111 d
b11101 f
b1000 =
b11100 g
b11011 h
b100001 %
b11010 i
b0 >
b100001 '
b100000 c
b11000 k
b10111 Q
b11110 a
b11110 e
b111 ^
b11001 j
b11011 5
b100000 @
b110 _
b11100 6
#244720
0!
#248216
b11110 O
b1 A
b100011 &
sWRITE_6/11 \
b110 N
b100000 `
b100011 (
1!
b100000 d
b11110 f
1G
b1001 =
b11101 g
sCMD_ACT/7 0
b11100 h
b100010 %
b11011 i
b100010 '
sWAS_ACTIVE_NOP1/1 I
b100001 c
b11001 k
b11000 Q
b11111 a
b11111 e
b1000 ^
b11010 j
b11100 5
b100001 @
b111 _
b11101 6
#251712
0!
#255208
b11111 O
b10 A
b100100 &
sWRITE_7/12 \
b111 N
b100001 `
b100100 (
1!
b100001 d
b11111 f
0G
sCMD_ACT/7 /
b1010 =
b11110 g
sCMD_NOP/1 0
b11101 h
b100011 %
b11100 i
b100011 '
sNOP3/2 I
b100010 c
b11010 k
b11001 Q
b100000 a
b100000 e
b1001 ^
b11011 j
b11101 5
b100010 @
b1000 _
b11110 6
#258704
0!
#262200
b100000 O
b11 A
b100101 &
sIDLE/0 \
b1000 N
b100010 `
b100101 (
1!
b100010 d
b100000 f
sCMD_NOP/1 /
b1011 =
b11111 g
b11110 h
b100100 %
b11101 i
b100100 '
sWRITE_0/3 I
b100011 c
b11011 k
b11010 Q
b100001 a
b100001 e
b1010 ^
b11100 j
b11110 5
b100011 @
b1001 _
b11111 6
#265696
0!
#269192
b100110 &
b1000 :
b100011 `
b100110 (
1!
b100001 f
b1100 =
b100000 g
b11111 h
b11110 i
b100100 c
b11100 k
b11011 Q
b1011 ^
b11101 j
b11111 5
b100100 @
b100001 O
b100 A
b100011 d
1G
sCMD_WRITE_AP/6 0
b100101 %
1H
b100101 '
sWRITE_1/6 I
b100010 a
b100010 e
b1001 N
0[
b1010 _
b100000 6
#272688
0!
#276184
b100111 &
b0 :
b100100 `
b100111 (
1!
b100010 f
sCMD_WRITE_AP/6 /
b1101 =
b100001 g
b100000 h
b11111 i
b100101 c
b11101 k
b11100 Q
b1100 ^
b11110 j
b100000 5
b100101 @
b100010 O
b101 A
b1000 9
b100100 d
0G
sCMD_NOP/1 0
b100110 %
b100110 '
sWRITE_2/7 I
b100011 a
b100011 e
b1010 N
b1011 _
b100001 6
#279680
0!
#283176
b100011 O
b110 A
b101000 &
b1011 N
b100101 `
b101000 (
b0 9
1!
b100101 d
b100011 f
sCMD_NOP/1 /
b1110 =
b100010 g
b100001 h
b100111 %
b100000 i
b100111 '
sWRITE_3/8 I
b100110 c
b11110 k
b11101 Q
b100100 a
b100100 e
b1101 ^
b11111 j
b100001 5
b100110 @
b1100 _
b100010 6
#286672
0!
#290168
b100100 O
b111 A
b101001 &
b1100 N
b100110 `
b101001 (
1!
b100110 d
b100100 f
b1111 =
b100011 g
b100010 h
b101000 %
b100001 i
b101000 '
sWRITE_4/9 I
b100111 c
b11111 k
b11110 Q
b100101 a
b100101 e
b1110 ^
b100000 j
b100010 5
b100111 @
b1101 _
b100011 6
#293664
0!
#297160
b100101 O
b0 A
b101010 &
b1101 N
b100111 `
b101010 (
1!
b100111 d
b100101 f
b1000 =
b100100 g
b100011 h
b101001 %
b100010 i
b1 >
b101001 '
sWRITE_5/10 I
b101000 c
b100000 k
b11111 Q
b100110 a
b100110 e
b1111 ^
b100001 j
b100011 5
b101000 @
b1110 _
b100100 6
#300656
0!
#304152
b100110 O
b1 A
b101011 &
b1110 N
b101000 `
b101011 (
1!
b1 <
b101000 d
b100110 f
b1111 _
b1001 =
b100101 g
sCMD_ACT/7 0
b100100 h
b101010 %
1R
b100011 i
b101010 '
sWRITE_6/11 I
b101001 c
b100001 k
b100000 Q
b100111 a
b100111 e
b1000 ^
b100010 j
b100100 5
b101001 @
sWAS_ACTIVE_NOP1/1 T
b100101 6
#307648
0!
#311144
b101100 &
b101001 `
b101100 (
1!
b0 <
b100111 f
sCMD_ACT/7 /
b1010 =
b100110 g
b100101 h
0R
b100100 i
b101010 c
b100010 k
b100001 Q
b1001 ^
b100011 j
b100101 5
b101010 @
sNOP3/2 T
b100111 O
b10 A
b101001 d
b1 ;
sCMD_NOP/1 0
b101011 %
b101011 '
sWRITE_7/12 I
b101000 a
b101000 e
b1111 N
b1000 _
b100110 6
#314640
0!
#318136
b101000 O
b11 A
b101101 &
b1000 N
b101010 `
b101101 (
1!
b101010 d
b0 ;
b101000 f
b1001 _
sCMD_NOP/1 /
b1011 =
b100111 g
b100110 h
b101100 %
b100101 i
b101100 '
sIDLE/0 I
b101011 c
b100011 k
b100010 Q
b101001 a
b101001 e
b1010 ^
b100100 j
b100110 5
b101011 @
sWRITE_0/3 T
b100111 6
#321632
0!
#325128
b101110 &
b1000 :
b101011 `
b101110 (
1!
b1 <
b101001 f
b1100 =
b101000 g
b100111 h
1R
b100110 i
b101100 c
b100100 k
b100011 Q
1S
b1011 ^
b100101 j
b100111 5
b101100 @
sWRITE_1/6 T
b101001 O
b100 A
b101011 d
sCMD_WRITE_AP/6 0
b101101 %
0H
b101101 '
b101010 a
b101010 e
b1001 N
b1010 _
b101000 6
#328624
0!
#332120
b101111 &
b0 :
b101100 `
b101111 (
1!
b0 <
b101010 f
sCMD_WRITE_AP/6 /
b1101 =
b101001 g
b101000 h
0R
b100111 i
b101101 c
b100101 k
b100100 Q
b1100 ^
b100110 j
b101000 5
b101101 @
sWRITE_2/7 T
b101010 O
b101 A
b1000 9
b101100 d
b1 ;
sCMD_NOP/1 0
b101110 %
b101110 '
b101011 a
b101011 e
b1010 N
b1011 _
b101001 6
#335616
0!
#339112
b101011 O
b110 A
b110000 &
b1011 N
b101101 `
b110000 (
b0 9
1!
b101101 d
b0 ;
b101011 f
b1100 _
sCMD_NOP/1 /
b1110 =
b101010 g
b101001 h
b101111 %
b101000 i
b101111 '
b101110 c
b100110 k
b100101 Q
b101100 a
b101100 e
b1101 ^
b100111 j
b101001 5
b101110 @
sWRITE_3/8 T
b101010 6
#342608
0!
#346104
b101100 O
b111 A
b110001 &
b1100 N
b101110 `
b110001 (
1!
b101110 d
b101100 f
b1101 _
b1111 =
b101011 g
b101010 h
b110000 %
b101001 i
b110000 '
b101111 c
b100111 k
b100110 Q
b101101 a
b101101 e
b1110 ^
b101000 j
b101010 5
b101111 @
sWRITE_4/9 T
b101011 6
#349600
0!
#353096
b101101 O
b0 A
b110010 &
b1101 N
b101111 `
b110010 (
1!
b101111 d
b101101 f
b1110 _
b1000 =
b101100 g
b101011 h
b110001 %
b101010 i
b10 >
b110001 '
b110000 c
b101000 k
b100111 Q
b101110 a
b101110 e
b1111 ^
b101001 j
b101011 5
b110000 @
sWRITE_5/10 T
b101100 6
#356592
0!
#360088
b101110 O
b1 A
b110011 &
b1110 N
b110000 `
b110011 (
1V
1!
b10 <
b110000 d
b101110 f
b1111 _
b1001 =
b101101 g
sCMD_ACT/7 0
b101100 h
sWAS_ACTIVE_NOP1/1 X
b110010 %
b101011 i
b110010 '
b110001 c
b101001 k
b101000 Q
b101111 a
b101111 e
b1000 ^
b101010 j
b101100 5
b110001 @
sWRITE_6/11 T
b101101 6
#363584
0!
#367080
b110100 &
b110001 `
b110100 (
1!
b0 <
b101111 f
sCMD_ACT/7 /
b1010 =
b101110 g
b101101 h
b101100 i
b110010 c
b101010 k
b101001 Q
b1001 ^
b101011 j
b101101 5
b110010 @
sWRITE_7/12 T
b101111 O
b10 A
0V
b110001 d
b10 ;
sCMD_NOP/1 0
sNOP3/2 X
b110011 %
b110011 '
b110000 a
b110000 e
b1111 N
b1000 _
b101110 6
#370576
0!
#374072
b110000 O
b11 A
b110101 &
b1000 N
b110010 `
b110101 (
1!
b110010 d
b0 ;
b110000 f
b1001 _
sCMD_NOP/1 /
b1011 =
b101111 g
sWRITE_0/3 X
b101110 h
b110100 %
b101101 i
b110100 '
b110011 c
b101011 k
b101010 Q
b110001 a
b110001 e
b1010 ^
b101100 j
b101110 5
b110011 @
sIDLE/0 T
b101111 6
#377568
0!
#381064
b110110 &
b1000 :
b110011 `
b110110 (
1!
b10 <
b110001 f
b1100 =
b110000 g
b101111 h
b101110 i
b110100 c
b101100 k
b101011 Q
0S
b1011 ^
b101101 j
b101111 5
b110100 @
b110001 O
b100 A
1V
b110011 d
1W
sCMD_WRITE_AP/6 0
sWRITE_1/6 X
b110101 %
b110101 '
b110010 a
b110010 e
b1001 N
b1010 _
b110000 6
#384560
0!
#388056
b110111 &
b0 :
b110100 `
b110111 (
1!
b0 <
b110010 f
sCMD_WRITE_AP/6 /
b1101 =
b110001 g
b110000 h
b101111 i
b110101 c
b101101 k
b101100 Q
b1100 ^
b101110 j
b110000 5
b110101 @
b110010 O
b101 A
b1000 9
0V
b110100 d
b10 ;
sCMD_NOP/1 0
sWRITE_2/7 X
b110110 %
b110110 '
b110011 a
b110011 e
b1010 N
b1011 _
b110001 6
#391552
0!
#395048
b110011 O
b110 A
b111000 &
b1011 N
b110101 `
b111000 (
b0 9
1!
b110101 d
b0 ;
b110011 f
sCMD_NOP/1 /
b1110 =
b110010 g
sWRITE_3/8 X
b110001 h
b110111 %
b110000 i
b110111 '
b110110 c
b101110 k
b101101 Q
b110100 a
b110100 e
b1101 ^
b101111 j
b110001 5
b110110 @
b1100 _
b110010 6
#398544
0!
#402040
b110100 O
b111 A
b111001 &
b1100 N
b110110 `
b111001 (
1!
b110110 d
b110100 f
b1111 =
b110011 g
sWRITE_4/9 X
b110010 h
b111000 %
b110001 i
b111000 '
b110111 c
b101111 k
b101110 Q
b110101 a
b110101 e
b1110 ^
b110000 j
b110010 5
b110111 @
b1101 _
b110011 6
#405536
0!
#409032
b110101 O
b0 A
b111010 &
b1101 N
b110111 `
b111010 (
1!
b110111 d
b110101 f
b1000 =
b110100 g
sWRITE_5/10 X
b110011 h
b111001 %
b110010 i
b11 >
b111001 '
b111000 c
b110000 k
b101111 Q
b110110 a
b110110 e
b1111 ^
b110001 j
b110011 5
b111000 @
b1110 _
b110100 6
#412528
0!
#416024
b110110 O
b1 A
b111011 &
sWAS_ACTIVE_NOP1/1 \
b1110 N
b111000 `
b111011 (
1!
b11 <
b111000 d
b110110 f
b1001 =
b110101 g
sCMD_ACT/7 0
b110100 h
sWRITE_6/11 X
b111010 %
b110011 i
b111010 '
b111001 c
b110001 k
b110000 Q
b110111 a
b110111 e
b1000 ^
1Z
b110010 j
b110100 5
b111001 @
b1111 _
b110101 6
#419520
0!
#423016
b111100 &
sNOP3/2 \
b111001 `
b111100 (
1!
b0 <
b110111 f
sCMD_ACT/7 /
b1010 =
b110110 g
b110101 h
b110100 i
b111010 c
b110010 k
b110001 Q
b1001 ^
b110011 j
b110101 5
b111010 @
b110111 O
b10 A
b111001 d
b11 ;
sCMD_NOP/1 0
sWRITE_7/12 X
b111011 %
b111011 '
b111000 a
b111000 e
0Z
b1111 N
b1000 _
b110110 6
#426512
0!
#430008
b111000 O
b11 A
b111101 &
sWRITE_0/3 \
b1000 N
b111010 `
b111101 (
1!
b111010 d
b0 ;
b111000 f
sCMD_NOP/1 /
b1011 =
b110111 g
sIDLE/0 X
b110110 h
b111100 %
b110101 i
b111100 '
b111011 c
b110011 k
b110010 Q
b111001 a
b111001 e
b1010 ^
b110100 j
b110110 5
b111011 @
b1001 _
b110111 6
#433504
0!
#437000
b111110 &
b1000 :
sWRITE_1/6 \
b111011 `
b111110 (
1!
b11 <
b111001 f
b1100 =
b111000 g
b110111 h
b110110 i
b111100 c
b110100 k
b110011 Q
b1011 ^
b110101 j
b110111 5
b111100 @
b111001 O
b100 A
b111011 d
0W
sCMD_WRITE_AP/6 0
b111101 %
b111101 '
b111010 a
b111010 e
1Z
b1001 N
1[
b1010 _
b111000 6
#440496
0!
#443992
b111111 &
b0 :
sWRITE_2/7 \
b111100 `
b111111 (
1!
b0 <
b111010 f
sCMD_WRITE_AP/6 /
b1101 =
b111001 g
b111000 h
b110111 i
b111101 c
b110101 k
b110100 Q
b1100 ^
b110110 j
b111000 5
b111101 @
b111010 O
b101 A
b1000 9
b111100 d
b11 ;
sCMD_NOP/1 0
b111110 %
b111110 '
b111011 a
b111011 e
0Z
b1010 N
b1011 _
b111001 6
#447488
0!
#450984
b111011 O
b110 A
sWRITE_3/8 \
b1011 N
b0 9
1!
b111101 d
b0 ;
b111011 f
sCMD_NOP/1 /
b1110 =
b111010 g
b111001 h
b111111 %
b111000 i
b111111 '
b111110 c
b110110 k
b110101 Q
b111110 @
b111100 a
b111100 e
b1101 ^
b110111 j
b111101 `
b111001 5
b1100 _
b111010 6
#454480
0!
#457976
b111011 6
b111100 O
b111 A
sWRITE_4/9 \
b1100 N
1!
b111100 f
b1111 =
b111011 g
b111010 h
b111001 i
b111111 c
b110111 k
b110110 Q
b111111 @
b111101 a
b111101 e
b1110 ^
b111000 j
b111110 `
b111010 5
b1101 _
b111110 d
#461472
0!
#464968
b111101 O
sWRITE_5/10 \
b111111 `
1!
b111111 d
b111101 f
b111100 g
b111011 h
b111010 i
b111000 k
b111110 a
b110111 Q
b111110 e
b1111 ^
b111001 j
b1101 N
b111011 5
b1110 _
b111100 6
#468464
0!
#471960
b111110 O
sWRITE_6/11 \
1!
b111110 f
b111101 g
b111100 h
b111011 i
b111001 k
b111111 a
b111000 Q
b111111 e
b111010 j
b1110 N
b111100 5
b1111 _
b111101 6
#475456
0!
#478952
b111111 O
b111100 i
sWRITE_7/12 \
b111010 k
b111001 Q
1!
b111111 f
b111011 j
b1111 N
b111101 5
b111110 6
b111110 g
b111101 h
#482448
0!
#485944
b111101 i
sIDLE/0 \
b111011 k
b111010 Q
1!
b111100 j
b111110 5
b111111 6
b111111 g
b111110 h
#489440
0!
