amaram/sdram_n_fifo_interface/controller_readwrite_readwriteCtrl_sim_thatWritingThenReadingBack_readsCorrectValues.vcd
$comment Generated by Amaranth $end
$date 2022-03-21 10:28:26.678196 $end
$timescale 1 ps $end
$scope module bench $end
$scope module top $end
$var wire 1 ! clk $end
$var wire 1 " rst $end
$var string 1 # _pin_ui__cmd $end
$var wire 1 $ _pin_ui__clk_en $end
$var wire 1 % _pin_ui__dqm $end
$var wire 13 & _pin_ui__rw_copi__a $end
$var wire 2 ' _pin_ui__rw_copi__ba $end
$var wire 1 ( _pin_ui__rw_copi__read_active $end
$var string 1 ) _ui__rw_copi__task $end
$var string 1 * ui__rw_copi__task $end
$var wire 22 + _ui__rw_copi__addr $end
$var wire 22 , ui__rw_copi__addr $end
$var wire 16 - _ui__rw_copi__w_data $end
$var wire 16 . ui__rw_copi__w_data $end
$var wire 1 / ui__r_cipo__read_active $end
$var wire 1 0 _ui__r_cipo__read_active $end
$var wire 22 1 ui__r_cipo__addr $end
$var wire 22 2 _ui__r_cipo__addr $end
$var wire 16 3 ui__r_cipo__r_data $end
$var wire 16 4 _ui__r_cipo__r_data $end
$var string 1 5 pin_ui__cmd $end
$var wire 1 6 pin_ui__clk_en $end
$var wire 1 7 pin_ui__dqm $end
$var wire 16 8 pin_ui__rw_copi__dq $end
$var wire 16 9 _pin_ui__rw_copi__dq $end
$var wire 1 : pin_ui__rw_copi__read_active $end
$var wire 13 ; pin_ui__rw_copi__a $end
$var wire 2 < pin_ui__rw_copi__ba $end
$var wire 16 = myui__rw_cipo__dq $end
$var wire 16 > pin_ui__rw_cipo__dq $end
$var wire 13 ? myui__rw_cipo__a $end
$var wire 13 @ $sample$s$pin_ui__rw_copi__a$sync$3 $end
$var wire 2 A myui__rw_cipo__ba $end
$var wire 2 B $sample$s$pin_ui__rw_copi__ba$sync$3 $end
$var wire 1 C myui__rw_cipo__read_active $end
$var wire 9 D col $end
$var wire 2 E bank $end
$var wire 11 F row $end
$var wire 16 G data $end
$var wire 3 H burst_index $end
$var wire 1 I adding_to_readback_bus $end
$var wire 1 J readback_bus $end
$var wire 1 K readback_bus$1 $end
$var wire 1 L readback_bus$2 $end
$var wire 1 M readback_bus$3 $end
$var wire 1 N cmd_and_addr_bus $end
$var wire 1 O data_bus $end
$var string 1 P rw_bank_0_fsm_state $end
$var string 1 Q $sample$s$_ui__rw_copi__task$sync$1 $end
$var wire 1 R $sample$c$0$sync$1 $end
$var wire 11 S $sample$s$row$sync$1 $end
$var string 1 T $sample$s$_ui__rw_copi__task$sync$3 $end
$var wire 9 U $sample$s$col$sync$3 $end
$var wire 16 V $sample$s$data$sync$3 $end
$var wire 1 W cmd_and_addr_bus$1 $end
$var wire 1 X data_bus$1 $end
$var string 1 Y rw_bank_1_fsm_state $end
$var wire 1 Z $sample$c$1$sync$1 $end
$var wire 1 [ cmd_and_addr_bus$2 $end
$var wire 1 \ data_bus$2 $end
$var string 1 ] rw_bank_2_fsm_state $end
$var wire 2 ^ $sample$c$2$sync$1 $end
$var wire 1 _ cmd_and_addr_bus$3 $end
$var wire 1 ` data_bus$3 $end
$var string 1 a rw_bank_3_fsm_state $end
$var wire 2 b $sample$c$3$sync$1 $end
$var wire 13 c $sample$s$pin_ui__rw_copi__a$sync$1 $end
$var wire 13 d $sample$s$pin_ui__rw_copi__a$sync$2 $end
$var wire 2 e $sample$s$pin_ui__rw_copi__ba$sync$1 $end
$var wire 2 f $sample$s$pin_ui__rw_copi__ba$sync$2 $end
$var string 1 g $sample$s$_ui__rw_copi__task$sync$2 $end
$var wire 9 h $sample$s$col$sync$1 $end
$var wire 9 i $sample$s$col$sync$2 $end
$var wire 16 j $sample$s$data$sync$1 $end
$var wire 16 k $sample$s$data$sync$2 $end
$upscope $end
$upscope $end
$enddefinitions $end
#0
$dumpvars
0!
0"
sCMD_DESL/0 #
0$
0%
b0 &
b0 '
0(
sRW_IDLE/0 )
sRW_IDLE/0 *
b0 +
b0 ,
b0 -
b0 .
0/
00
b0 1
b0 2
b0 3
b0 4
sCMD_DESL/0 5
06
07
b0 8
b0 9
0:
b0 ;
b0 <
b0 =
b0 >
b0 ?
b0 @
b0 A
b0 B
0C
b0 D
b0 E
b0 F
b0 G
b0 H
0I
0J
0K
0L
0M
0N
0O
sIDLE/0 P
sRW_IDLE/0 Q
0R
b0 S
sRW_IDLE/0 T
b0 U
b0 V
0W
0X
sIDLE/0 Y
1Z
0[
0\
sIDLE/0 ]
b10 ^
0_
0`
sIDLE/0 a
b11 b
b0 c
b0 d
b0 e
b0 f
sRW_IDLE/0 g
b0 h
b0 i
b0 j
b0 k
$end
#3496
sCMD_NOP/1 #
1$
1!
1%
sRW_WRITE/2 *
#6992
0!
#10488
sCMD_NOP/1 5
b1 ,
17
1!
sRW_WRITE/2 )
b1 .
16
#13984
0!
#17480
b1 +
b10 ,
1!
b10 .
b1 -
sRW_WRITE/2 Q
#20976
0!
#24472
b10 +
b1 D
1N
b1 G
1!
b10 -
b1 H
sRW_WRITE/2 g
b11 ,
sCMD_ACT/7 #
sWAS_ACTIVE_NOP1/1 P
b11 .
#27968
0!
#31464
b11 +
b10 D
0N
sRW_WRITE/2 T
b10 G
1!
b11 -
b10 H
sCMD_ACT/7 5
b100 ,
sCMD_NOP/1 #
sNOP3/2 P
b1 h
b100 .
b1 j
#34960
0!
#38456
b100 +
b11 D
b1 i
b11 G
1!
b100 -
b1 k
b11 H
sCMD_NOP/1 5
b101 ,
sWRITE_0/3 P
b10 h
b101 .
b10 j
#41952
0!
#45448
b101 +
b1 V
b100 G
b101 -
b10 k
0%
b100 H
b110 ,
b110 .
b11 h
b1 U
b100 D
1N
b10 i
1!
1O
sCMD_WRITE_AP/6 #
sWRITE_1/6 P
b11 j
#48944
0!
#52440
b110 +
b1 9
b10 V
b101 G
07
b110 -
b11 k
b101 H
b111 ,
b111 .
b10 U
b100 h
b101 D
0N
b11 i
1!
sCMD_WRITE_AP/6 5
sCMD_NOP/1 #
sWRITE_2/7 P
b100 j
#55936
0!
#59432
b111 +
b10 9
b11 V
b110 G
b111 -
b100 k
b110 H
b1 8
b1000 ,
b1000 .
b101 h
b11 U
b110 D
b100 i
1!
sCMD_NOP/1 5
sWRITE_3/8 P
b101 j
#62928
0!
#66424
b1000 +
b11 9
b100 V
b111 G
b1000 -
b101 k
b111 H
b10 8
b1001 ,
b1001 .
b110 h
b100 U
b111 D
b101 i
1!
sWRITE_4/9 P
b110 j
#69920
0!
#73416
b1001 +
b100 9
b101 V
b1000 G
b1001 -
b110 k
b0 H
b11 8
b1010 ,
b1010 .
b111 h
b101 U
b0 D
b110 i
1!
b1 E
sWRITE_5/10 P
b111 j
#76912
0!
#80408
b1010 +
b101 9
b110 V
b1001 G
b1010 -
b111 k
b1 H
b100 8
b1011 ,
1W
b1011 .
b110 U
b0 h
b1 D
b1 '
b111 i
1!
sWAS_ACTIVE_NOP1/1 Y
sCMD_ACT/7 #
sWRITE_6/11 P
b1000 j
#83904
0!
#87400
b1011 +
b110 9
b111 V
b1010 G
b1011 -
b1000 k
b10 H
b101 8
b1100 ,
0W
b1100 .
b111 U
b1 h
b10 D
b0 '
b0 i
1!
sNOP3/2 Y
b1 <
sCMD_ACT/7 5
sCMD_NOP/1 #
sWRITE_7/12 P
b1001 j
#90896
0!
#94392
b1100 +
b111 9
b1000 V
b1011 G
b1100 -
b1001 k
b11 H
b110 8
b1101 ,
b1101 .
b0 U
b10 h
b1 e
b11 D
b1 i
1!
sWRITE_0/3 Y
b0 <
sCMD_NOP/1 5
sIDLE/0 P
b1010 j
#97888
0!
#101384
b1101 +
b1000 9
b1001 V
b1100 G
b1101 -
b1010 k
b100 H
b111 8
b1110 ,
1W
b1110 .
b1 U
b11 h
b0 e
1X
b100 D
b1 '
b10 i
b1 f
1!
sWRITE_1/6 Y
0O
sCMD_WRITE_AP/6 #
b1011 j
#104880
0!
#108376
b1110 +
b1001 9
b1010 V
b1101 G
b1110 -
b1011 k
b101 H
b1000 8
b1111 ,
0W
b1111 .
b10 U
b100 h
b1 B
b101 D
b0 '
b11 i
b0 f
1!
sWRITE_2/7 Y
b1 <
sCMD_WRITE_AP/6 5
sCMD_NOP/1 #
b1100 j
#111872
0!
#115368
b1111 +
b1010 9
b1011 V
b1110 G
b1111 -
b1100 k
b1 A
b110 H
b1001 8
b10000 ,
b10000 .
b11 U
b101 h
b0 B
b1 e
b110 D
b100 i
1!
sWRITE_3/8 Y
b0 <
sCMD_NOP/1 5
b1101 j
#118864
0!
#122360
b10000 +
b1011 9
b1100 V
b1111 G
b10000 -
b1101 k
b0 A
b111 H
b1010 8
b10001 ,
b10001 .
b100 U
b110 h
b0 e
b111 D
b101 i
b1 f
1!
sWRITE_4/9 Y
b1110 j
#125856
0!
#129352
b10001 +
b1100 9
b1101 V
b10000 G
b10001 -
b1110 k
b0 H
b1011 8
b10010 ,
b10010 .
b101 U
b111 h
b1 B
b0 D
b110 i
b0 f
1!
sWRITE_5/10 Y
b10 E
b1111 j
#132848
0!
#136344
b10010 +
b1101 9
b1110 V
b10001 G
b10000 j
b10010 -
b1111 k
b1 A
b1 H
b1100 8
sWAS_ACTIVE_NOP1/1 ]
b10011 ,
b10011 .
b110 U
b0 h
b0 B
b1 D
b10 '
b111 i
1!
sWRITE_6/11 Y
sCMD_ACT/7 #
1[
#139840
0!
#143336
b10011 +
b1110 9
b1111 V
b10010 G
b10001 j
b10011 -
b10000 k
b0 A
b10 H
b1101 8
sNOP3/2 ]
b10100 ,
b10100 .
b111 U
b1 h
b10 D
b0 '
b0 i
1!
sWRITE_7/12 Y
b10 <
sCMD_ACT/7 5
sCMD_NOP/1 #
0[
#146832
0!
#150328
b10100 +
b1111 9
b10000 V
b10011 G
b10100 -
b10001 k
b11 H
b1110 8
sWRITE_0/3 ]
b10101 ,
b10101 .
b0 U
b10 h
b10 e
b11 D
b1 i
1!
sIDLE/0 Y
b0 <
sCMD_NOP/1 5
b10010 j
#153824
0!
#157320
b10101 +
b10000 9
b10001 V
b10100 G
1\
b10011 j
b10101 -
b10010 k
b100 H
b1111 8
sWRITE_1/6 ]
b10110 ,
b10110 .
b1 U
b11 h
b0 e
0X
b100 D
b10 '
b10 i
b10 f
1!
sCMD_WRITE_AP/6 #
1[
#160816
0!
#164312
b10110 +
b10001 9
b10010 V
b10101 G
b10100 j
b10110 -
b10011 k
b101 H
b10000 8
sWRITE_2/7 ]
b10111 ,
b10111 .
b10 U
b100 h
b10 B
b101 D
b0 '
b11 i
b0 f
1!
b10 <
sCMD_WRITE_AP/6 5
sCMD_NOP/1 #
0[
#167808
0!
#171304
b10111 +
b10010 9
b10011 V
b10110 G
b10111 -
b10100 k
b10 A
b110 H
b10001 8
sWRITE_3/8 ]
b11000 ,
b11000 .
b11 U
b101 h
b0 B
b10 e
b110 D
b100 i
1!
b0 <
sCMD_NOP/1 5
b10101 j
#174800
0!
#178296
b11000 +
b10011 9
b10100 V
b10111 G
b11000 -
b10101 k
b0 A
b111 H
b10010 8
sWRITE_4/9 ]
b11001 ,
b11001 .
b100 U
b110 h
b0 e
b111 D
b101 i
b10 f
1!
b10110 j
#181792
0!
#185288
b11001 +
b10100 9
b10101 V
b11000 G
b11001 -
b10110 k
b0 H
b10011 8
sWRITE_5/10 ]
b11010 ,
b11010 .
b101 U
b111 h
b10 B
b0 D
b110 i
b0 f
1!
b11 E
b10111 j
#188784
0!
#192280
b11010 +
b10101 9
b10110 V
b11001 G
b11010 -
b10111 k
b10 A
b1 H
b10100 8
sWRITE_6/11 ]
b11011 ,
b11011 .
b110 U
b0 h
b0 B
b1 D
b11 '
b111 i
1_
1!
sCMD_ACT/7 #
sWAS_ACTIVE_NOP1/1 a
b11000 j
#195776
0!
#199272
b11011 +
b10110 9
b10111 V
b11010 G
b11011 -
b11000 k
b0 A
b10 H
b10101 8
sWRITE_7/12 ]
b11100 ,
b11100 .
b111 U
b1 h
b10 D
b0 '
b0 i
0_
1!
b11 <
sCMD_ACT/7 5
sCMD_NOP/1 #
sNOP3/2 a
b11001 j
#202768
0!
#206264
b11100 +
b10111 9
b11000 V
b11011 G
b11100 -
b11001 k
b11 H
b10110 8
sIDLE/0 ]
b11101 ,
b11101 .
b0 U
b10 h
b11 e
b11 D
b1 i
1!
b0 <
sCMD_NOP/1 5
sWRITE_0/3 a
b11010 j
#209760
0!
#213256
b11101 +
b11000 9
b11001 V
b11100 G
0\
b11101 -
b11010 k
b100 H
b10111 8
b11110 ,
b11110 .
b1 U
b11 h
b0 e
b100 D
b11 '
b10 i
1_
b11 f
1!
1`
sCMD_WRITE_AP/6 #
sWRITE_1/6 a
b11011 j
#216752
0!
#220248
b11110 +
b11001 9
b11010 V
b11101 G
b11110 -
b11011 k
b101 H
b11000 8
b11111 ,
b11111 .
b10 U
b100 h
b11 B
b101 D
b0 '
b11 i
0_
b0 f
1!
b11 <
sCMD_WRITE_AP/6 5
sCMD_NOP/1 #
sWRITE_2/7 a
b11100 j
#223744
0!
#227240
b11111 +
b11010 9
b11011 V
b11110 G
b11111 -
b11100 k
b11 A
b110 H
b11001 8
b100000 ,
b100000 .
b11 U
b101 h
b0 B
b11 e
b110 D
b100 i
1!
b0 <
sCMD_NOP/1 5
sWRITE_3/8 a
b11101 j
#230736
0!
#234232
b100000 +
b11011 9
b11100 V
b11111 G
b100000 -
b11101 k
b0 A
b111 H
b11010 8
b100001 ,
b100001 .
b100 U
b110 h
b0 e
b111 D
b101 i
b11 f
1!
sWRITE_4/9 a
b11110 j
#237728
0!
#241224
b100001 +
b11100 9
b11101 V
b100000 G
b100001 -
b11110 k
b0 H
b11011 8
b100010 ,
b100010 .
b101 U
b111 h
b11 B
b1000 D
b110 i
b0 f
1!
b0 E
sWRITE_5/10 a
b11111 j
#244720
0!
#248216
b100010 +
b11101 9
b11110 V
b100001 G
b100010 -
b11111 k
b11 A
b1 H
b11100 8
b100011 ,
b100011 .
b110 U
b1000 h
b0 B
b1001 D
1N
b111 i
1!
sCMD_ACT/7 #
sWAS_ACTIVE_NOP1/1 P
sWRITE_6/11 a
b100000 j
#251712
0!
#255208
b100011 +
b11110 9
b11111 V
b100010 G
b100011 -
b100000 k
b0 A
b10 H
b11101 8
b100100 ,
b100100 .
b111 U
b1001 h
b1010 D
0N
b1000 i
1!
sCMD_ACT/7 5
sCMD_NOP/1 #
sNOP3/2 P
sWRITE_7/12 a
b100001 j
#258704
0!
#262200
b100100 +
b11111 9
b100000 V
b100011 G
b100100 -
b100001 k
b11 H
b11110 8
b100101 ,
b100101 .
b1010 h
b1000 U
b1011 D
b1001 i
1!
sCMD_NOP/1 5
sWRITE_0/3 P
sIDLE/0 a
b100010 j
#265696
0!
#269192
b100101 +
b100000 9
b100001 V
b100100 G
b100101 -
b100010 k
b100 H
b11111 8
b100110 ,
b1000 &
b100110 .
b1001 U
b1011 h
b1100 D
1N
b1010 i
1!
1O
0`
sCMD_WRITE_AP/6 #
sWRITE_1/6 P
b100011 j
#272688
0!
#276184
b100110 +
b100001 9
b100010 V
b100101 G
b100110 -
b100011 k
b101 H
b100000 8
b100111 ,
b0 &
b100111 .
b1010 U
b1100 h
b1101 D
0N
b1011 i
b1000 ;
1!
sCMD_WRITE_AP/6 5
sCMD_NOP/1 #
sWRITE_2/7 P
b100100 j
#279680
0!
#283176
b100111 +
b100010 9
b100011 V
b100110 G
b100111 -
b100100 k
b110 H
b100001 8
b101000 ,
b101000 .
b1011 U
b1101 h
b1110 D
b1100 i
b0 ;
1!
sCMD_NOP/1 5
b1000 c
sWRITE_3/8 P
b100101 j
#286672
0!
#290168
b101000 +
b100011 9
b100100 V
b100111 G
b101000 -
b100101 k
b111 H
b100010 8
b101001 ,
b101001 .
b1110 h
b1100 U
b1111 D
b1101 i
1!
b1000 d
b0 c
sWRITE_4/9 P
b100110 j
#293664
0!
#297160
b101001 +
b100100 9
b100101 V
b101000 G
b101001 -
b100110 k
b0 H
b100011 8
b101010 ,
b101010 .
b1101 U
b1111 h
b1000 D
b1110 i
1!
b0 d
b1 E
b1000 @
sWRITE_5/10 P
b100111 j
#300656
0!
#304152
b101010 +
b100101 9
b100110 V
b1000 ?
b101001 G
b101010 -
b100111 k
b1 H
b100100 8
b101011 ,
1W
b101011 .
b1110 U
b1000 h
b1001 D
b1 '
b1111 i
1!
sWAS_ACTIVE_NOP1/1 Y
sCMD_ACT/7 #
b0 @
sWRITE_6/11 P
b101000 j
#307648
0!
#311144
b101011 +
b100110 9
b100111 V
b0 ?
b101010 G
b101011 -
b101000 k
b10 H
b100101 8
b101100 ,
0W
b101100 .
b1111 U
b1001 h
b1010 D
b0 '
b1000 i
1!
sNOP3/2 Y
b1 <
sCMD_ACT/7 5
sCMD_NOP/1 #
sWRITE_7/12 P
b101001 j
#314640
0!
#318136
b101100 +
b100111 9
b101000 V
b101011 G
b101100 -
b101001 k
b11 H
b100110 8
b101101 ,
b101101 .
b1000 U
b1010 h
b1 e
b1011 D
b1001 i
1!
sWRITE_0/3 Y
b0 <
sCMD_NOP/1 5
sIDLE/0 P
b101010 j
#321632
0!
#325128
b101101 +
b101000 9
b101001 V
b101100 G
b101101 -
b101010 k
b100 H
b100111 8
b101110 ,
1W
b1000 &
b101110 .
b1001 U
b1011 h
b0 e
1X
b1100 D
b1 '
b1010 i
b1 f
1!
sWRITE_1/6 Y
0O
sCMD_WRITE_AP/6 #
b101011 j
#328624
0!
#332120
b101110 +
b101001 9
b101010 V
b101101 G
b101110 -
b101011 k
b101 H
b101000 8
b101111 ,
0W
b0 &
b101111 .
b1010 U
b1100 h
b1 B
b1101 D
b0 '
b1011 i
b1000 ;
b0 f
1!
sWRITE_2/7 Y
b1 <
sCMD_WRITE_AP/6 5
sCMD_NOP/1 #
b101100 j
#335616
0!
#339112
b101111 +
b101010 9
b101011 V
b101110 G
b101111 -
b101100 k
b1 A
b110 H
b101001 8
b110000 ,
b1101 h
b1011 U
b110000 .
b1 e
b0 B
b1110 D
b1100 i
b0 ;
1!
sWRITE_3/8 Y
b0 <
sCMD_NOP/1 5
b1000 c
b101101 j
#342608
0!
#346104
b110000 +
b101011 9
b101100 V
b101111 G
b110000 -
b101101 k
b0 A
b111 H
b101010 8
b110001 ,
b1110 h
b1100 U
b110001 .
b0 e
b1111 D
b1101 i
b1 f
1!
sWRITE_4/9 Y
b1000 d
b0 c
b101110 j
#349600
0!
#353096
b110001 +
b101100 9
b101101 V
b110000 G
b110001 -
b101110 k
b0 H
b101011 8
b110010 ,
b1111 h
b1101 U
b110010 .
b1 B
b1000 D
b1110 i
b0 f
1!
sWRITE_5/10 Y
b0 d
b10 E
b1000 @
b101111 j
#356592
0!
#360088
b110010 +
b101101 9
b101110 V
b1000 ?
b110001 G
b110000 j
b110010 -
b101111 k
b1 A
b1 H
b101100 8
sWAS_ACTIVE_NOP1/1 ]
b110011 ,
b110011 .
b1110 U
b1000 h
b0 B
b1001 D
b10 '
b1111 i
1!
sWRITE_6/11 Y
sCMD_ACT/7 #
b0 @
1[
#363584
0!
#367080
b110011 +
b101110 9
b101111 V
b0 ?
b110010 G
b110001 j
b110011 -
b110000 k
b0 A
b10 H
b101101 8
sNOP3/2 ]
b110100 ,
b110100 .
b1111 U
b1001 h
b1010 D
b0 '
b1000 i
1!
sWRITE_7/12 Y
b10 <
sCMD_ACT/7 5
sCMD_NOP/1 #
0[
#370576
0!
#374072
b110100 +
b101111 9
b110000 V
b110011 G
b110100 -
b110001 k
b11 H
b101110 8
sWRITE_0/3 ]
b110101 ,
b110101 .
b1000 U
b1010 h
b10 e
b1011 D
b1001 i
1!
sIDLE/0 Y
b0 <
sCMD_NOP/1 5
b110010 j
#377568
0!
#381064
b110101 +
b110000 9
b110001 V
b110100 G
1\
b110011 j
b110101 -
b110010 k
b100 H
b101111 8
sWRITE_1/6 ]
b110110 ,
b1000 &
b110110 .
b1001 U
b1011 h
b0 e
0X
b1100 D
b10 '
b1010 i
b10 f
1!
sCMD_WRITE_AP/6 #
1[
#384560
0!
#388056
b110110 +
b110001 9
b110010 V
b110101 G
b110100 j
b110110 -
b110011 k
b101 H
b110000 8
sWRITE_2/7 ]
b110111 ,
b0 &
b110111 .
b1010 U
b1100 h
b10 B
b1101 D
b0 '
b1011 i
b1000 ;
b0 f
1!
b10 <
sCMD_WRITE_AP/6 5
sCMD_NOP/1 #
0[
#391552
0!
#395048
b110111 +
b110010 9
b110011 V
b110110 G
b110111 -
b110100 k
b10 A
b110 H
b110001 8
sWRITE_3/8 ]
b111000 ,
b1101 h
b1011 U
b111000 .
b10 e
b0 B
b1110 D
b1100 i
b0 ;
1!
b0 <
sCMD_NOP/1 5
b1000 c
b110101 j
#398544
0!
#402040
b111000 +
b110011 9
b110100 V
b110111 G
b111000 -
b110101 k
b0 A
b111 H
b110010 8
sWRITE_4/9 ]
b111001 ,
b1110 h
b1100 U
b111001 .
b0 e
b1111 D
b1101 i
b10 f
1!
b1000 d
b0 c
b110110 j
#405536
0!
#409032
b111001 +
b110100 9
b110101 V
b111000 G
b111001 -
b110110 k
b0 H
b110011 8
sWRITE_5/10 ]
b111010 ,
b1111 h
b1101 U
b111010 .
b10 B
b1000 D
b1110 i
b0 f
1!
b0 d
b11 E
b1000 @
b110111 j
#412528
0!
#416024
b111010 +
b110101 9
b110110 V
b1000 ?
b111001 G
b111010 -
b110111 k
b10 A
b1 H
b110100 8
sWRITE_6/11 ]
b111011 ,
b111011 .
b1110 U
b1000 h
b0 B
b1001 D
b11 '
b1111 i
1_
1!
sCMD_ACT/7 #
b0 @
sWAS_ACTIVE_NOP1/1 a
b111000 j
#419520
0!
#423016
b111011 +
b110110 9
b110111 V
b0 ?
b111010 G
b111011 -
b111000 k
b0 A
b10 H
b110101 8
sWRITE_7/12 ]
b111100 ,
b111100 .
b1111 U
b1001 h
b1010 D
b0 '
b1000 i
0_
1!
b11 <
sCMD_ACT/7 5
sCMD_NOP/1 #
sNOP3/2 a
b111001 j
#426512
0!
#430008
b111100 +
b110111 9
b111000 V
b111011 G
b111100 -
b111001 k
b11 H
b110110 8
sIDLE/0 ]
b111101 ,
b111101 .
b1000 U
b1010 h
b11 e
b1011 D
b1001 i
1!
b0 <
sCMD_NOP/1 5
sWRITE_0/3 a
b111010 j
#433504
0!
#437000
b111101 +
b111000 9
b111001 V
b111100 G
0\
b111101 -
b111010 k
b100 H
b110111 8
b111110 ,
b1000 &
b111110 .
b1001 U
b1011 h
b0 e
b1100 D
b11 '
b1010 i
1_
b11 f
1!
1`
sCMD_WRITE_AP/6 #
sWRITE_1/6 a
b111011 j
#440496
0!
#443992
b111110 +
b111001 9
b111010 V
b111101 G
b111110 -
b111011 k
b101 H
b111000 8
b111111 ,
b0 &
b111111 .
b1010 U
b1100 h
b11 B
b1101 D
b0 '
b1011 i
b1000 ;
0_
b0 f
1!
b11 <
sCMD_WRITE_AP/6 5
sCMD_NOP/1 #
sWRITE_2/7 a
b111100 j
#447488
0!
#450984
b111111 +
b111010 9
b111011 V
b111110 G
b111111 -
b111100 k
b11 A
b110 H
b111001 8
b1101 h
b1011 U
b11 e
b0 B
b1110 D
b1100 i
b0 ;
1!
b0 <
sCMD_NOP/1 5
b1000 c
sWRITE_3/8 a
b111101 j
#454480
0!
#457976
b111011 9
b111100 V
b111111 G
b111101 k
b0 A
b111 H
b111010 8
b1110 h
b1100 U
b0 e
b1111 D
b1101 i
b11 f
1!
b1000 d
b0 c
sWRITE_4/9 a
b111110 j
#461472
0!
#464968
b111100 9
b111101 V
b1110 i
b0 f
1!
b0 d
b111110 k
b111011 8
b1000 @
sWRITE_5/10 a
b1111 h
b1101 U
b11 B
b111111 j
#468464
0!
#471960
b111101 9
b111110 V
b1111 i
b1000 ?
1!
b111111 k
b11 A
b111100 8
b0 @
sWRITE_6/11 a
b1110 U
b0 B
#475456
0!
#478952
b111110 9
b111111 V
b0 ?
1!
b0 A
b111101 8
sWRITE_7/12 a
b1111 U
#482448
0!
#485944
b111110 8
b111111 9
sIDLE/0 a
1!
#489440
0!
#492936
b111111 8
1%
0`
1!
#496432
0!
#499928
17
1!
#503424
0!
#506920
1!
#510416
0!
#513912
1!
#517408
0!
#520904
b0 ,
sRW_READ/1 *
1!
#524400
0!
#527896
b0 +
b1 ,
sRW_READ/1 )
1!
#531392
0!
#534888
b1 +
b0 D
b10 ,
1!
b0 E
sRW_READ/1 Q
b0 H
#538384
0!
#541880
b10 +
b1 D
1N
1!
b1 H
sRW_READ/1 g
b11 ,
sCMD_ACT/7 #
sWAS_ACTIVE_NOP1/1 P
b0 h
#545376
0!
#548872
b11 +
b10 D
0N
b0 i
sRW_READ/1 T
1!
b10 H
sCMD_ACT/7 5
b100 ,
sCMD_NOP/1 #
sNOP3/2 P
b1 h
#552368
0!
#555864
b100 +
b11 D
b1 i
1!
b11 H
sCMD_NOP/1 5
b101 ,
sREAD_-3/4 P
b10 h
b0 U
#559360
0!
#562856
b101 +
b100 D
1N
b10 i
1!
0%
b100 H
b110 ,
sCMD_READ_AP/4 #
sREAD_-2/13 P
b11 h
b1 U
#566352
0!
#569848
b110 +
b101 D
0N
b11 i
07
1!
b101 H
sCMD_READ_AP/4 5
b111 ,
sCMD_NOP/1 #
sREAD_-1/14 P
b100 h
b10 U
#573344
0!
#576840
b111 +
b110 D
b100 i
1!
b110 H
sCMD_NOP/1 5
b1000 ,
sREAD_0/15 P
b101 h
b11 U
b1011111010101101 >
#580336
0!
#583832
b1000 +
b111 D
b101 i
1!
1(
b111 H
b1001 ,
sREAD_1/16 P
b1011111010101101 =
b110 h
b100 U
#587328
0!
#590824
b1001 +
b0 D
b110 i
1!
b1 E
b0 H
b1010 ,
sREAD_2/17 P
b111 h
1:
b101 U
b0 >
#594320
0!
#597816
b1010 +
b1 D
b1 '
b111 i
1!
sWAS_ACTIVE_NOP1/1 Y
b1 H
b1011 ,
sCMD_ACT/7 #
1C
sREAD_3/18 P
b0 =
b0 h
b110 U
1W
b1 >
#601312
0!
#604808
b1011 +
b10 H
b1100 ,
0W
b1 h
b111 U
b10 D
b0 '
b0 i
1!
sNOP3/2 Y
b1 <
sCMD_ACT/7 5
sCMD_NOP/1 #
sREAD_4/19 P
b1 =
b10 >
#608304
0!
#611800
b1100 +
b11 D
b1 i
1!
sREAD_-3/4 Y
b0 <
b11 H
sCMD_NOP/1 5
b1101 ,
sREAD_5/20 P
b10 =
b10 h
b0 U
b1 e
b11 >
#615296
0!
#618792
b1101 +
b100 H
b1110 ,
1W
b11 h
b1 U
b0 e
b100 D
b1 '
b10 i
b1 f
1!
sREAD_-2/13 Y
sCMD_READ_AP/4 #
sREAD_6/21 P
b11 =
b100 >
#622288
0!
#625784
b1110 +
b101 H
b1111 ,
0W
b100 h
b10 U
b1 B
b101 D
b0 '
b11 i
b0 f
1!
sREAD_-1/14 Y
b1 <
sCMD_READ_AP/4 5
sCMD_NOP/1 #
sREAD_7/22 P
b100 =
b101 >
#629280
0!
#632776
b1111 +
b1 A
b110 H
b10000 ,
b101 h
b11 U
b0 B
b1 e
b110 D
b100 i
1!
sREAD_0/15 Y
b0 <
sCMD_NOP/1 5
sIDLE/0 P
b101 =
b110 >
#636272
0!
#639768
b10000 +
b111 D
b101 i
b1 f
1!
sREAD_1/16 Y
b0 A
b111 H
b10001 ,
b110 =
b110 h
b100 U
b0 e
b111 >
#643264
0!
#646760
b10001 +
b0 D
b110 i
b0 f
1!
sREAD_2/17 Y
b10 E
b0 H
b10010 ,
b111 =
b111 h
b101 U
b1 B
b1000 >
#650256
0!
#653752
b10010 +
b1 A
b1 H
sWAS_ACTIVE_NOP1/1 ]
b10011 ,
b0 h
b110 U
b0 B
b1 D
b10 '
b111 i
1!
sREAD_3/18 Y
sCMD_ACT/7 #
b1000 =
1[
b1001 >
#657248
0!
#660744
b10011 +
b0 A
b10 H
sNOP3/2 ]
b10100 ,
b1 h
b111 U
b10 D
b0 '
b0 i
1!
sREAD_4/19 Y
b10 <
sCMD_ACT/7 5
sCMD_NOP/1 #
b1001 =
0[
b1010 >
#664240
0!
#667736
b10100 +
b11 D
b1 i
1!
sREAD_5/20 Y
b0 <
b11 H
sREAD_-3/4 ]
sCMD_NOP/1 5
b10101 ,
b1010 =
b10 h
b0 U
b10 e
b1011 >
#671232
0!
#674728
b10101 +
b100 H
sREAD_-2/13 ]
b10110 ,
b11 h
b1 U
b0 e
b100 D
b10 '
b10 i
b10 f
1!
sREAD_6/21 Y
sCMD_READ_AP/4 #
b1011 =
1[
b1100 >
#678224
0!
#681720
b10110 +
b101 H
sREAD_-1/14 ]
b10111 ,
b100 h
b10 U
b10 B
b101 D
b0 '
b11 i
b0 f
1!
sREAD_7/22 Y
b10 <
sCMD_READ_AP/4 5
sCMD_NOP/1 #
b1100 =
0[
b1101 >
#685216
0!
#688712
b10111 +
b10 A
b110 H
sREAD_0/15 ]
b11000 ,
b101 h
b11 U
b0 B
b10 e
b110 D
b100 i
1!
sIDLE/0 Y
b0 <
sCMD_NOP/1 5
b1101 =
b1110 >
#692208
0!
#695704
b11000 +
b111 D
b101 i
b10 f
1!
b0 A
b111 H
sREAD_1/16 ]
b11001 ,
b1110 =
b110 h
b100 U
b0 e
b1111 >
#699200
0!
#702696
b11001 +
b0 D
b110 i
b0 f
1!
b11 E
b0 H
sREAD_2/17 ]
b11010 ,
b1111 =
b111 h
b101 U
b10 B
b10000 >
#706192
0!
#709688
b11010 +
b10 A
b1 H
sREAD_3/18 ]
b11011 ,
b0 h
b110 U
b0 B
b1 D
b11 '
b111 i
1_
1!
b10000 =
sCMD_ACT/7 #
sWAS_ACTIVE_NOP1/1 a
b10001 >
#713184
0!
