amaram/sdram_n_fifo_interface/controller_readwrite_readwriteCtrl_sim_thatWritingThenReadingBack_readsCorrectValues.vcd
$comment Generated by Amaranth $end
$date 2022-03-21 12:10:05.425724 $end
$timescale 1 ps $end
$scope module bench $end
$scope module top $end
$var wire 1 ! clk $end
$var wire 1 " rst $end
$var string 1 # _pin_ui__cmd $end
$var wire 1 $ _pin_ui__clk_en $end
$var wire 1 % _pin_ui__dqm $end
$var wire 13 & _pin_ui__rw_copi__a $end
$var wire 2 ' _pin_ui__rw_copi__ba $end
$var wire 1 ( _pin_ui__rw_copi__read_active $end
$var string 1 ) _ui__rw_copi__task $end
$var string 1 * ui__rw_copi__task $end
$var wire 22 + _ui__rw_copi__addr $end
$var wire 22 , ui__rw_copi__addr $end
$var wire 16 - _ui__rw_copi__w_data $end
$var wire 16 . ui__rw_copi__w_data $end
$var wire 1 / ui__r_cipo__read_active $end
$var wire 1 0 _ui__r_cipo__read_active $end
$var wire 22 1 ui__r_cipo__addr $end
$var wire 22 2 _ui__r_cipo__addr $end
$var wire 16 3 ui__r_cipo__r_data $end
$var wire 16 4 _ui__r_cipo__r_data $end
$var string 1 5 pin_ui__cmd $end
$var wire 1 6 pin_ui__clk_en $end
$var wire 1 7 pin_ui__dqm $end
$var wire 16 8 pin_ui__rw_copi__dq $end
$var wire 16 9 _pin_ui__rw_copi__dq $end
$var wire 1 : pin_ui__rw_copi__read_active $end
$var wire 13 ; pin_ui__rw_copi__a $end
$var wire 2 < pin_ui__rw_copi__ba $end
$var wire 22 = pin_ui__rw_copi__addr $end
$var wire 22 > _pin_ui__rw_copi__addr $end
$var wire 16 ? _pin_ui__rw_cipo__dq $end
$var wire 16 @ pin_ui__rw_cipo__dq $end
$var wire 22 A _pin_ui__rw_cipo__addr $end
$var wire 22 B $sample$s$pin_ui__rw_cipo__addr$sync$3 $end
$var wire 1 C _pin_ui__rw_cipo__read_active $end
$var wire 1 D pin_ui__rw_cipo__read_active $end
$var wire 9 E col $end
$var wire 2 F bank $end
$var wire 11 G row $end
$var wire 16 H data $end
$var wire 3 I burst_index $end
$var wire 1 J adding_to_readback_bus $end
$var wire 1 K readback_bus $end
$var wire 1 L readback_bus$1 $end
$var wire 1 M readback_bus$2 $end
$var wire 1 N readback_bus$3 $end
$var wire 1 O cmd_and_addr_bus $end
$var wire 1 P data_bus $end
$var string 1 Q rw_bank_0_fsm_state $end
$var string 1 R $sample$s$_ui__rw_copi__task$sync$1 $end
$var wire 1 S $sample$c$0$sync$1 $end
$var wire 11 T $sample$s$row$sync$1 $end
$var string 1 U $sample$s$_ui__rw_copi__task$sync$3 $end
$var wire 9 V $sample$s$col$sync$3 $end
$var wire 16 W $sample$s$data$sync$3 $end
$var wire 22 X $sample$s$_ui__rw_copi__addr$sync$4 $end
$var wire 1 Y cmd_and_addr_bus$1 $end
$var wire 1 Z data_bus$1 $end
$var string 1 [ rw_bank_1_fsm_state $end
$var wire 1 \ $sample$c$1$sync$1 $end
$var wire 1 ] cmd_and_addr_bus$2 $end
$var wire 1 ^ data_bus$2 $end
$var string 1 _ rw_bank_2_fsm_state $end
$var wire 2 ` $sample$c$2$sync$1 $end
$var wire 1 a cmd_and_addr_bus$3 $end
$var wire 1 b data_bus$3 $end
$var string 1 c rw_bank_3_fsm_state $end
$var wire 2 d $sample$c$3$sync$1 $end
$var wire 22 e $sample$s$pin_ui__rw_cipo__addr$sync$1 $end
$var wire 22 f pin_ui__rw_cipo__addr $end
$var wire 22 g $sample$s$pin_ui__rw_cipo__addr$sync$2 $end
$var string 1 h $sample$s$_ui__rw_copi__task$sync$2 $end
$var wire 9 i $sample$s$col$sync$1 $end
$var wire 9 j $sample$s$col$sync$2 $end
$var wire 16 k $sample$s$data$sync$1 $end
$var wire 16 l $sample$s$data$sync$2 $end
$var wire 22 m $sample$s$_ui__rw_copi__addr$sync$1 $end
$var wire 22 n $sample$s$_ui__rw_copi__addr$sync$2 $end
$var wire 22 o $sample$s$_ui__rw_copi__addr$sync$3 $end
$upscope $end
$upscope $end
$enddefinitions $end
#0
$dumpvars
0!
0"
sCMD_DESL/0 #
0$
0%
b0 &
b0 '
0(
sRW_IDLE/0 )
sRW_IDLE/0 *
b0 +
b0 ,
b0 -
b0 .
0/
00
b0 1
b0 2
b0 3
b0 4
sCMD_DESL/0 5
06
07
b0 8
b0 9
0:
b0 ;
b0 <
b0 =
b0 >
b0 ?
b0 @
b0 A
b0 B
0C
0D
b0 E
b0 F
b0 G
b0 H
b0 I
0J
0K
0L
0M
0N
0O
0P
sIDLE/0 Q
sRW_IDLE/0 R
0S
b0 T
sRW_IDLE/0 U
b0 V
b0 W
b0 X
0Y
0Z
sIDLE/0 [
1\
0]
0^
sIDLE/0 _
b10 `
0a
0b
sIDLE/0 c
b11 d
b0 e
b0 f
b0 g
sRW_IDLE/0 h
b0 i
b0 j
b0 k
b0 l
b0 m
b0 n
b0 o
$end
#3496
1$
sRW_WRITE/2 *
sCMD_NOP/1 #
1!
1%
#6992
0!
#10488
sCMD_NOP/1 5
b1 .
17
sRW_WRITE/2 )
b1 ,
1!
16
#13984
0!
#17480
b10 ,
b1 -
sRW_WRITE/2 R
1!
b1 +
b10 .
#20976
0!
#24472
b1 H
b10 +
b1 E
b10 -
1!
b1 I
sRW_WRITE/2 h
sWAS_ACTIVE_NOP1/1 Q
b1 m
sCMD_ACT/7 #
b11 ,
1O
b11 .
#27968
0!
#31464
b10 H
b1 k
1!
b10 I
sCMD_ACT/7 5
sCMD_NOP/1 #
b1 n
b100 ,
0O
b11 +
b100 .
b10 E
b11 -
b1 i
sNOP3/2 Q
b10 m
sRW_WRITE/2 U
#34960
0!
#38456
b11 H
b10 k
1!
b1 j
b11 I
b1 l
sCMD_NOP/1 5
b10 n
b101 ,
b100 +
b101 .
b11 E
b100 -
b10 i
sWRITE_0/3 Q
b11 m
b1 o
#41952
0!
#45448
b100 H
b11 k
b1 W
1!
b10 j
b100 I
b10 l
b1 X
sCMD_WRITE_AP/6 #
b11 n
b110 ,
b101 +
b110 .
1O
b100 E
b101 -
1P
b11 i
0%
b10 o
sWRITE_1/6 Q
b100 m
b1 V
#48944
0!
#52440
b101 H
b100 k
b10 W
1!
b11 j
b101 I
b11 l
sCMD_WRITE_AP/6 5
b10 X
sCMD_NOP/1 #
b100 n
b111 ,
b110 +
b111 .
0O
b101 E
07
b110 -
b100 i
b10 V
b11 o
sWRITE_2/7 Q
b101 m
b1 9
#55936
0!
#59432
b110 H
b101 k
b11 W
1!
b100 j
b110 I
b100 l
sCMD_NOP/1 5
b11 X
b101 n
b1000 ,
b111 +
b1000 .
b110 E
b111 -
b101 i
b1 8
b11 V
b100 o
sWRITE_3/8 Q
b110 m
b10 9
#62928
0!
#66424
b111 H
b110 k
b100 W
1!
b101 j
b111 I
b101 l
b100 X
b110 n
b1001 ,
b1000 +
b1001 .
b111 E
b1000 -
b110 i
b10 8
b100 V
b101 o
sWRITE_4/9 Q
b111 m
b11 9
#69920
0!
#73416
b1000 H
b111 k
b101 W
1!
b110 j
b0 I
b110 l
b101 X
b111 n
b1010 ,
b1001 +
b1010 .
b0 E
b1001 -
b111 i
b1 F
b11 8
b101 V
b110 o
sWRITE_5/10 Q
b1000 m
b100 9
#76912
0!
#80408
b1 '
b1001 H
b1000 k
b110 W
1!
b111 j
b1 I
b111 l
b110 X
sCMD_ACT/7 #
b1000 n
b1011 ,
1Y
b1010 +
b1011 .
b1 E
b1010 -
b0 i
b100 8
sWAS_ACTIVE_NOP1/1 [
b110 V
b111 o
sWRITE_6/11 Q
b1001 m
b101 9
#83904
0!
#87400
b0 '
b1010 H
b1001 k
b111 W
1!
b0 j
b10 I
b1 <
b1000 l
sCMD_ACT/7 5
b111 X
sCMD_NOP/1 #
b1001 n
b1100 ,
0Y
b1011 +
b1100 .
b10 E
b1011 -
b1 i
b101 8
sNOP3/2 [
b111 V
b1000 o
sWRITE_7/12 Q
b1010 m
b110 9
#90896
0!
#94392
b1011 H
b1010 k
b1000 W
1!
b1 j
b11 I
b0 <
b1001 l
sCMD_NOP/1 5
b1000 X
b1010 n
b1101 ,
b1100 +
b1101 .
b11 E
b1100 -
b10 i
b110 8
sWRITE_0/3 [
b0 V
b1001 o
sIDLE/0 Q
b1011 m
b111 9
#97888
0!
#101384
b1 '
b1100 H
b1011 k
b1001 W
1!
b10 j
b100 I
b1010 l
b1001 X
sCMD_WRITE_AP/6 #
b1011 n
b1110 ,
1Y
b1101 +
b1110 .
b100 E
1Z
b1101 -
0P
b11 i
b111 8
sWRITE_1/6 [
b1 V
b1010 o
b1100 m
b1000 9
#104880
0!
#108376
b0 '
b1101 H
b1100 k
b1010 W
1!
b11 j
b101 I
b1 <
b1011 l
sCMD_WRITE_AP/6 5
b1010 X
sCMD_NOP/1 #
b1100 n
b1111 ,
0Y
b1110 +
b1111 .
b101 E
b1110 -
b100 i
b1000 8
sWRITE_2/7 [
b10 V
b1011 o
b1101 m
b1001 9
#111872
0!
#115368
b1110 H
b1101 k
b1011 W
1!
b100 j
b110 I
b0 <
b1100 l
sCMD_NOP/1 5
b1011 X
b1101 n
b10000 ,
b1111 +
b10000 .
b110 E
b1111 -
b101 i
b1001 8
sWRITE_3/8 [
b11 V
b1100 o
b1110 m
b1010 9
#118864
0!
#122360
b1111 H
b1110 k
b1100 W
1!
b101 j
b111 I
b1101 l
b1100 X
b1110 n
b10001 ,
b10000 +
b10001 .
b111 E
b10000 -
b110 i
b1010 8
sWRITE_4/9 [
b100 V
b1101 o
b1111 m
b1011 9
#125856
0!
#129352
b10000 H
b1111 k
b1101 W
1!
b110 j
b0 I
b1110 l
b1101 X
b1111 n
b10010 ,
b10001 +
b10010 .
b0 E
b10001 -
b111 i
b10 F
b1011 8
sWRITE_5/10 [
b101 V
b1110 o
b10000 m
b1100 9
#132848
0!
#136344
b10 '
b10001 H
1]
b10000 k
b1110 W
1!
b111 j
b1 I
b1111 l
b1110 X
sWAS_ACTIVE_NOP1/1 _
sCMD_ACT/7 #
b10000 n
b10011 ,
b10010 +
b10011 .
b1 E
b10010 -
b0 i
b1100 8
sWRITE_6/11 [
b110 V
b1111 o
b10001 m
b1101 9
#139840
0!
#143336
b0 '
b10010 H
0]
b10001 k
b1111 W
1!
b0 j
b10 I
b10 <
b10000 l
sCMD_ACT/7 5
b1111 X
sNOP3/2 _
sCMD_NOP/1 #
b10001 n
b10100 ,
b10011 +
b10100 .
b10 E
b10011 -
b1 i
b1101 8
sWRITE_7/12 [
b111 V
b10000 o
b10010 m
b1110 9
#146832
0!
#150328
b10011 H
b10010 k
b10000 W
1!
b1 j
b11 I
b0 <
b10001 l
sCMD_NOP/1 5
b10000 X
sWRITE_0/3 _
b10010 n
b10101 ,
b10100 +
b10101 .
b11 E
b10100 -
b10 i
b1110 8
sIDLE/0 [
b0 V
b10001 o
b10011 m
b1111 9
#153824
0!
#157320
b10 '
b10100 H
1]
b10011 k
b10001 W
1!
b10 j
b100 I
1^
b10010 l
b10001 X
sWRITE_1/6 _
sCMD_WRITE_AP/6 #
b10011 n
b10110 ,
b10101 +
b10110 .
b100 E
0Z
b10101 -
b11 i
b1111 8
b1 V
b10010 o
b10100 m
b10000 9
#160816
0!
#164312
b0 '
b10101 H
0]
b10100 k
b10010 W
1!
b11 j
b101 I
b10 <
b10011 l
sCMD_WRITE_AP/6 5
b10010 X
sWRITE_2/7 _
sCMD_NOP/1 #
b10100 n
b10111 ,
b10110 +
b10111 .
b101 E
b10110 -
b100 i
b10000 8
b10 V
b10011 o
b10101 m
b10001 9
#167808
0!
#171304
b10110 H
b10101 k
b10011 W
1!
b100 j
b110 I
b0 <
b10100 l
sCMD_NOP/1 5
b10011 X
sWRITE_3/8 _
b10101 n
b11000 ,
b10111 +
b11000 .
b110 E
b10111 -
b101 i
b10001 8
b11 V
b10100 o
b10110 m
b10010 9
#174800
0!
#178296
b10111 H
b10110 k
b10100 W
1!
b101 j
b111 I
b10101 l
b10100 X
sWRITE_4/9 _
b10110 n
b11001 ,
b11000 +
b11001 .
b111 E
b11000 -
b110 i
b10010 8
b100 V
b10101 o
b10111 m
b10011 9
#181792
0!
#185288
b11000 H
b10111 k
b10101 W
1!
b110 j
b0 I
b10110 l
b10101 X
sWRITE_5/10 _
b10111 n
b11010 ,
b11001 +
b11010 .
b0 E
b11001 -
b111 i
b11 F
b10011 8
b101 V
b10110 o
b11000 m
b10100 9
#188784
0!
#192280
b11 '
b11001 H
b11000 k
sWAS_ACTIVE_NOP1/1 c
b10110 W
1!
b111 j
b1 I
b10111 l
b10110 X
sWRITE_6/11 _
sCMD_ACT/7 #
b11000 n
b11011 ,
b11010 +
b11011 .
b1 E
b11010 -
b0 i
1a
b10100 8
b110 V
b10111 o
b11001 m
b10101 9
#195776
0!
#199272
b0 '
b11010 H
b11001 k
sNOP3/2 c
b10111 W
1!
b0 j
b10 I
b11 <
b11000 l
sCMD_ACT/7 5
b10111 X
sWRITE_7/12 _
sCMD_NOP/1 #
b11001 n
b11100 ,
b11011 +
b11100 .
b10 E
b11011 -
b1 i
0a
b10101 8
b111 V
b11000 o
b11010 m
b10110 9
#202768
0!
#206264
b11011 H
b11010 k
sWRITE_0/3 c
b11000 W
1!
b1 j
b11 I
b0 <
b11001 l
sCMD_NOP/1 5
b11000 X
sIDLE/0 _
b11010 n
b11101 ,
b11100 +
b11101 .
b11 E
b11100 -
b10 i
b10110 8
b0 V
b11001 o
b11011 m
b10111 9
#209760
0!
#213256
b11 '
b11100 H
b11011 k
sWRITE_1/6 c
b11001 W
1!
b10 j
b100 I
0^
b11010 l
b11001 X
sCMD_WRITE_AP/6 #
b11011 n
b11110 ,
b11101 +
b11110 .
b100 E
b11101 -
b11 i
1a
b10111 8
b1 V
b11010 o
1b
b11100 m
b11000 9
#216752
0!
#220248
b0 '
b11101 H
b11100 k
sWRITE_2/7 c
b11010 W
1!
b11 j
b101 I
b11 <
b11011 l
sCMD_WRITE_AP/6 5
b11010 X
sCMD_NOP/1 #
b11100 n
b11111 ,
b11110 +
b11111 .
b101 E
b11110 -
b100 i
0a
b11000 8
b10 V
b11011 o
b11101 m
b11001 9
#223744
0!
#227240
b11110 H
b11101 k
sWRITE_3/8 c
b11011 W
1!
b100 j
b110 I
b0 <
b11100 l
sCMD_NOP/1 5
b11011 X
b11101 n
b100000 ,
b11111 +
b100000 .
b110 E
b11111 -
b101 i
b11001 8
b11 V
b11100 o
b11110 m
b11010 9
#230736
0!
#234232
b11111 H
b11110 k
sWRITE_4/9 c
b11100 W
1!
b101 j
b111 I
b11101 l
b11100 X
b11110 n
b100001 ,
b100000 +
b100001 .
b111 E
b100000 -
b110 i
b11010 8
b100 V
b11101 o
b11111 m
b11011 9
#237728
0!
#241224
b100000 H
b11111 k
sWRITE_5/10 c
b11101 W
1!
b110 j
b0 I
b11110 l
b11101 X
b11111 n
b100010 ,
b100001 +
b100010 .
b1000 E
b100001 -
b111 i
b0 F
b11011 8
b101 V
b11110 o
b100000 m
b11100 9
#244720
0!
#248216
b100001 H
b100000 k
sWRITE_6/11 c
b11110 W
1!
b111 j
b1 I
b11111 l
b11110 X
sCMD_ACT/7 #
b100000 n
b100011 ,
b100010 +
b100011 .
1O
b1001 E
b100010 -
b1000 i
b11100 8
b110 V
b11111 o
sWAS_ACTIVE_NOP1/1 Q
b100001 m
b11101 9
#251712
0!
#255208
b100010 H
b100001 k
sWRITE_7/12 c
b11111 W
1!
b1000 j
b10 I
b100000 l
sCMD_ACT/7 5
b11111 X
sCMD_NOP/1 #
b100001 n
b100100 ,
b100011 +
b100100 .
0O
b1010 E
b100011 -
b1001 i
b11101 8
b111 V
b100000 o
sNOP3/2 Q
b100010 m
b11110 9
#258704
0!
#262200
b100011 H
b100010 k
sIDLE/0 c
b100000 W
1!
b1001 j
b11 I
b100001 l
sCMD_NOP/1 5
b100000 X
b100010 n
b100101 ,
b100100 +
b100101 .
b1011 E
b100100 -
b1010 i
b11110 8
b1000 V
b100001 o
sWRITE_0/3 Q
b100011 m
b11111 9
#265696
0!
#269192
b100100 H
b100011 k
b100001 W
1!
b1010 j
b100 I
b100010 l
b100001 X
sCMD_WRITE_AP/6 #
b100011 n
b100110 ,
b100101 +
b100110 .
1O
b1100 E
b100101 -
1P
b1011 i
b11111 8
b1001 V
b100010 o
sWRITE_1/6 Q
0b
b1000 &
b100100 m
b100000 9
#272688
0!
#276184
b100101 H
b1000 ;
b100100 k
b100010 W
1!
b1011 j
b101 I
b100011 l
sCMD_WRITE_AP/6 5
b100010 X
sCMD_NOP/1 #
b100100 n
b100111 ,
b100110 +
b100111 .
0O
b1101 E
b100110 -
b1100 i
b100000 8
b1010 V
b100011 o
sWRITE_2/7 Q
b0 &
b100101 m
b100001 9
#279680
0!
#283176
b100110 H
b0 ;
b100101 k
b100011 W
1!
b1100 j
b110 I
b100100 l
sCMD_NOP/1 5
b100011 X
b100101 n
b101000 ,
b100111 +
b101000 .
b1110 E
b100111 -
b1101 i
b100001 8
b1011 V
b100100 o
sWRITE_3/8 Q
b100110 m
b100010 9
#286672
0!
#290168
b100111 H
b100110 k
b100100 W
1!
b1101 j
b111 I
b100101 l
b100100 X
b100110 n
b101001 ,
b101000 +
b101001 .
b1111 E
b101000 -
b1110 i
b100010 8
b1100 V
b100101 o
sWRITE_4/9 Q
b100111 m
b100011 9
#293664
0!
#297160
b101000 H
b100111 k
b100101 W
1!
b1110 j
b0 I
b100110 l
b100101 X
b100111 n
b101010 ,
b101001 +
b101010 .
b1000 E
b101001 -
b1111 i
b1 F
b100011 8
b1101 V
b100110 o
sWRITE_5/10 Q
b101000 m
b100100 9
#300656
0!
#304152
b1 '
b101001 H
b101000 k
b100110 W
1!
b1111 j
b1 I
b100111 l
b100110 X
sCMD_ACT/7 #
b101000 n
b101011 ,
1Y
b101010 +
b101011 .
b1001 E
b101010 -
b1000 i
b100100 8
sWAS_ACTIVE_NOP1/1 [
b1110 V
b100111 o
sWRITE_6/11 Q
b101001 m
b100101 9
#307648
0!
#311144
b0 '
b101010 H
b101001 k
b100111 W
1!
b1000 j
b10 I
b1 <
b101000 l
sCMD_ACT/7 5
b100111 X
sCMD_NOP/1 #
b101001 n
b101100 ,
0Y
b101011 +
b101100 .
b1010 E
b101011 -
b1001 i
b100101 8
sNOP3/2 [
b1111 V
b101000 o
sWRITE_7/12 Q
b101010 m
b100110 9
#314640
0!
#318136
b101011 H
b101010 k
b101000 W
1!
b1001 j
b11 I
b0 <
b101001 l
sCMD_NOP/1 5
b101000 X
b101010 n
b101101 ,
b101100 +
b101101 .
b1011 E
b101100 -
b1010 i
b100110 8
sWRITE_0/3 [
b1000 V
b101001 o
sIDLE/0 Q
b101011 m
b100111 9
#321632
0!
#325128
b1 '
b101100 H
b101011 k
b101001 W
1!
b1010 j
b100 I
b101010 l
b101001 X
sCMD_WRITE_AP/6 #
b101011 n
b101110 ,
1Y
b101101 +
b101110 .
b1100 E
1Z
b101101 -
0P
b1011 i
b100111 8
sWRITE_1/6 [
b1001 V
b101010 o
b1000 &
b101100 m
b101000 9
#328624
0!
#332120
b0 '
b101101 H
b1000 ;
b101100 k
b101010 W
1!
b1011 j
b101 I
b1 <
b101011 l
sCMD_WRITE_AP/6 5
b101010 X
sCMD_NOP/1 #
b101100 n
b101111 ,
0Y
b101110 +
b101111 .
b1101 E
b101110 -
b1100 i
b101000 8
sWRITE_2/7 [
b1010 V
b101011 o
b0 &
b101101 m
b101001 9
#335616
0!
#339112
b101110 H
b0 ;
b101101 k
b101011 W
1!
b1100 j
b110 I
b0 <
b101100 l
sCMD_NOP/1 5
b101011 X
b101101 n
b110000 ,
b101111 +
b110000 .
b1110 E
b101111 -
b1101 i
b101001 8
sWRITE_3/8 [
b1011 V
b101100 o
b101110 m
b101010 9
#342608
0!
#346104
b101111 H
b101110 k
b101100 W
1!
b1101 j
b111 I
b101101 l
b101100 X
b101110 n
b110001 ,
b110000 +
b110001 .
b1111 E
b110000 -
b1110 i
b101010 8
sWRITE_4/9 [
b1100 V
b101101 o
b101111 m
b101011 9
#349600
0!
#353096
b110000 H
b101111 k
b101101 W
1!
b1110 j
b0 I
b101110 l
b101101 X
b101111 n
b110010 ,
b110001 +
b110010 .
b1000 E
b110001 -
b1111 i
b10 F
b101011 8
sWRITE_5/10 [
b1101 V
b101110 o
b110000 m
b101100 9
#356592
0!
#360088
b10 '
b110001 H
1]
b110000 k
b101110 W
1!
b1111 j
b1 I
b101111 l
b101110 X
sWAS_ACTIVE_NOP1/1 _
sCMD_ACT/7 #
b110000 n
b110011 ,
b110010 +
b110011 .
b1001 E
b110010 -
b1000 i
b101100 8
sWRITE_6/11 [
b1110 V
b101111 o
b110001 m
b101101 9
#363584
0!
#367080
b0 '
b110010 H
0]
b110001 k
b101111 W
1!
b1000 j
b10 I
b10 <
b110000 l
sCMD_ACT/7 5
b101111 X
sNOP3/2 _
sCMD_NOP/1 #
b110001 n
b110100 ,
b110011 +
b110100 .
b1010 E
b110011 -
b1001 i
b101101 8
sWRITE_7/12 [
b1111 V
b110000 o
b110010 m
b101110 9
#370576
0!
#374072
b110011 H
b110010 k
b110000 W
1!
b1001 j
b11 I
b0 <
b110001 l
sCMD_NOP/1 5
b110000 X
sWRITE_0/3 _
b110010 n
b110101 ,
b110100 +
b110101 .
b1011 E
b110100 -
b1010 i
b101110 8
sIDLE/0 [
b1000 V
b110001 o
b110011 m
b101111 9
#377568
0!
#381064
b10 '
b110100 H
1]
b110011 k
b110001 W
1!
b1010 j
b100 I
1^
b110010 l
b110001 X
sWRITE_1/6 _
sCMD_WRITE_AP/6 #
b110011 n
b110110 ,
b110101 +
b110110 .
b1100 E
0Z
b110101 -
b1011 i
b101111 8
b1001 V
b110010 o
b1000 &
b110100 m
b110000 9
#384560
0!
#388056
b0 '
b110101 H
b1000 ;
0]
b110100 k
b110010 W
1!
b1011 j
b101 I
b10 <
b110011 l
sCMD_WRITE_AP/6 5
b110010 X
sWRITE_2/7 _
sCMD_NOP/1 #
b110100 n
b110111 ,
b110110 +
b110111 .
b1101 E
b110110 -
b1100 i
b110000 8
b1010 V
b110011 o
b0 &
b110101 m
b110001 9
#391552
0!
#395048
b110110 H
b0 ;
b110101 k
b110011 W
1!
b1100 j
b110 I
b0 <
b110100 l
sCMD_NOP/1 5
b110011 X
sWRITE_3/8 _
b110101 n
b111000 ,
b110111 +
b111000 .
b1110 E
b110111 -
b1101 i
b110001 8
b1011 V
b110100 o
b110110 m
b110010 9
#398544
0!
#402040
b110111 H
b110110 k
b110100 W
1!
b1101 j
b111 I
b110101 l
b110100 X
sWRITE_4/9 _
b110110 n
b111001 ,
b111000 +
b111001 .
b1111 E
b111000 -
b1110 i
b110010 8
b1100 V
b110101 o
b110111 m
b110011 9
#405536
0!
#409032
b111000 H
b110111 k
b110101 W
1!
b1110 j
b0 I
b110110 l
b110101 X
sWRITE_5/10 _
b110111 n
b111010 ,
b111001 +
b111010 .
b1000 E
b111001 -
b1111 i
b11 F
b110011 8
b1101 V
b110110 o
b111000 m
b110100 9
#412528
0!
#416024
b11 '
b111001 H
b111000 k
sWAS_ACTIVE_NOP1/1 c
b110110 W
1!
b1111 j
b1 I
b110111 l
b110110 X
sWRITE_6/11 _
sCMD_ACT/7 #
b111000 n
b111011 ,
b111010 +
b111011 .
b1001 E
b111010 -
b1000 i
1a
b110100 8
b1110 V
b110111 o
b111001 m
b110101 9
#419520
0!
#423016
b0 '
b111010 H
b111001 k
sNOP3/2 c
b110111 W
1!
b1000 j
b10 I
b11 <
b111000 l
sCMD_ACT/7 5
b110111 X
sWRITE_7/12 _
sCMD_NOP/1 #
b111001 n
b111100 ,
b111011 +
b111100 .
b1010 E
b111011 -
b1001 i
0a
b110101 8
b1111 V
b111000 o
b111010 m
b110110 9
#426512
0!
#430008
b111011 H
b111010 k
sWRITE_0/3 c
b111000 W
1!
b1001 j
b11 I
b0 <
b111001 l
sCMD_NOP/1 5
b111000 X
sIDLE/0 _
b111010 n
b111101 ,
b111100 +
b111101 .
b1011 E
b111100 -
b1010 i
b110110 8
b1000 V
b111001 o
b111011 m
b110111 9
#433504
0!
#437000
b11 '
b111100 H
b111011 k
sWRITE_1/6 c
b111001 W
1!
b1010 j
b100 I
0^
b111010 l
b111001 X
sCMD_WRITE_AP/6 #
b111011 n
b111110 ,
b111101 +
b111110 .
b1100 E
b111101 -
b1011 i
1a
b110111 8
b1001 V
b111010 o
1b
b1000 &
b111100 m
b111000 9
#440496
0!
#443992
b0 '
b111101 H
b1000 ;
b111100 k
sWRITE_2/7 c
b111010 W
1!
b1011 j
b101 I
b11 <
b111011 l
sCMD_WRITE_AP/6 5
b111010 X
sCMD_NOP/1 #
b111100 n
b111111 ,
b111110 +
b111111 .
b1101 E
b111110 -
b1100 i
0a
b111000 8
b1010 V
b111011 o
b0 &
b111101 m
b111001 9
#447488
0!
#450984
b111110 H
b0 ;
b111101 k
sWRITE_3/8 c
b111011 W
1!
b1100 j
b110 I
b0 <
b111100 l
sCMD_NOP/1 5
b111011 X
b111101 n
b111111 +
b1110 E
b111111 -
b1101 i
b111001 8
b1011 V
b111100 o
b111110 m
b111010 9
#454480
0!
#457976
b111111 H
b111110 k
sWRITE_4/9 c
b111100 W
1!
b1101 j
b111 I
b111101 l
b111100 X
b111011 9
b111110 n
b1111 E
b1110 i
b111010 8
b1100 V
b111111 m
b111101 o
#461472
0!
#464968
b111111 k
sWRITE_5/10 c
b111101 W
1!
b1111 i
b1110 j
b111110 l
b111011 8
b1101 V
b111101 X
b111100 9
b111111 n
b111110 o
#468464
0!
#471960
sWRITE_6/11 c
b111110 W
1!
b1111 j
b111111 l
b111100 8
b111111 o
b111110 X
b111101 9
b1110 V
#475456
0!
#478952
sWRITE_7/12 c
b111111 W
b111111 X
b111110 9
1!
b1111 V
b111101 8
#482448
0!
#485944
1!
b111111 9
sIDLE/0 c
b111110 8
#489440
0!
#492936
1!
0b
1%
b111111 8
#496432
0!
#499928
1!
17
#503424
0!
#506920
1!
#510416
0!
#513912
1!
#517408
0!
#520904
1!
sRW_READ/1 *
b0 ,
#524400
0!
#527896
1!
sRW_READ/1 )
b0 +
b1 ,
#531392
0!
#534888
b0 E
1!
b0 I
b0 F
b0 m
sRW_READ/1 R
b10 ,
b1 +
#538384
0!
#541880
b10 +
b1 E
b0 n
1!
b0 i
b1 I
sRW_READ/1 h
sWAS_ACTIVE_NOP1/1 Q
b1 m
sCMD_ACT/7 #
b11 ,
1O
#545376
0!
#548872
b11 +
b10 E
1!
b1 i
b0 j
b10 I
sCMD_ACT/7 5
sNOP3/2 Q
b100 ,
b10 m
sCMD_NOP/1 #
b1 n
b0 o
sRW_READ/1 U
0O
#552368
0!
#555864
b11 E
1!
b10 i
b1 j
b11 I
sCMD_NOP/1 5
b0 V
sREAD_-3/4 Q
b101 ,
b0 X
b11 m
b10 n
b1 o
b100 +
#559360
0!
#562856
1!
b10 j
b100 I
b1 X
sCMD_READ_AP/4 #
b11 n
b110 ,
1O
b101 +
b100 E
b11 i
0%
b1 V
sREAD_-2/13 Q
b100 m
b10 o
#566352
0!
#569848
b1 >
1!
b11 j
b101 I
sCMD_READ_AP/4 5
b10 X
sCMD_NOP/1 #
b100 n
b111 ,
0O
b110 +
b101 E
07
b100 i
b10 V
sREAD_-1/14 Q
b101 m
b11 o
#573344
0!
#576840
b10 >
1!
b100 j
b110 I
sCMD_NOP/1 5
b11 X
b1 =
b101 n
b1000 ,
b111 +
b110 E
b101 i
b11 V
sREAD_0/15 Q
b110 m
b100 o
b1 f
b1011111010101101 @
#580336
0!
#583832
b11 >
1!
b101 j
1(
b111 I
b100 X
b10 =
b1 e
b110 n
b1001 ,
b1000 +
b1011111010101101 ?
b111 E
b110 i
b100 V
sREAD_1/16 Q
b111 m
b101 o
b10 f
#587328
0!
#590824
b100 >
1!
b110 j
b0 I
b101 X
b11 =
b1011111010101101 4
b10 e
b111 n
b1010 ,
b1001 +
b1 g
b0 E
b111 i
b1 F
b110 o
sREAD_2/17 Q
b1000 m
1:
b101 V
b11 f
1D
b0 @
#594320
0!
#597816
b1 '
b1011111010101101 3
b101 >
1!
b111 j
b1 I
b1 B
b110 X
b100 =
sCMD_ACT/7 #
b11 e
b1000 n
b1011 ,
1Y
b1010 +
b10 g
b0 ?
b1 E
b0 i
sWAS_ACTIVE_NOP1/1 [
b111 o
sREAD_3/18 Q
1C
b1001 m
b110 V
b100 f
b1 @
#601312
0!
#604808
b0 '
10
b110 >
1!
b0 j
b10 I
b1 <
sCMD_ACT/7 5
b10 B
b111 X
b101 =
sCMD_NOP/1 #
b0 4
b1001 n
b1100 ,
0Y
b100 e
b1011 +
b11 g
b1 ?
b10 E
b1 i
b1 A
sNOP3/2 [
b1000 o
sREAD_4/19 Q
b1010 m
b111 V
b101 f
b10 @
#608304
0!
#611800
b0 3
b111 >
1!
b1 j
b11 I
b0 <
b1 2
sCMD_NOP/1 5
b11 B
b1000 X
b110 =
b1 4
b101 e
b1010 n
b1101 ,
b1100 +
b100 g
b10 ?
b11 E
b10 i
b10 A
sREAD_-3/4 [
b1001 o
1/
sREAD_5/20 Q
b1011 m
b0 V
b110 f
b11 @
#615296
0!
#618792
b1 '
b1 3
b1000 >
1!
b10 j
b100 I
b10 2
b100 B
b1001 X
b111 =
sCMD_READ_AP/4 #
b10 4
b1011 n
b1110 ,
1Y
b110 e
b1101 +
b101 g
b11 ?
b100 E
b11 i
b11 A
sREAD_-2/13 [
b1 V
sREAD_6/21 Q
b1100 m
b1 1
b1010 o
b111 f
b100 @
#622288
0!
