amaram/sdram_n_fifo_interface/controller_readwrite_readwriteCtrl_sim_thatBurstIncrementingAddress_generatesCorrectWriteSequences.vcd
$comment Generated by Amaranth $end
$date 2022-03-12 10:38:42.987607 $end
$timescale 1 ps $end
$scope module bench $end
$scope module top $end
$var wire 1 ! clk $end
$var wire 1 " rst $end
$var string 1 # _ui__task $end
$var string 1 $ ui__task $end
$var wire 22 % _ui__addr $end
$var wire 22 & ui__addr $end
$var wire 16 ' _ui__data $end
$var wire 16 ( ui__data $end
$var string 1 ) controller_pin_ui__ios__cmd $end
$var string 1 * _controller_pin_ui__ios__cmd $end
$var wire 1 + controller_pin_ui__ios__clk_en $end
$var wire 1 , _controller_pin_ui__ios__clk_en $end
$var wire 1 - controller_pin_ui__ios__dqm $end
$var wire 1 . _controller_pin_ui__ios__dqm $end
$var wire 16 / controller_pin_ui__ios__copi_dq $end
$var wire 16 0 _controller_pin_ui__ios__copi_dq $end
$var wire 16 1 _controller_pin_ui__ios__cipo_dq $end
$var wire 16 2 controller_pin_ui__ios__cipo_dq $end
$var wire 13 3 controller_pin_ui__ios__a $end
$var wire 13 4 _controller_pin_ui__ios__a $end
$var wire 2 5 controller_pin_ui__ios__ba $end
$var wire 2 6 _controller_pin_ui__ios__ba $end
$var wire 1 7 controller_pin_ui__ios__cs $end
$var wire 1 8 _controller_pin_ui__ios__cs $end
$var wire 1 9 controller_pin_ui__ios__we $end
$var wire 1 : _controller_pin_ui__ios__we $end
$var wire 1 ; controller_pin_ui__ios__ras $end
$var wire 1 < _controller_pin_ui__ios__ras $end
$var wire 1 = controller_pin_ui__ios__cas $end
$var wire 1 > _controller_pin_ui__ios__cas $end
$var wire 9 ? col $end
$var wire 2 @ bank $end
$var wire 11 A row $end
$var wire 16 B data $end
$var wire 3 C burst_index $end
$var wire 1 D bank_idle_0 $end
$var string 1 E rw_bank_0_fsm_state $end
$var string 1 F $sample$s$_ui__task$sync$1 $end
$var wire 1 G $sample$c$0$sync$1 $end
$var wire 11 H $sample$s$row$sync$1 $end
$var string 1 I $sample$s$_ui__task$sync$3 $end
$var wire 9 J $sample$s$col$sync$3 $end
$var wire 16 K $sample$s$data$sync$3 $end
$var wire 1 L bank_idle_1 $end
$var string 1 M rw_bank_1_fsm_state $end
$var wire 1 N $sample$c$1$sync$1 $end
$var wire 1 O bank_idle_2 $end
$var string 1 P rw_bank_2_fsm_state $end
$var wire 2 Q $sample$c$2$sync$1 $end
$var wire 1 R bank_idle_3 $end
$var string 1 S rw_bank_3_fsm_state $end
$var wire 2 T $sample$c$3$sync$1 $end
$var string 1 U $sample$s$_ui__task$sync$2 $end
$var wire 9 V $sample$s$col$sync$1 $end
$var wire 9 W $sample$s$col$sync$2 $end
$var wire 16 X $sample$s$data$sync$1 $end
$var wire 16 Y $sample$s$data$sync$2 $end
$upscope $end
$upscope $end
$enddefinitions $end
#0
$dumpvars
0!
0"
sRW_IDLE/0 #
sRW_IDLE/0 $
b0 %
b0 &
b0 '
b0 (
sCMD_DESL/0 )
sCMD_DESL/0 *
0+
0,
0-
0.
b0 /
b0 0
b0 1
b0 2
b0 3
b0 4
b0 5
b0 6
07
08
09
0:
0;
0<
0=
0>
b0 ?
b0 @
b0 A
b0 B
b0 C
0D
sIDLE/0 E
sRW_IDLE/0 F
0G
b0 H
sRW_IDLE/0 I
b0 J
b0 K
0L
sIDLE/0 M
1N
0O
sIDLE/0 P
b10 Q
0R
sIDLE/0 S
b11 T
sRW_IDLE/0 U
b0 V
b0 W
b0 X
b0 Y
$end
#3496
b10101011110011011110 &
b1011110011011110 (
sCMD_NOP/1 *
1!
1O
1.
1D
1L
1,
1R
#6992
0!
#10488
b10101011110011011111 &
b1011110011011111 (
1!
1+
sCMD_NOP/1 )
b1011110011011110 '
1-
b10101011110011011110 %
#13984
0!
#17480
b10101011110011100000 &
b11 @
b101010111 A
b1011110011100000 (
b100110110 ?
1!
b1011110011011110 B
b1011110011011111 '
sRW_WRITE/2 $
b10101011110011011111 %
b110 C
#20976
0!
#24472
b10101011110011100001 &
b1011110011100001 (
b1011110011011110 X
sRW_WRITE/2 #
b100110111 ?
1!
b100110110 V
b1011110011011111 B
b1011110011100000 '
sRW_IDLE/0 $
b101010111 H
b10101011110011100000 %
b111 C
#27968
0!
#31464
b10101011110011100010 &
sRW_WRITE/2 F
b0 @
b1011110011100010 (
b1011110011011111 X
sRW_IDLE/0 #
b100111000 ?
1!
b100110111 V
b1011110011100000 B
b1011110011100001 '
b100110110 W
b10101011110011100001 %
b1011110011011110 Y
b0 C
#34960
0!
#38456
b101010111 4
b1011110011100000 X
1!
b100111000 V
sWAS_ACTIVE_NOP1/1 E
b100110110 J
b1011110011100010 '
b100110111 W
b10101011110011100010 %
b1 C
b10101011110011100011 &
sRW_IDLE/0 F
sRW_WRITE/2 U
b1011110011100011 (
b100111001 ?
sCMD_ACT/7 *
b1011110011100001 B
b1011110011011110 K
b1011110011011111 Y
#41952
0!
#45448
b0 4
b1011110011100001 X
1!
b100111001 V
sCMD_ACT/7 )
b100110111 J
sNOP3/2 E
b1011110011100011 '
0D
b100111000 W
b10101011110011100011 %
b10 C
b101010111 3
b10101011110011100100 &
sRW_IDLE/0 U
b1011110011100100 (
b100111010 ?
sCMD_NOP/1 *
b1011110011100010 B
b1011110011011111 K
sRW_WRITE/2 I
b1011110011100000 Y
#48944
0!
#52440
b1011110011100010 X
1!
b100111010 V
sCMD_NOP/1 )
b100111000 J
b1011110011100100 '
sWRITE_0/3 E
b100111001 W
b10101011110011100100 %
b11 C
b0 3
b10101011110011100101 &
b1011110011100101 (
b100111011 ?
b1011110011100011 B
b1011110011100000 K
sRW_IDLE/0 I
b1011110011100001 Y
#55936
0!
#59432
b100111000 4
b1011110011100011 X
1!
b100111011 V
b1011110011100000 0
sWRITE_1/6 E
b100111001 J
b1011110011100101 '
0.
b100111010 W
b10101011110011100101 %
b100 C
b10101011110011100110 &
b1011110011100110 (
b100111100 ?
sCMD_WRITE_AP/6 *
b1011110011100100 B
b1011110011100001 K
b1011110011100010 Y
#62928
0!
#66424
b0 4
b1011110011100100 X
1!
b100111100 V
b1011110011100000 /
b1011110011100001 0
sCMD_WRITE_AP/6 )
b100111010 J
sWRITE_2/7 E
b1011110011100110 '
0-
b100111011 W
b10101011110011100110 %
b101 C
b10101011110011100111 &
b1011110011100111 (
b100111101 ?
sCMD_NOP/1 *
b1011110011100101 B
b1011110011100010 K
b100111000 3
b1011110011100011 Y
#69920
0!
#73416
b1011110011100101 X
1!
b100111101 V
b1011110011100001 /
b1011110011100010 0
sCMD_NOP/1 )
b100111011 J
sWRITE_3/8 E
b1011110011100111 '
b100111100 W
b10101011110011100111 %
b110 C
b10101011110011101000 &
b1011110011101000 (
b100111110 ?
b1011110011100110 B
sRW_WRITE/2 $
b1011110011100011 K
b0 3
b1011110011100100 Y
#76912
0!
#80408
b1011110011100110 X
1!
b100111110 V
b1011110011100010 /
b1011110011100011 0
sWRITE_4/9 E
b100111100 J
b1011110011101000 '
b100111101 W
b10101011110011101000 %
b111 C
b10101011110011101001 &
b1011110011101001 (
sRW_WRITE/2 #
b100111111 ?
b1011110011100111 B
sRW_IDLE/0 $
b1011110011100100 K
b1011110011100101 Y
#83904
0!
#87400
b1011110011100111 X
1!
b100111111 V
b1011110011100011 /
b1011110011100100 0
sWRITE_5/10 E
b100111101 J
b1011110011101001 '
b100111110 W
b10101011110011101001 %
b0 C
b1 @
b10101011110011101010 &
sRW_WRITE/2 F
b1011110011101010 (
sRW_IDLE/0 #
b100111000 ?
b1011110011101000 B
b1011110011100101 K
b1011110011100110 Y
#90896
0!
#94392
sWAS_ACTIVE_NOP1/1 M
b101010111 4
b1011110011101000 X
1!
b100111000 V
b1011110011100100 /
b1011110011100101 0
sWRITE_6/11 E
b100111110 J
b1011110011101010 '
b100111111 W
b10101011110011101010 %
b1 6
b1 C
b10101011110011101011 &
sRW_IDLE/0 F
sRW_WRITE/2 U
b1011110011101011 (
b100111001 ?
sCMD_ACT/7 *
b1011110011101001 B
b1011110011100110 K
b1011110011100111 Y
#97888
0!
#101384
sNOP3/2 M
b0 4
b1011110011101001 X
1!
b100111001 V
b1011110011100101 /
b1011110011100110 0
sCMD_ACT/7 )
b100111111 J
sWRITE_7/12 E
b1011110011101011 '
b100111000 W
b10101011110011101011 %
b0 6
b10 C
b101010111 3
b10101011110011101100 &
sRW_IDLE/0 U
b1011110011101100 (
b100111010 ?
sCMD_NOP/1 *
b1011110011101010 B
b1 5
b1011110011100111 K
0L
sRW_WRITE/2 I
b1011110011101000 Y
#104880
0!
#108376
sWRITE_0/3 M
b1011110011101010 X
1!
b100111010 V
b1011110011100110 /
b1011110011100111 0
sCMD_NOP/1 )
b100111000 J
sIDLE/0 E
b1011110011101100 '
b100111001 W
b10101011110011101100 %
b11 C
b0 3
b10101011110011101101 &
b1011110011101101 (
b100111011 ?
b1011110011101011 B
b0 5
b1011110011101000 K
sRW_IDLE/0 I
b1011110011101001 Y
#111872
0!
#115368
sWRITE_1/6 M
b100111000 4
b1011110011101011 X
1!
b100111011 V
b1011110011100111 /
b1011110011101000 0
b100111001 J
b1011110011101101 '
1D
b100111010 W
b10101011110011101101 %
b1 6
b100 C
b10101011110011101110 &
b1011110011101110 (
b100111100 ?
sCMD_WRITE_AP/6 *
b1011110011101100 B
b1011110011101001 K
b1011110011101010 Y
#118864
0!
#122360
sWRITE_2/7 M
b0 4
b1011110011101100 X
1!
b100111100 V
b1011110011101000 /
b1011110011101001 0
sCMD_WRITE_AP/6 )
b100111010 J
b1011110011101110 '
b100111011 W
b10101011110011101110 %
b0 6
b101 C
b10101011110011101111 &
b1011110011101111 (
b100111101 ?
sCMD_NOP/1 *
b1011110011101101 B
b1 5
b1011110011101010 K
b100111000 3
b1011110011101011 Y
#125856
0!
#129352
sWRITE_3/8 M
b1011110011101101 X
1!
b100111101 V
b1011110011101001 /
b1011110011101010 0
sCMD_NOP/1 )
b100111011 J
b1011110011101111 '
b100111100 W
b10101011110011101111 %
b110 C
b10101011110011110000 &
b1011110011110000 (
b100111110 ?
b1011110011101110 B
b0 5
sRW_WRITE/2 $
b1011110011101011 K
b0 3
b1011110011101100 Y
#132848
0!
#136344
sWRITE_4/9 M
b1011110011101110 X
1!
b100111110 V
b1011110011101010 /
b1011110011101011 0
b100111100 J
b1011110011110000 '
b100111101 W
b10101011110011110000 %
b111 C
b10101011110011110001 &
b1011110011110001 (
sRW_WRITE/2 #
b100111111 ?
b1011110011101111 B
sRW_IDLE/0 $
b1011110011101100 K
b1011110011101101 Y
#139840
0!
#143336
sWRITE_5/10 M
b1011110011101111 X
1!
b100111111 V
b1011110011101011 /
b1011110011101100 0
b100111101 J
b1011110011110001 '
b100111110 W
b10101011110011110001 %
b0 C
b10 @
b10101011110011110010 &
sRW_WRITE/2 F
b1011110011110010 (
sRW_IDLE/0 #
b100111000 ?
b1011110011110000 B
b1011110011101101 K
b1011110011101110 Y
#146832
0!
#150328
sWRITE_6/11 M
b101010111 4
b1011110011110000 X
1!
b100111000 V
b1011110011101100 /
b1011110011101101 0
b100111110 J
b1011110011110010 '
sWAS_ACTIVE_NOP1/1 P
b100111111 W
b10101011110011110010 %
b10 6
b1 C
b10101011110011110011 &
sRW_IDLE/0 F
sRW_WRITE/2 U
b1011110011110011 (
b100111001 ?
sCMD_ACT/7 *
b1011110011110001 B
b1011110011101110 K
b1011110011101111 Y
#153824
0!
#157320
sWRITE_7/12 M
b0 4
b1011110011110001 X
1!
b100111001 V
0O
b1011110011101101 /
b1011110011101110 0
sCMD_ACT/7 )
b100111111 J
b1011110011110011 '
sNOP3/2 P
b100111000 W
b10101011110011110011 %
b0 6
b10 C
b101010111 3
b10101011110011110100 &
sRW_IDLE/0 U
b1011110011110100 (
b100111010 ?
sCMD_NOP/1 *
b1011110011110010 B
b10 5
b1011110011101111 K
sRW_WRITE/2 I
b1011110011110000 Y
#160816
0!
#164312
sIDLE/0 M
b1011110011110010 X
1!
b100111010 V
b1011110011101110 /
b1011110011101111 0
sCMD_NOP/1 )
b100111000 J
b1011110011110100 '
sWRITE_0/3 P
b100111001 W
b10101011110011110100 %
b11 C
b0 3
b10101011110011110101 &
b1011110011110101 (
b100111011 ?
b1011110011110011 B
b0 5
b1011110011110000 K
sRW_IDLE/0 I
b1011110011110001 Y
#167808
0!
#171304
b100111000 4
b1011110011110011 X
1!
b100111011 V
b1011110011101111 /
b1011110011110000 0
b100111001 J
b1011110011110101 '
sWRITE_1/6 P
b100111010 W
b10101011110011110101 %
b10 6
b100 C
b10101011110011110110 &
b1011110011110110 (
b100111100 ?
sCMD_WRITE_AP/6 *
b1011110011110100 B
b1011110011110001 K
1L
b1011110011110010 Y
#174800
0!
#178296
b0 4
b1011110011110100 X
1!
b100111100 V
b1011110011110000 /
b1011110011110001 0
sCMD_WRITE_AP/6 )
b100111010 J
b1011110011110110 '
sWRITE_2/7 P
b100111011 W
b10101011110011110110 %
b0 6
b101 C
b10101011110011110111 &
b1011110011110111 (
b100111101 ?
sCMD_NOP/1 *
b1011110011110101 B
b10 5
b1011110011110010 K
b100111000 3
b1011110011110011 Y
#181792
0!
#185288
b1011110011110101 X
1!
b100111101 V
b1011110011110001 /
b1011110011110010 0
sCMD_NOP/1 )
b100111011 J
b1011110011110111 '
sWRITE_3/8 P
b100111100 W
b10101011110011110111 %
b110 C
b10101011110011111000 &
b1011110011111000 (
b100111110 ?
b1011110011110110 B
b0 5
sRW_WRITE/2 $
b1011110011110011 K
b0 3
b1011110011110100 Y
#188784
0!
#192280
b1011110011110110 X
1!
b100111110 V
b1011110011110010 /
b1011110011110011 0
b100111100 J
b1011110011111000 '
sWRITE_4/9 P
b100111101 W
b10101011110011111000 %
b111 C
b10101011110011111001 &
b1011110011111001 (
sRW_WRITE/2 #
b100111111 ?
b1011110011110111 B
sRW_IDLE/0 $
b1011110011110100 K
b1011110011110101 Y
#195776
0!
#199272
b1011110011110111 X
1!
b100111111 V
b1011110011110011 /
b1011110011110100 0
b100111101 J
b1011110011111001 '
sWRITE_5/10 P
b100111110 W
b10101011110011111001 %
b0 C
b11 @
b10101011110011111010 &
sRW_WRITE/2 F
b1011110011111010 (
sRW_IDLE/0 #
b100111000 ?
b1011110011111000 B
b1011110011110101 K
b1011110011110110 Y
#202768
0!
#206264
b101010111 4
b1011110011111000 X
1!
b100111000 V
b1011110011110100 /
b1011110011110101 0
b100111110 J
b1011110011111010 '
sWRITE_6/11 P
b100111111 W
b10101011110011111010 %
b11 6
b1 C
b10101011110011111011 &
sRW_IDLE/0 F
sRW_WRITE/2 U
b1011110011111011 (
b100111001 ?
sCMD_ACT/7 *
sWAS_ACTIVE_NOP1/1 S
b1011110011111001 B
b1011110011110110 K
b1011110011110111 Y
#209760
0!
#213256
b0 4
b1011110011111001 X
1!
b100111001 V
b1011110011110101 /
b1011110011110110 0
sCMD_ACT/7 )
b100111111 J
b1011110011111011 '
sWRITE_7/12 P
b100111000 W
b10101011110011111011 %
b0 6
b10 C
b101010111 3
0R
b10101011110011111100 &
sRW_IDLE/0 U
b1011110011111100 (
b100111010 ?
sCMD_NOP/1 *
sNOP3/2 S
b1011110011111010 B
b11 5
b1011110011110111 K
sRW_WRITE/2 I
b1011110011111000 Y
#216752
0!
#220248
b1011110011111010 X
1!
b100111010 V
b1011110011110110 /
b1011110011110111 0
sCMD_NOP/1 )
b100111000 J
b1011110011111100 '
sIDLE/0 P
b100111001 W
b10101011110011111100 %
b11 C
b0 3
b10101011110011111101 &
b1011110011111101 (
b100111011 ?
sWRITE_0/3 S
b1011110011111011 B
b0 5
b1011110011111000 K
sRW_IDLE/0 I
b1011110011111001 Y
#223744
0!
#227240
b100111000 4
b1011110011111011 X
1!
b100111011 V
1O
b1011110011110111 /
b1011110011111000 0
b100111001 J
b1011110011111101 '
b100111010 W
b10101011110011111101 %
b11 6
b100 C
b10101011110011111110 &
b1011110011111110 (
b100111100 ?
sCMD_WRITE_AP/6 *
sWRITE_1/6 S
b1011110011111100 B
b1011110011111001 K
b1011110011111010 Y
#230736
0!
#234232
b0 4
b1011110011111100 X
1!
b100111100 V
b1011110011111000 /
b1011110011111001 0
sCMD_WRITE_AP/6 )
b100111010 J
b1011110011111110 '
b100111011 W
b10101011110011111110 %
b0 6
b101 C
b10101011110011111111 &
b1011110011111111 (
b100111101 ?
sCMD_NOP/1 *
sWRITE_2/7 S
b1011110011111101 B
b11 5
b1011110011111010 K
b100111000 3
b1011110011111011 Y
#237728
0!
#241224
b1011110011111101 X
1!
b100111101 V
b1011110011111001 /
b1011110011111010 0
sCMD_NOP/1 )
b100111011 J
b1011110011111111 '
b100111100 W
b10101011110011111111 %
b110 C
b10101011110100000000 &
b1011110100000000 (
b100111110 ?
sWRITE_3/8 S
b1011110011111110 B
b0 5
sRW_WRITE/2 $
b1011110011111011 K
b0 3
b1011110011111100 Y
#244720
0!
#248216
b1011110011111110 X
1!
b100111110 V
b1011110011111010 /
b1011110011111011 0
b100111100 J
b1011110100000000 '
b100111101 W
b10101011110100000000 %
b111 C
b10101011110100000001 &
b1011110100000001 (
sRW_WRITE/2 #
b100111111 ?
sWRITE_4/9 S
b1011110011111111 B
sRW_IDLE/0 $
b1011110011111100 K
b1011110011111101 Y
#251712
0!
#255208
b1011110011111111 X
1!
b100111111 V
b1011110011111011 /
b1011110011111100 0
b100111101 J
b1011110100000001 '
b100111110 W
b10101011110100000001 %
b0 C
b0 @
b10101011110100000010 &
sRW_WRITE/2 F
b1011110100000010 (
sRW_IDLE/0 #
b101000000 ?
sWRITE_5/10 S
b1011110100000000 B
b1011110011111101 K
b1011110011111110 Y
#258704
0!
#262200
b101010111 4
b1011110100000000 X
1!
b101000000 V
b1011110011111100 /
b1011110011111101 0
sWAS_ACTIVE_NOP1/1 E
b100111110 J
b1011110100000010 '
b100111111 W
b10101011110100000010 %
b1 C
b10101011110100000011 &
sRW_IDLE/0 F
sRW_WRITE/2 U
b1011110100000011 (
b101000001 ?
sCMD_ACT/7 *
sWRITE_6/11 S
b1011110100000001 B
b1011110011111110 K
b1011110011111111 Y
#265696
0!
#269192
b0 4
b1011110100000001 X
1!
b101000001 V
b1011110011111101 /
b1011110011111110 0
sCMD_ACT/7 )
b100111111 J
sNOP3/2 E
b1011110100000011 '
0D
b101000000 W
b10101011110100000011 %
b10 C
b101010111 3
b10101011110100000100 &
sRW_IDLE/0 U
b1011110100000100 (
b101000010 ?
sCMD_NOP/1 *
sWRITE_7/12 S
b1011110100000010 B
b1011110011111111 K
sRW_WRITE/2 I
b1011110100000000 Y
#272688
0!
#276184
b1011110100000010 X
1!
b101000010 V
b1011110011111110 /
b1011110011111111 0
sCMD_NOP/1 )
b101000000 J
sWRITE_0/3 E
b1011110100000100 '
b101000001 W
b10101011110100000100 %
b11 C
b0 3
b10101011110100000101 &
b1011110100000101 (
b101000011 ?
sIDLE/0 S
b1011110100000011 B
b1011110100000000 K
sRW_IDLE/0 I
b1011110100000001 Y
#279680
0!
#283176
b101000000 4
b1011110100000011 X
1!
b101000011 V
b1011110011111111 /
b1011110100000000 0
sWRITE_1/6 E
b101000001 J
b1011110100000101 '
b101000010 W
b10101011110100000101 %
b100 C
1R
b101000100 ?
sCMD_WRITE_AP/6 *
b1011110100000100 B
b1011110100000001 K
b1011110100000010 Y
#286672
0!
#290168
b0 4
b1011110100000100 X
1!
b101000100 V
b1011110100000000 /
b1011110100000001 0
sCMD_WRITE_AP/6 )
b101000010 J
sWRITE_2/7 E
b101000011 W
b101 C
b101000101 ?
sCMD_NOP/1 *
b1011110100000101 B
b1011110100000010 K
b101000000 3
b1011110100000011 Y
#293664
0!
#297160
b1011110100000101 X
1!
b101000101 V
b1011110100000001 /
b1011110100000010 0
sCMD_NOP/1 )
b101000011 J
sWRITE_3/8 E
b1011110100000011 K
b0 3
b101000100 W
b1011110100000100 Y
#300656
0!
#304152
1!
b1011110100000010 /
b1011110100000011 0
sWRITE_4/9 E
b101000100 J
b1011110100000100 K
b101000101 W
b1011110100000101 Y
#307648
0!
#311144
b101000101 J
b1011110100000101 K
1!
b1011110100000011 /
b1011110100000100 0
sWRITE_5/10 E
#314640
0!
#318136
1!
b1011110100000100 /
b1011110100000101 0
sWRITE_6/11 E
#321632
0!
#325128
1!
b1011110100000101 /
sWRITE_7/12 E
#328624
0!
#332120
1!
sIDLE/0 E
#335616
0!
#339112
1.
1!
1D
b0 0
#342608
0!
#346104
1!
b0 /
1-
